
[

  {
    "category": "parquet",
    "src": "assets/products/parquet/Kahrs/Supreme/Manor Oak.jpg",
    "brand": "Kahrs",
    "collection": "Supreme",
    "width": 2110,
    "height": 2985
  },
  {
    "category": "parquet",
    "src": "assets/products/parquet/Kahrs/Supreme/Maison Oak.jpg",
    "brand": "Kahrs",
    "collection": "Supreme",
    "width": 2110,
    "height": 2985
  },
  {
    "category": "parquet",
    "src": "assets/products/parquet/Kahrs/Supreme/Espace Oak.jpg",
    "brand": "Kahrs",
    "collection": "Supreme",
    "width": 2110,
    "height": 2985
  },
  {
    "category": "parquet",
    "src": "assets/products/parquet/Kahrs/Supreme/Casa Oak.jpg",
    "brand": "Kahrs",
    "collection": "Supreme",
    "width": 2110,
    "height": 2985
  },
  {
    "category": "parquet",
    "src": "assets/products/parquet/Kahrs/Supreme/Opaque.jpg",
    "brand": "Kahrs",
    "collection": "Supreme",
    "width": 2135,
    "height": 3020
  },
  {
    "category": "parquet",
    "src": "assets/products/parquet/Kahrs/Supreme/Pearl.jpg",
    "brand": "Kahrs",
    "collection": "Supreme",
    "width": 2120,
    "height": 3000
  },
  {
    "category": "parquet",
    "src": "assets/products/parquet/Kahrs/Supreme/Fumoir.jpg",
    "brand": "Kahrs",
    "collection": "Supreme",
    "width": 2120,
    "height": 3000
  },
  {
    "category": "parquet",
    "src": "assets/products/parquet/Kahrs/Supreme/Black Silver.jpg",
    "brand": "Kahrs",
    "collection": "Supreme",
    "width": 2135,
    "height": 3020
  },
  {
    "category": "parquet",
    "src": "assets/products/parquet/Kahrs/Supreme/Black Copper.jpg",
    "brand": "Kahrs",
    "collection": "Supreme",
    "width": 2135,
    "height": 3020
  }


]
