# 3ds Max Wavefront OBJ Exporter v0.97b - (c)2007 guruware
# File Created: 30.01.2016 12:42:25

mtllib _BOTTOM.mtl

#
# object _BOTTOM_
#

v  -760.000061 -5.000061 2130.000000
v  -760.000061 -5.000061 -0.000000
v  -1625.000000 -5.000061 -0.000000
v  -1625.000000 -5.000061 2130.000000
v  1625.000000 -5.000061 -2130.000000
v  749.999939 -5.000061 -2130.000000
v  749.999939 -5.000061 -0.000000
v  1625.000000 -5.000061 -0.000000
v  749.999878 -5.000061 2130.000000
v  -1625.000000 -5.000061 -2130.000000
v  -760.000061 -5.000061 -2130.000000
v  1625.000000 -5.000061 2130.000000
v  -760.000061 -5.000061 2225.000000
v  749.999878 -5.000061 2225.000000
# 14 vertices

vn 0.000000 1.000000 0.000000
# 1 vertex normals

vt 0.866625 -0.261822 0.000500
vt 0.866625 1.868178 0.000500
vt 0.001625 1.868178 0.000500
vt 0.001625 -0.261822 0.000500
vt 3.251626 3.998178 0.000500
vt 2.376626 3.998178 0.000500
vt 2.376625 1.868178 0.000500
vt 3.251625 1.868178 0.000500
vt 2.376625 -0.261822 0.000500
vt 0.001626 3.998178 0.000500
vt 0.866626 3.998178 0.000500
vt 3.251625 -0.261822 0.000500
vt 0.866625 -0.356822 0.000500
vt 2.376625 -0.356822 0.000500
# 14 texture coords

g _BOTTOM_
usemtl wire_166229229
s 2
f 1/1/1 2/2/1 3/3/1 
f 3/3/1 4/4/1 1/1/1 
f 5/5/1 6/6/1 7/7/1 
f 7/7/1 8/8/1 5/5/1 
f 9/9/1 7/7/1 2/2/1 
f 2/2/1 1/1/1 9/9/1 
f 10/10/1 3/3/1 2/2/1 
f 2/2/1 11/11/1 10/10/1 
f 11/11/1 2/2/1 7/7/1 
f 7/7/1 6/6/1 11/11/1 
f 12/12/1 8/8/1 7/7/1 
f 7/7/1 9/9/1 12/12/1 
s off
f 9/9/1 1/1/1 13/13/1 
f 13/13/1 14/14/1 9/9/1 
# 14 faces

