# 3ds Max Wavefront OBJ Exporter v0.97b - (c)2007 guruware
# File Created: 02.12.2015 12:36:20

mtllib _BOTTOM.mtl

#
# object _BOTTOM
#

v  -2125.431641 0.000000 2219.712158
v  -1065.431641 0.000000 2219.712158
v  -1065.431641 0.000000 739.712219
v  -2125.431641 0.000000 739.712219
v  1064.568359 0.000000 2219.712158
v  1064.568359 0.000000 739.712219
v  -55.431656 0.000000 2219.712158
v  2124.568359 0.000000 2219.712158
v  2124.568359 0.000000 739.712219
v  -1065.431641 0.000000 -740.287781
v  -2125.431641 0.000000 -740.287781
v  1064.568359 0.000000 -740.287781
v  2124.568359 0.000000 -740.287781
v  -1065.431641 0.000000 -2220.287842
v  -2125.431641 0.000000 -2220.287842
v  1064.568359 0.000000 -2220.287842
v  2124.568359 0.000000 -2220.287842
v  1064.568359 0.000000 -2520.287842
v  -1065.431641 0.000000 -2520.287842
v  -1065.431641 0.000000 2419.711426
v  -55.431656 0.000000 2419.711426
# 21 vertices

vn 0.000000 1.000000 -0.000000
# 1 vertex normals

vt 0.010000 0.027683 0.000000
vt 0.103720 0.027683 0.000000
vt 0.103720 0.158537 0.000000
vt 0.010000 0.158537 0.000000
vt 0.292043 0.027683 0.000000
vt 0.292043 0.158537 0.000000
vt 0.193019 0.027683 0.000000
vt 0.385763 0.027683 0.000000
vt 0.385763 0.158537 0.000000
vt 0.103720 0.289391 0.000000
vt 0.010000 0.289391 0.000000
vt 0.292043 0.289391 0.000000
vt 0.385763 0.289391 0.000000
vt 0.103720 0.420245 0.000000
vt 0.010000 0.420245 0.000000
vt 0.292043 0.420245 0.000000
vt 0.385763 0.420245 0.000000
vt 0.292043 0.446769 0.000000
vt 0.103720 0.446769 0.000000
vt 0.103720 0.010000 0.000000
vt 0.193019 0.010000 0.000000
# 21 texture coords

g _BOTTOM
usemtl _WALLS_Shadows_2
s 2
f 1/1/1 2/2/1 3/3/1 
f 3/3/1 4/4/1 1/1/1 
f 5/5/1 6/6/1 3/3/1 
f 7/7/1 5/5/1 3/3/1 
f 2/2/1 7/7/1 3/3/1 
f 5/5/1 8/8/1 9/9/1 
f 9/9/1 6/6/1 5/5/1 
f 4/4/1 3/3/1 10/10/1 
f 10/10/1 11/11/1 4/4/1 
f 3/3/1 6/6/1 12/12/1 
f 12/12/1 10/10/1 3/3/1 
f 6/6/1 9/9/1 13/13/1 
f 13/13/1 12/12/1 6/6/1 
f 11/11/1 10/10/1 14/14/1 
f 14/14/1 15/15/1 11/11/1 
f 10/10/1 12/12/1 16/16/1 
f 16/16/1 14/14/1 10/10/1 
f 12/12/1 13/13/1 17/17/1 
f 17/17/1 16/16/1 12/12/1 
s off
f 14/14/1 16/16/1 18/18/1 
f 18/18/1 19/19/1 14/14/1 
f 7/7/1 2/2/1 20/20/1 
f 20/20/1 21/21/1 7/7/1 
# 23 faces

