[

  {
    "category": "wallpaper",
    "src": "assets/products/oboi/Seabrook/Classica/CS40001.jpg",
    "brand": "Seabrook",
    "collection": "Classica",
    "width": 686,
    "height": 641
  },
  {
    "category": "wallpaper",
    "src": "assets/products/oboi/Seabrook/Classica/CS40002.jpg",
    "brand": "Seabrook",
    "collection": "Classica",
    "width": 686,
    "height": 641
  },
  {
    "category": "wallpaper",
    "src": "assets/products/oboi/Seabrook/Classica/CS40003.jpg",
    "brand": "Seabrook",
    "collection": "Classica",
    "width": 686,
    "height": 641
  },
  {
    "category": "wallpaper",
    "src": "assets/products/oboi/Seabrook/Classica/CS40006.jpg",
    "brand": "Seabrook",
    "collection": "Classica",
    "width": 686,
    "height": 641
  },
  {
    "category": "wallpaper",
    "src": "assets/products/oboi/Seabrook/Classica/CS40011.jpg",
    "brand": "Seabrook",
    "collection": "Classica",
    "width": 686,
    "height": 641
  },
  {
    "category": "wallpaper",
    "src": "assets/products/oboi/Seabrook/Classica/CS40102.jpg",
    "brand": "Seabrook",
    "collection": "Classica",
    "width": 686,
    "height": 641
  },
  {
    "category": "wallpaper",
    "src": "assets/products/oboi/Seabrook/Classica/CS40103.jpg",
    "brand": "Seabrook",
    "collection": "Classica",
    "width": 686,
    "height": 641
  },
  {
    "category": "wallpaper",
    "src": "assets/products/oboi/Seabrook/Classica/CS40106.jpg",
    "brand": "Seabrook",
    "collection": "Classica",
    "width": 686,
    "height": 641
  },
  {
    "category": "wallpaper",
    "src": "assets/products/oboi/Seabrook/Classica/CS40107.jpg",
    "brand": "Seabrook",
    "collection": "Classica",
    "width": 686,
    "height": 641
  },
  {
    "category": "wallpaper",
    "src": "assets/products/oboi/Seabrook/Classica/CS40202.jpg",
    "brand": "Seabrook",
    "collection": "Classica",
    "width": 686,
    "height": 641
  },
  {
    "category": "wallpaper",
    "src": "assets/products/oboi/Seabrook/Classica/CS40206.jpg",
    "brand": "Seabrook",
    "collection": "Classica",
    "width": 686,
    "height": 641
  },
  {
    "category": "wallpaper",
    "src": "assets/products/oboi/Seabrook/Classica/CS40207.jpg",
    "brand": "Seabrook",
    "collection": "Classica",
    "width": 686,
    "height": 641
  },
  {
    "category": "wallpaper",
    "src": "assets/products/oboi/Seabrook/Classica/CS40209.jpg",
    "brand": "Seabrook",
    "collection": "Classica",
    "width": 686,
    "height": 641
  },
  {
    "category": "wallpaper",
    "src": "assets/products/oboi/Seabrook/Classica/CS40302.jpg",
    "brand": "Seabrook",
    "collection": "Classica",
    "width": 686,
    "height": 641
  },
  {
    "category": "wallpaper",
    "src": "assets/products/oboi/Seabrook/Classica/CS40303.jpg",
    "brand": "Seabrook",
    "collection": "Classica",
    "width": 686,
    "height": 641
  },
  {
    "category": "wallpaper",
    "src": "assets/products/oboi/Seabrook/Classica/CS40307.jpg",
    "brand": "Seabrook",
    "collection": "Classica",
    "width": 686,
    "height": 641
  },
  {
    "category": "wallpaper",
    "src": "assets/products/oboi/Seabrook/Classica/CS40309.jpg",
    "brand": "Seabrook",
    "collection": "Classica",
    "width": 686,
    "height": 641
  },







  {
    "category": "wallpaper",
    "src": "assets/products/oboi/Seabrook/Classica/CS40502.jpg",
    "brand": "Seabrook",
    "collection": "Classica",
    "width": 686,
    "height": 641
  },
  {
    "category": "wallpaper",
    "src": "assets/products/oboi/Seabrook/Classica/CS40506.jpg",
    "brand": "Seabrook",
    "collection": "Classica",
    "width": 686,
    "height": 641
  },
  {
    "category": "wallpaper",
    "src": "assets/products/oboi/Seabrook/Classica/CS40507.jpg",
    "brand": "Seabrook",
    "collection": "Classica",
    "width": 686,
    "height": 641
  },
  {
    "category": "wallpaper",
    "src": "assets/products/oboi/Seabrook/Classica/CS40509.jpg",
    "brand": "Seabrook",
    "collection": "Classica",
    "width": 686,
    "height": 641
  },
  {
    "category": "wallpaper",
    "src": "assets/products/oboi/Seabrook/Classica/CS40701.jpg",
    "brand": "Seabrook",
    "collection": "Classica",
    "width": 686,
    "height": 641
  },
  {
    "category": "wallpaper",
    "src": "assets/products/oboi/Seabrook/Classica/CS40702.jpg",
    "brand": "Seabrook",
    "collection": "Classica",
    "width": 686,
    "height": 641
  },
  {
    "category": "wallpaper",
    "src": "assets/products/oboi/Seabrook/Classica/CS40705.jpg",
    "brand": "Seabrook",
    "collection": "Classica",
    "width": 686,
    "height": 641
  },
  {
    "category": "wallpaper",
    "src": "assets/products/oboi/Seabrook/Classica/CS40707.jpg",
    "brand": "Seabrook",
    "collection": "Classica",
    "width": 686,
    "height": 641
  },
  {
    "category": "wallpaper",
    "src": "assets/products/oboi/Seabrook/Classica/CS40802.jpg",
    "brand": "Seabrook",
    "collection": "Classica",
    "width": 686,
    "height": 641
  },
  {
    "category": "wallpaper",
    "src": "assets/products/oboi/Seabrook/Classica/CS40803.jpg",
    "brand": "Seabrook",
    "collection": "Classica",
    "width": 686,
    "height": 641
  },
  {
    "category": "wallpaper",
    "src": "assets/products/oboi/Seabrook/Classica/CS40805.jpg",
    "brand": "Seabrook",
    "collection": "Classica",
    "width": 686,
    "height": 641
  },
  {
    "category": "wallpaper",
    "src": "assets/products/oboi/Seabrook/Classica/CS40807.jpg",
    "brand": "Seabrook",
    "collection": "Classica",
    "width": 686,
    "height": 641
  },
  {
    "category": "wallpaper",
    "src": "assets/products/oboi/Seabrook/Classica/CS40901.jpg",
    "brand": "Seabrook",
    "collection": "Classica",
    "width": 686,
    "height": 641
  },
  {
    "category": "wallpaper",
    "src": "assets/products/oboi/Seabrook/Classica/CS40904.jpg",
    "brand": "Seabrook",
    "collection": "Classica",
    "width": 686,
    "height": 641
  },
  {
    "category": "wallpaper",
    "src": "assets/products/oboi/Seabrook/Classica/CS40907.jpg",
    "brand": "Seabrook",
    "collection": "Classica",
    "width": 686,
    "height": 641
  },
  {
    "category": "wallpaper",
    "src": "assets/products/oboi/Seabrook/Classica/CS40908.jpg",
    "brand": "Seabrook",
    "collection": "Classica",
    "width": 686,
    "height": 641
  },
  {
    "category": "wallpaper",
    "src": "assets/products/oboi/Seabrook/Classica/CS41102.jpg",
    "brand": "Seabrook",
    "collection": "Classica",
    "width": 686,
    "height": 641
  },
  {
    "category": "wallpaper",
    "src": "assets/products/oboi/Seabrook/Classica/CS41103.jpg",
    "brand": "Seabrook",
    "collection": "Classica",
    "width": 686,
    "height": 641
  },
  {
    "category": "wallpaper",
    "src": "assets/products/oboi/Seabrook/Classica/CS41105.jpg",
    "brand": "Seabrook",
    "collection": "Classica",
    "width": 686,
    "height": 641
  },
  {
    "category": "wallpaper",
    "src": "assets/products/oboi/Seabrook/Classica/CS41107.jpg",
    "brand": "Seabrook",
    "collection": "Classica",
    "width": 686,
    "height": 641
  },







  {
    "category": "wallpaper",
    "src": "assets/products/oboi/Seabrook/Classica/CS41301.jpg",
    "brand": "Seabrook",
    "collection": "Classica",
    "width": 686,
    "height": 641
  },
  {
    "category": "wallpaper",
    "src": "assets/products/oboi/Seabrook/Classica/CS41302.jpg",
    "brand": "Seabrook",
    "collection": "Classica",
    "width": 686,
    "height": 641
  },
  {
    "category": "wallpaper",
    "src": "assets/products/oboi/Seabrook/Classica/CS41303.jpg",
    "brand": "Seabrook",
    "collection": "Classica",
    "width": 686,
    "height": 641
  },
  {
    "category": "wallpaper",
    "src": "assets/products/oboi/Seabrook/Classica/CS41306.jpg",
    "brand": "Seabrook",
    "collection": "Classica",
    "width": 686,
    "height": 641
  },
  {
    "category": "wallpaper",
    "src": "assets/products/oboi/Seabrook/Classica/CS41402.jpg",
    "brand": "Seabrook",
    "collection": "Classica",
    "width": 686,
    "height": 641
  },
  {
    "category": "wallpaper",
    "src": "assets/products/oboi/Seabrook/Classica/CS41403.jpg",
    "brand": "Seabrook",
    "collection": "Classica",
    "width": 686,
    "height": 641
  },
  {
    "category": "wallpaper",
    "src": "assets/products/oboi/Seabrook/Classica/CS41406.jpg",
    "brand": "Seabrook",
    "collection": "Classica",
    "width": 686,
    "height": 641
  },
  {
    "category": "wallpaper",
    "src": "assets/products/oboi/Seabrook/Classica/CS41407.jpg",
    "brand": "Seabrook",
    "collection": "Classica",
    "width": 686,
    "height": 641
  },
  {
    "category": "wallpaper",
    "src": "assets/products/oboi/Seabrook/Classica/CS41501.jpg",
    "brand": "Seabrook",
    "collection": "Classica",
    "width": 686,
    "height": 641
  },
  {
    "category": "wallpaper",
    "src": "assets/products/oboi/Seabrook/Classica/CS41502.jpg",
    "brand": "Seabrook",
    "collection": "Classica",
    "width": 686,
    "height": 641
  },
  {
    "category": "wallpaper",
    "src": "assets/products/oboi/Seabrook/Classica/CS41505.jpg",
    "brand": "Seabrook",
    "collection": "Classica",
    "width": 686,
    "height": 641
  },
  {
    "category": "wallpaper",
    "src": "assets/products/oboi/Seabrook/Classica/CS41507.jpg",
    "brand": "Seabrook",
    "collection": "Classica",
    "width": 686,
    "height": 641
  },
  {
    "category": "wallpaper",
    "src": "assets/products/oboi/Seabrook/Classica/CS41602.jpg",
    "brand": "Seabrook",
    "collection": "Classica",
    "width": 686,
    "height": 641
  },
  {
    "category": "wallpaper",
    "src": "assets/products/oboi/Seabrook/Classica/CS41603.jpg",
    "brand": "Seabrook",
    "collection": "Classica",
    "width": 686,
    "height": 641
  },
  {
    "category": "wallpaper",
    "src": "assets/products/oboi/Seabrook/Classica/CS41606.jpg",
    "brand": "Seabrook",
    "collection": "Classica",
    "width": 686,
    "height": 641
  },
  {
    "category": "wallpaper",
    "src": "assets/products/oboi/Seabrook/Classica/CS41607.jpg",
    "brand": "Seabrook",
    "collection": "Classica",
    "width": 686,
    "height": 641
  },
  {
    "category": "wallpaper",
    "src": "assets/products/oboi/Seabrook/Classica/CS41701.jpg",
    "brand": "Seabrook",
    "collection": "Classica",
    "width": 686,
    "height": 641
  },
  {
    "category": "wallpaper",
    "src": "assets/products/oboi/Seabrook/Classica/CS41702.jpg",
    "brand": "Seabrook",
    "collection": "Classica",
    "width": 686,
    "height": 641
  },
  {
    "category": "wallpaper",
    "src": "assets/products/oboi/Seabrook/Classica/CS41703.jpg",
    "brand": "Seabrook",
    "collection": "Classica",
    "width": 686,
    "height": 641
  },
  {
    "category": "wallpaper",
    "src": "assets/products/oboi/Seabrook/Classica/CS41706.jpg",
    "brand": "Seabrook",
    "collection": "Classica",
    "width": 686,
    "height": 641
  },
  {
    "category": "wallpaper",
    "src": "assets/products/oboi/Seabrook/Classica/CS41711.jpg",
    "brand": "Seabrook",
    "collection": "Classica",
    "width": 686,
    "height": 641
  },







  {
    "category": "wallpaper",
    "src": "assets/products/oboi/Seabrook/Classica/CS41802.jpg",
    "brand": "Seabrook",
    "collection": "Classica",
    "width": 686,
    "height": 641
  },
  {
    "category": "wallpaper",
    "src": "assets/products/oboi/Seabrook/Classica/CS41803.jpg",
    "brand": "Seabrook",
    "collection": "Classica",
    "width": 686,
    "height": 641
  },
  {
    "category": "wallpaper",
    "src": "assets/products/oboi/Seabrook/Classica/CS41806.jpg",
    "brand": "Seabrook",
    "collection": "Classica",
    "width": 686,
    "height": 641
  },
  {
    "category": "wallpaper",
    "src": "assets/products/oboi/Seabrook/Classica/CS41807.jpg",
    "brand": "Seabrook",
    "collection": "Classica",
    "width": 686,
    "height": 641
  },
  {
    "category": "wallpaper",
    "src": "assets/products/oboi/Seabrook/Classica/CS41901.jpg",
    "brand": "Seabrook",
    "collection": "Classica",
    "width": 686,
    "height": 641
  },
  {
    "category": "wallpaper",
    "src": "assets/products/oboi/Seabrook/Classica/CS41902.jpg",
    "brand": "Seabrook",
    "collection": "Classica",
    "width": 686,
    "height": 641
  },
  {
    "category": "wallpaper",
    "src": "assets/products/oboi/Seabrook/Classica/CS41903.jpg",
    "brand": "Seabrook",
    "collection": "Classica",
    "width": 686,
    "height": 641
  },
  {
    "category": "wallpaper",
    "src": "assets/products/oboi/Seabrook/Classica/CS41906.jpg",
    "brand": "Seabrook",
    "collection": "Classica",
    "width": 686,
    "height": 641
  },
  {
    "category": "wallpaper",
    "src": "assets/products/oboi/Seabrook/Classica/CS42002.jpg",
    "brand": "Seabrook",
    "collection": "Classica",
    "width": 686,
    "height": 641
  },
  {
    "category": "wallpaper",
    "src": "assets/products/oboi/Seabrook/Classica/CS42003.jpg",
    "brand": "Seabrook",
    "collection": "Classica",
    "width": 686,
    "height": 641
  },
  {
    "category": "wallpaper",
    "src": "assets/products/oboi/Seabrook/Classica/CS42007.jpg",
    "brand": "Seabrook",
    "collection": "Classica",
    "width": 686,
    "height": 641
  },
  {
    "category": "wallpaper",
    "src": "assets/products/oboi/Seabrook/Classica/CS42009.jpg",
    "brand": "Seabrook",
    "collection": "Classica",
    "width": 686,
    "height": 641
  }


]
