[

  {
    "category": "wallpaper",
    "src": "assets/products/oboi/Seabrook/Esplanade/AB20001.jpg",
    "brand": "Seabrook",
    "collection": "Esplanade",
    "width": 521,
    "height": 531
  },
  {
    "category": "wallpaper",
    "src": "assets/products/oboi/Seabrook/Esplanade/AB20005.jpg",
    "brand": "Seabrook",
    "collection": "Esplanade",
    "width": 521,
    "height": 531
  },
  {
    "category": "wallpaper",
    "src": "assets/products/oboi/Seabrook/Esplanade/AB20008.jpg",
    "brand": "Seabrook",
    "collection": "Esplanade",
    "width": 521,
    "height": 531
  },
  {
    "category": "wallpaper",
    "src": "assets/products/oboi/Seabrook/Esplanade/AB20009.jpg",
    "brand": "Seabrook",
    "collection": "Esplanade",
    "width": 521,
    "height": 531
  },
  {
    "category": "wallpaper",
    "src": "assets/products/oboi/Seabrook/Esplanade/AB20011.jpg",
    "brand": "Seabrook",
    "collection": "Esplanade",
    "width": 521,
    "height": 531
  },







  {
    "category": "wallpaper",
    "src": "assets/products/oboi/Seabrook/Esplanade/AB20101.jpg",
    "brand": "Seabrook",
    "collection": "Esplanade",
    "width": 686,
    "height": 531
  },
  {
    "category": "wallpaper",
    "src": "assets/products/oboi/Seabrook/Esplanade/AB20102.jpg",
    "brand": "Seabrook",
    "collection": "Esplanade",
    "width": 686,
    "height": 531
  },
  {
    "category": "wallpaper",
    "src": "assets/products/oboi/Seabrook/Esplanade/AB20105.jpg",
    "brand": "Seabrook",
    "collection": "Esplanade",
    "width": 686,
    "height": 531
  },
  {
    "category": "wallpaper",
    "src": "assets/products/oboi/Seabrook/Esplanade/AB20107.jpg",
    "brand": "Seabrook",
    "collection": "Esplanade",
    "width": 686,
    "height": 531
  },







  {
    "category": "wallpaper",
    "src": "assets/products/oboi/Seabrook/Esplanade/AB20201.jpg",
    "brand": "Seabrook",
    "collection": "Esplanade",
    "width": 686,
    "height": 641
  },
  {
    "category": "wallpaper",
    "src": "assets/products/oboi/Seabrook/Esplanade/AB20202.jpg",
    "brand": "Seabrook",
    "collection": "Esplanade",
    "width": 686,
    "height": 641
  },
  {
    "category": "wallpaper",
    "src": "assets/products/oboi/Seabrook/Esplanade/AB20205.jpg",
    "brand": "Seabrook",
    "collection": "Esplanade",
    "width": 686,
    "height": 641
  },
  {
    "category": "wallpaper",
    "src": "assets/products/oboi/Seabrook/Esplanade/AB20207.jpg",
    "brand": "Seabrook",
    "collection": "Esplanade",
    "width": 686,
    "height": 641
  },







  {
    "category": "wallpaper",
    "src": "assets/products/oboi/Seabrook/Esplanade/AB20301.jpg",
    "brand": "Seabrook",
    "collection": "Esplanade",
    "width": 686,
    "height": 531
  },
  {
    "category": "wallpaper",
    "src": "assets/products/oboi/Seabrook/Esplanade/AB20305.jpg",
    "brand": "Seabrook",
    "collection": "Esplanade",
    "width": 686,
    "height": 531
  },
  {
    "category": "wallpaper",
    "src": "assets/products/oboi/Seabrook/Esplanade/AB20308.jpg",
    "brand": "Seabrook",
    "collection": "Esplanade",
    "width": 686,
    "height": 531
  },
  {
    "category": "wallpaper",
    "src": "assets/products/oboi/Seabrook/Esplanade/AB20309.jpg",
    "brand": "Seabrook",
    "collection": "Esplanade",
    "width": 686,
    "height": 531
  },
  {
    "category": "wallpaper",
    "src": "assets/products/oboi/Seabrook/Esplanade/AB20311.jpg",
    "brand": "Seabrook",
    "collection": "Esplanade",
    "width": 686,
    "height": 531
  },







  {
    "category": "wallpaper",
    "src": "assets/products/oboi/Seabrook/Esplanade/AB20402.jpg",
    "brand": "Seabrook",
    "collection": "Esplanade",
    "width": 521,
    "height": 531
  },
  {
    "category": "wallpaper",
    "src": "assets/products/oboi/Seabrook/Esplanade/AB20405.jpg",
    "brand": "Seabrook",
    "collection": "Esplanade",
    "width": 521,
    "height": 531
  },
  {
    "category": "wallpaper",
    "src": "assets/products/oboi/Seabrook/Esplanade/AB20408.jpg",
    "brand": "Seabrook",
    "collection": "Esplanade",
    "width": 521,
    "height": 531
  },
  {
    "category": "wallpaper",
    "src": "assets/products/oboi/Seabrook/Esplanade/AB20409.jpg",
    "brand": "Seabrook",
    "collection": "Esplanade",
    "width": 521,
    "height": 531
  },







  {
    "category": "wallpaper",
    "src": "assets/products/oboi/Seabrook/Esplanade/AB20501.jpg",
    "brand": "Seabrook",
    "collection": "Esplanade",
    "width": 686,
    "height": 531
  },
  {
    "category": "wallpaper",
    "src": "assets/products/oboi/Seabrook/Esplanade/AB20505.jpg",
    "brand": "Seabrook",
    "collection": "Esplanade",
    "width": 686,
    "height": 531
  },
  {
    "category": "wallpaper",
    "src": "assets/products/oboi/Seabrook/Esplanade/AB20507.jpg",
    "brand": "Seabrook",
    "collection": "Esplanade",
    "width": 686,
    "height": 531
  },
  {
    "category": "wallpaper",
    "src": "assets/products/oboi/Seabrook/Esplanade/AB20509.jpg",
    "brand": "Seabrook",
    "collection": "Esplanade",
    "width": 686,
    "height": 531
  },
  {
    "category": "wallpaper",
    "src": "assets/products/oboi/Seabrook/Esplanade/AB20601.jpg",
    "brand": "Seabrook",
    "collection": "Esplanade",
    "width": 686,
    "height": 531
  },
  {
    "category": "wallpaper",
    "src": "assets/products/oboi/Seabrook/Esplanade/AB20605.jpg",
    "brand": "Seabrook",
    "collection": "Esplanade",
    "width": 686,
    "height": 531
  },
  {
    "category": "wallpaper",
    "src": "assets/products/oboi/Seabrook/Esplanade/AB20607.jpg",
    "brand": "Seabrook",
    "collection": "Esplanade",
    "width": 686,
    "height": 531
  },
  {
    "category": "wallpaper",
    "src": "assets/products/oboi/Seabrook/Esplanade/AB20609.jpg",
    "brand": "Seabrook",
    "collection": "Esplanade",
    "width": 686,
    "height": 531
  },







  {
    "category": "wallpaper",
    "src": "assets/products/oboi/Seabrook/Esplanade/AB20701.jpg",
    "brand": "Seabrook",
    "collection": "Esplanade",
    "width": 521,
    "height": 531
  },
  {
    "category": "wallpaper",
    "src": "assets/products/oboi/Seabrook/Esplanade/AB20704.jpg",
    "brand": "Seabrook",
    "collection": "Esplanade",
    "width": 521,
    "height": 531
  },
  {
    "category": "wallpaper",
    "src": "assets/products/oboi/Seabrook/Esplanade/AB20705.jpg",
    "brand": "Seabrook",
    "collection": "Esplanade",
    "width": 521,
    "height": 531
  },
  {
    "category": "wallpaper",
    "src": "assets/products/oboi/Seabrook/Esplanade/AB20708.jpg",
    "brand": "Seabrook",
    "collection": "Esplanade",
    "width": 521,
    "height": 531
  },







  {
    "category": "wallpaper",
    "src": "assets/products/oboi/Seabrook/Esplanade/AB20802.jpg",
    "brand": "Seabrook",
    "collection": "Esplanade",
    "width": 686,
    "height": 531
  },
  {
    "category": "wallpaper",
    "src": "assets/products/oboi/Seabrook/Esplanade/AB20805.jpg",
    "brand": "Seabrook",
    "collection": "Esplanade",
    "width": 686,
    "height": 531
  },
  {
    "category": "wallpaper",
    "src": "assets/products/oboi/Seabrook/Esplanade/AB20807.jpg",
    "brand": "Seabrook",
    "collection": "Esplanade",
    "width": 686,
    "height": 531
  },
  {
    "category": "wallpaper",
    "src": "assets/products/oboi/Seabrook/Esplanade/AB20808.jpg",
    "brand": "Seabrook",
    "collection": "Esplanade",
    "width": 686,
    "height": 531
  },
  {
    "category": "wallpaper",
    "src": "assets/products/oboi/Seabrook/Esplanade/AB20809.jpg",
    "brand": "Seabrook",
    "collection": "Esplanade",
    "width": 686,
    "height": 531
  },







  {
    "category": "wallpaper",
    "src": "assets/products/oboi/Seabrook/Esplanade/AB20904.jpg",
    "brand": "Seabrook",
    "collection": "Esplanade",
    "width": 521,
    "height": 531
  },
  {
    "category": "wallpaper",
    "src": "assets/products/oboi/Seabrook/Esplanade/AB20905.jpg",
    "brand": "Seabrook",
    "collection": "Esplanade",
    "width": 521,
    "height": 531
  },
  {
    "category": "wallpaper",
    "src": "assets/products/oboi/Seabrook/Esplanade/AB20906.jpg",
    "brand": "Seabrook",
    "collection": "Esplanade",
    "width": 521,
    "height": 531
  },
  {
    "category": "wallpaper",
    "src": "assets/products/oboi/Seabrook/Esplanade/AB20908.jpg",
    "brand": "Seabrook",
    "collection": "Esplanade",
    "width": 521,
    "height": 531
  },
  {
    "category": "wallpaper",
    "src": "assets/products/oboi/Seabrook/Esplanade/AB20909.jpg",
    "brand": "Seabrook",
    "collection": "Esplanade",
    "width": 521,
    "height": 531
  },
  {
    "category": "wallpaper",
    "src": "assets/products/oboi/Seabrook/Esplanade/AB21001.jpg",
    "brand": "Seabrook",
    "collection": "Esplanade",
    "width": 521,
    "height": 531
  },
  {
    "category": "wallpaper",
    "src": "assets/products/oboi/Seabrook/Esplanade/AB21002.jpg",
    "brand": "Seabrook",
    "collection": "Esplanade",
    "width": 521,
    "height": 531
  },
  {
    "category": "wallpaper",
    "src": "assets/products/oboi/Seabrook/Esplanade/AB21005.jpg",
    "brand": "Seabrook",
    "collection": "Esplanade",
    "width": 521,
    "height": 531
  },
  {
    "category": "wallpaper",
    "src": "assets/products/oboi/Seabrook/Esplanade/AB21007.jpg",
    "brand": "Seabrook",
    "collection": "Esplanade",
    "width": 521,
    "height": 531
  },
  {
    "category": "wallpaper",
    "src": "assets/products/oboi/Seabrook/Esplanade/AB21102.jpg",
    "brand": "Seabrook",
    "collection": "Esplanade",
    "width": 521,
    "height": 531
  },
  {
    "category": "wallpaper",
    "src": "assets/products/oboi/Seabrook/Esplanade/AB21105.jpg",
    "brand": "Seabrook",
    "collection": "Esplanade",
    "width": 521,
    "height": 531
  },
  {
    "category": "wallpaper",
    "src": "assets/products/oboi/Seabrook/Esplanade/AB21108.jpg",
    "brand": "Seabrook",
    "collection": "Esplanade",
    "width": 521,
    "height": 531
  },
  {
    "category": "wallpaper",
    "src": "assets/products/oboi/Seabrook/Esplanade/AB21109.jpg",
    "brand": "Seabrook",
    "collection": "Esplanade",
    "width": 521,
    "height": 531
  },
  {
    "category": "wallpaper",
    "src": "assets/products/oboi/Seabrook/Esplanade/AB21201.jpg",
    "brand": "Seabrook",
    "collection": "Esplanade",
    "width": 521,
    "height": 531
  },
  {
    "category": "wallpaper",
    "src": "assets/products/oboi/Seabrook/Esplanade/AB21205.jpg",
    "brand": "Seabrook",
    "collection": "Esplanade",
    "width": 521,
    "height": 531
  },
  {
    "category": "wallpaper",
    "src": "assets/products/oboi/Seabrook/Esplanade/AB21207.jpg",
    "brand": "Seabrook",
    "collection": "Esplanade",
    "width": 521,
    "height": 531
  },







  {
    "category": "wallpaper",
    "src": "assets/products/oboi/Seabrook/Esplanade/AB21302.jpg",
    "brand": "Seabrook",
    "collection": "Esplanade",
    "width": 521,
    "height": 458
  },
  {
    "category": "wallpaper",
    "src": "assets/products/oboi/Seabrook/Esplanade/AB21305.jpg",
    "brand": "Seabrook",
    "collection": "Esplanade",
    "width": 521,
    "height": 458
  },
  {
    "category": "wallpaper",
    "src": "assets/products/oboi/Seabrook/Esplanade/AB21307.jpg",
    "brand": "Seabrook",
    "collection": "Esplanade",
    "width": 521,
    "height": 458
  },
  {
    "category": "wallpaper",
    "src": "assets/products/oboi/Seabrook/Esplanade/AB21308.jpg",
    "brand": "Seabrook",
    "collection": "Esplanade",
    "width": 521,
    "height": 458
  },
  {
    "category": "wallpaper",
    "src": "assets/products/oboi/Seabrook/Esplanade/AB21309.jpg",
    "brand": "Seabrook",
    "collection": "Esplanade",
    "width": 521,
    "height": 458
  },







  {
    "category": "wallpaper",
    "src": "assets/products/oboi/Seabrook/Esplanade/AB21401.jpg",
    "brand": "Seabrook",
    "collection": "Esplanade",
    "width": 521,
    "height": 531
  },
  {
    "category": "wallpaper",
    "src": "assets/products/oboi/Seabrook/Esplanade/AB21404.jpg",
    "brand": "Seabrook",
    "collection": "Esplanade",
    "width": 521,
    "height": 531
  },
  {
    "category": "wallpaper",
    "src": "assets/products/oboi/Seabrook/Esplanade/AB21405.jpg",
    "brand": "Seabrook",
    "collection": "Esplanade",
    "width": 521,
    "height": 531
  },
  {
    "category": "wallpaper",
    "src": "assets/products/oboi/Seabrook/Esplanade/AB21408.jpg",
    "brand": "Seabrook",
    "collection": "Esplanade",
    "width": 521,
    "height": 531
  },
  {
    "category": "wallpaper",
    "src": "assets/products/oboi/Seabrook/Esplanade/AB21504.jpg",
    "brand": "Seabrook",
    "collection": "Esplanade",
    "width": 521,
    "height": 531
  },
  {
    "category": "wallpaper",
    "src": "assets/products/oboi/Seabrook/Esplanade/AB21505.jpg",
    "brand": "Seabrook",
    "collection": "Esplanade",
    "width": 521,
    "height": 531
  },
  {
    "category": "wallpaper",
    "src": "assets/products/oboi/Seabrook/Esplanade/AB21506.jpg",
    "brand": "Seabrook",
    "collection": "Esplanade",
    "width": 521,
    "height": 531
  },
  {
    "category": "wallpaper",
    "src": "assets/products/oboi/Seabrook/Esplanade/AB21508.jpg",
    "brand": "Seabrook",
    "collection": "Esplanade",
    "width": 521,
    "height": 531
  },
  {
    "category": "wallpaper",
    "src": "assets/products/oboi/Seabrook/Esplanade/AB21509.jpg",
    "brand": "Seabrook",
    "collection": "Esplanade",
    "width": 521,
    "height": 531
  }


]
