[

  {
    "category": "wallpaper",
    "src": "assets/products/oboi/Seabrook/Giacomo/GO40100.jpg",
    "brand": "Seabrook",
    "collection": "Giacomo",
    "width": 521,
    "height": 531
  },
  {
    "category": "wallpaper",
    "src": "assets/products/oboi/Seabrook/Giacomo/GO40101.jpg",
    "brand": "Seabrook",
    "collection": "Giacomo",
    "width": 521,
    "height": 531
  },
  {
    "category": "wallpaper",
    "src": "assets/products/oboi/Seabrook/Giacomo/GO40102.jpg",
    "brand": "Seabrook",
    "collection": "Giacomo",
    "width": 521,
    "height": 531
  },
  {
    "category": "wallpaper",
    "src": "assets/products/oboi/Seabrook/Giacomo/GO40105.jpg",
    "brand": "Seabrook",
    "collection": "Giacomo",
    "width": 521,
    "height": 531
  },
  {
    "category": "wallpaper",
    "src": "assets/products/oboi/Seabrook/Giacomo/GO40109.jpg",
    "brand": "Seabrook",
    "collection": "Giacomo",
    "width": 521,
    "height": 531
  },
  {
    "category": "wallpaper",
    "src": "assets/products/oboi/Seabrook/Giacomo/GO40200.jpg",
    "brand": "Seabrook",
    "collection": "Giacomo",
    "width": 521,
    "height": 531
  },
  {
    "category": "wallpaper",
    "src": "assets/products/oboi/Seabrook/Giacomo/GO40201.jpg",
    "brand": "Seabrook",
    "collection": "Giacomo",
    "width": 521,
    "height": 531
  },
  {
    "category": "wallpaper",
    "src": "assets/products/oboi/Seabrook/Giacomo/GO40202.jpg",
    "brand": "Seabrook",
    "collection": "Giacomo",
    "width": 521,
    "height": 531
  },
  {
    "category": "wallpaper",
    "src": "assets/products/oboi/Seabrook/Giacomo/GO40204.jpg",
    "brand": "Seabrook",
    "collection": "Giacomo",
    "width": 521,
    "height": 531
  },
  {
    "category": "wallpaper",
    "src": "assets/products/oboi/Seabrook/Giacomo/GO40207.jpg",
    "brand": "Seabrook",
    "collection": "Giacomo",
    "width": 521,
    "height": 531
  },







  {
    "category": "wallpaper",
    "src": "assets/products/oboi/Seabrook/Giacomo/GO40300.jpg",
    "brand": "Seabrook",
    "collection": "Giacomo",
    "width": 686,
    "height": 646
  },
  {
    "category": "wallpaper",
    "src": "assets/products/oboi/Seabrook/Giacomo/GO40301.jpg",
    "brand": "Seabrook",
    "collection": "Giacomo",
    "width": 686,
    "height": 646
  },
  {
    "category": "wallpaper",
    "src": "assets/products/oboi/Seabrook/Giacomo/GO40302.jpg",
    "brand": "Seabrook",
    "collection": "Giacomo",
    "width": 686,
    "height": 646
  },
  {
    "category": "wallpaper",
    "src": "assets/products/oboi/Seabrook/Giacomo/GO40304.jpg",
    "brand": "Seabrook",
    "collection": "Giacomo",
    "width": 686,
    "height": 646
  },
  {
    "category": "wallpaper",
    "src": "assets/products/oboi/Seabrook/Giacomo/GO40307.jpg",
    "brand": "Seabrook",
    "collection": "Giacomo",
    "width": 686,
    "height": 646
  },







  {
    "category": "wallpaper",
    "src": "assets/products/oboi/Seabrook/Giacomo/GO40402.jpg",
    "brand": "Seabrook",
    "collection": "Giacomo",
    "width": 686,
    "height": 536
  },
  {
    "category": "wallpaper",
    "src": "assets/products/oboi/Seabrook/Giacomo/GO40405.jpg",
    "brand": "Seabrook",
    "collection": "Giacomo",
    "width": 686,
    "height": 536
  },
  {
    "category": "wallpaper",
    "src": "assets/products/oboi/Seabrook/Giacomo/GO40407.jpg",
    "brand": "Seabrook",
    "collection": "Giacomo",
    "width": 686,
    "height": 536
  },
  {
    "category": "wallpaper",
    "src": "assets/products/oboi/Seabrook/Giacomo/GO40408.jpg",
    "brand": "Seabrook",
    "collection": "Giacomo",
    "width": 686,
    "height": 536
  },
  {
    "category": "wallpaper",
    "src": "assets/products/oboi/Seabrook/Giacomo/GO40409.jpg",
    "brand": "Seabrook",
    "collection": "Giacomo",
    "width": 686,
    "height": 536
  },







  {
    "category": "wallpaper",
    "src": "assets/products/oboi/Seabrook/Giacomo/GO40500.jpg",
    "brand": "Seabrook",
    "collection": "Giacomo",
    "width": 521,
    "height": 531
  },
  {
    "category": "wallpaper",
    "src": "assets/products/oboi/Seabrook/Giacomo/GO40501.jpg",
    "brand": "Seabrook",
    "collection": "Giacomo",
    "width": 521,
    "height": 531
  },
  {
    "category": "wallpaper",
    "src": "assets/products/oboi/Seabrook/Giacomo/GO40502.jpg",
    "brand": "Seabrook",
    "collection": "Giacomo",
    "width": 521,
    "height": 531
  },







  {
    "category": "wallpaper",
    "src": "assets/products/oboi/Seabrook/Giacomo/GO40600.jpg",
    "brand": "Seabrook",
    "collection": "Giacomo",
    "width": 686,
    "height": 645
  },
  {
    "category": "wallpaper",
    "src": "assets/products/oboi/Seabrook/Giacomo/GO40601.jpg",
    "brand": "Seabrook",
    "collection": "Giacomo",
    "width": 686,
    "height": 645
  },
  {
    "category": "wallpaper",
    "src": "assets/products/oboi/Seabrook/Giacomo/GO40602.jpg",
    "brand": "Seabrook",
    "collection": "Giacomo",
    "width": 686,
    "height": 645
  },
  {
    "category": "wallpaper",
    "src": "assets/products/oboi/Seabrook/Giacomo/GO40605.jpg",
    "brand": "Seabrook",
    "collection": "Giacomo",
    "width": 686,
    "height": 645
  },







  {
    "category": "wallpaper",
    "src": "assets/products/oboi/Seabrook/Giacomo/GO40700.jpg",
    "brand": "Seabrook",
    "collection": "Giacomo",
    "width": 521,
    "height": 531
  },
  {
    "category": "wallpaper",
    "src": "assets/products/oboi/Seabrook/Giacomo/GO40701.jpg",
    "brand": "Seabrook",
    "collection": "Giacomo",
    "width": 521,
    "height": 531
  },
  {
    "category": "wallpaper",
    "src": "assets/products/oboi/Seabrook/Giacomo/GO40702.jpg",
    "brand": "Seabrook",
    "collection": "Giacomo",
    "width": 521,
    "height": 531
  },
  {
    "category": "wallpaper",
    "src": "assets/products/oboi/Seabrook/Giacomo/GO40705.jpg",
    "brand": "Seabrook",
    "collection": "Giacomo",
    "width": 521,
    "height": 531
  },
  {
    "category": "wallpaper",
    "src": "assets/products/oboi/Seabrook/Giacomo/GO40708.jpg",
    "brand": "Seabrook",
    "collection": "Giacomo",
    "width": 521,
    "height": 531
  },
  {
    "category": "wallpaper",
    "src": "assets/products/oboi/Seabrook/Giacomo/GO40800.jpg",
    "brand": "Seabrook",
    "collection": "Giacomo",
    "width": 521,
    "height": 531
  },
  {
    "category": "wallpaper",
    "src": "assets/products/oboi/Seabrook/Giacomo/GO40801.jpg",
    "brand": "Seabrook",
    "collection": "Giacomo",
    "width": 521,
    "height": 531
  },
  {
    "category": "wallpaper",
    "src": "assets/products/oboi/Seabrook/Giacomo/GO40802.jpg",
    "brand": "Seabrook",
    "collection": "Giacomo",
    "width": 521,
    "height": 531
  },
  {
    "category": "wallpaper",
    "src": "assets/products/oboi/Seabrook/Giacomo/GO40805.jpg",
    "brand": "Seabrook",
    "collection": "Giacomo",
    "width": 521,
    "height": 531
  },
  {
    "category": "wallpaper",
    "src": "assets/products/oboi/Seabrook/Giacomo/GO40808.jpg",
    "brand": "Seabrook",
    "collection": "Giacomo",
    "width": 521,
    "height": 531
  },
  {
    "category": "wallpaper",
    "src": "assets/products/oboi/Seabrook/Giacomo/GO40902.jpg",
    "brand": "Seabrook",
    "collection": "Giacomo",
    "width": 521,
    "height": 531
  },
  {
    "category": "wallpaper",
    "src": "assets/products/oboi/Seabrook/Giacomo/GO40905.jpg",
    "brand": "Seabrook",
    "collection": "Giacomo",
    "width": 521,
    "height": 531
  },
  {
    "category": "wallpaper",
    "src": "assets/products/oboi/Seabrook/Giacomo/GO40907.jpg",
    "brand": "Seabrook",
    "collection": "Giacomo",
    "width": 521,
    "height": 531
  },
  {
    "category": "wallpaper",
    "src": "assets/products/oboi/Seabrook/Giacomo/GO40908.jpg",
    "brand": "Seabrook",
    "collection": "Giacomo",
    "width": 521,
    "height": 531
  },
  {
    "category": "wallpaper",
    "src": "assets/products/oboi/Seabrook/Giacomo/GO40909.jpg",
    "brand": "Seabrook",
    "collection": "Giacomo",
    "width": 521,
    "height": 531
  },
  {
    "category": "wallpaper",
    "src": "assets/products/oboi/Seabrook/Giacomo/GO41000.jpg",
    "brand": "Seabrook",
    "collection": "Giacomo",
    "width": 521,
    "height": 531
  },
  {
    "category": "wallpaper",
    "src": "assets/products/oboi/Seabrook/Giacomo/GO41001.jpg",
    "brand": "Seabrook",
    "collection": "Giacomo",
    "width": 521,
    "height": 531
  },
  {
    "category": "wallpaper",
    "src": "assets/products/oboi/Seabrook/Giacomo/GO41002.jpg",
    "brand": "Seabrook",
    "collection": "Giacomo",
    "width": 521,
    "height": 531
  },
  {
    "category": "wallpaper",
    "src": "assets/products/oboi/Seabrook/Giacomo/GO41005.jpg",
    "brand": "Seabrook",
    "collection": "Giacomo",
    "width": 521,
    "height": 531
  },
  {
    "category": "wallpaper",
    "src": "assets/products/oboi/Seabrook/Giacomo/GO41009.jpg",
    "brand": "Seabrook",
    "collection": "Giacomo",
    "width": 521,
    "height": 531
  },







  {
    "category": "wallpaper",
    "src": "assets/products/oboi/Seabrook/Giacomo/GO41200.jpg",
    "brand": "Seabrook",
    "collection": "Giacomo",
    "width": 521,
    "height": 634
  },
  {
    "category": "wallpaper",
    "src": "assets/products/oboi/Seabrook/Giacomo/GO41201.jpg",
    "brand": "Seabrook",
    "collection": "Giacomo",
    "width": 521,
    "height": 634
  },
  {
    "category": "wallpaper",
    "src": "assets/products/oboi/Seabrook/Giacomo/GO41202.jpg",
    "brand": "Seabrook",
    "collection": "Giacomo",
    "width": 521,
    "height": 634
  },







  {
    "category": "wallpaper",
    "src": "assets/products/oboi/Seabrook/Giacomo/GO41300.jpg",
    "brand": "Seabrook",
    "collection": "Giacomo",
    "width": 521,
    "height": 531
  },
  {
    "category": "wallpaper",
    "src": "assets/products/oboi/Seabrook/Giacomo/GO41301.jpg",
    "brand": "Seabrook",
    "collection": "Giacomo",
    "width": 521,
    "height": 531
  },
  {
    "category": "wallpaper",
    "src": "assets/products/oboi/Seabrook/Giacomo/GO41302.jpg",
    "brand": "Seabrook",
    "collection": "Giacomo",
    "width": 521,
    "height": 531
  },
  {
    "category": "wallpaper",
    "src": "assets/products/oboi/Seabrook/Giacomo/GO41304.jpg",
    "brand": "Seabrook",
    "collection": "Giacomo",
    "width": 521,
    "height": 531
  },
  {
    "category": "wallpaper",
    "src": "assets/products/oboi/Seabrook/Giacomo/GO41307.jpg",
    "brand": "Seabrook",
    "collection": "Giacomo",
    "width": 521,
    "height": 531
  },
  {
    "category": "wallpaper",
    "src": "assets/products/oboi/Seabrook/Giacomo/GO41400.jpg",
    "brand": "Seabrook",
    "collection": "Giacomo",
    "width": 521,
    "height": 531
  },
  {
    "category": "wallpaper",
    "src": "assets/products/oboi/Seabrook/Giacomo/GO41401.jpg",
    "brand": "Seabrook",
    "collection": "Giacomo",
    "width": 521,
    "height": 531
  },
  {
    "category": "wallpaper",
    "src": "assets/products/oboi/Seabrook/Giacomo/GO41402.jpg",
    "brand": "Seabrook",
    "collection": "Giacomo",
    "width": 521,
    "height": 531
  },
  {
    "category": "wallpaper",
    "src": "assets/products/oboi/Seabrook/Giacomo/GO41405.jpg",
    "brand": "Seabrook",
    "collection": "Giacomo",
    "width": 521,
    "height": 531
  },
  {
    "category": "wallpaper",
    "src": "assets/products/oboi/Seabrook/Giacomo/GO41408.jpg",
    "brand": "Seabrook",
    "collection": "Giacomo",
    "width": 521,
    "height": 531
  }


]
