[

  {
    "category": "wallpaper",
    "src": "assets/products/oboi/Seabrook/The Avenues/CT40001.jpg",
    "brand": "Seabrook",
    "collection": "The Avenues",
    "width": 521,
    "height": 531
  },
  {
    "category": "wallpaper",
    "src": "assets/products/oboi/Seabrook/The Avenues/CT40002.jpg",
    "brand": "Seabrook",
    "collection": "The Avenues",
    "width": 521,
    "height": 531
  },
  {
    "category": "wallpaper",
    "src": "assets/products/oboi/Seabrook/The Avenues/CT40007.jpg",
    "brand": "Seabrook",
    "collection": "The Avenues",
    "width": 521,
    "height": 531
  },
  {
    "category": "wallpaper",
    "src": "assets/products/oboi/Seabrook/The Avenues/CT40008.jpg",
    "brand": "Seabrook",
    "collection": "The Avenues",
    "width": 521,
    "height": 531
  },
  {
    "category": "wallpaper",
    "src": "assets/products/oboi/Seabrook/The Avenues/CT40018.jpg",
    "brand": "Seabrook",
    "collection": "The Avenues",
    "width": 521,
    "height": 531
  },
  {
    "category": "wallpaper",
    "src": "assets/products/oboi/Seabrook/The Avenues/CT40100.jpg",
    "brand": "Seabrook",
    "collection": "The Avenues",
    "width": 521,
    "height": 531
  },
  {
    "category": "wallpaper",
    "src": "assets/products/oboi/Seabrook/The Avenues/CT40101.jpg",
    "brand": "Seabrook",
    "collection": "The Avenues",
    "width": 521,
    "height": 531
  },
  {
    "category": "wallpaper",
    "src": "assets/products/oboi/Seabrook/The Avenues/CT40102.jpg",
    "brand": "Seabrook",
    "collection": "The Avenues",
    "width": 521,
    "height": 531
  },
  {
    "category": "wallpaper",
    "src": "assets/products/oboi/Seabrook/The Avenues/CT40105.jpg",
    "brand": "Seabrook",
    "collection": "The Avenues",
    "width": 521,
    "height": 531
  },
  {
    "category": "wallpaper",
    "src": "assets/products/oboi/Seabrook/The Avenues/CT40107.jpg",
    "brand": "Seabrook",
    "collection": "The Avenues",
    "width": 521,
    "height": 531
  },
  {
    "category": "wallpaper",
    "src": "assets/products/oboi/Seabrook/The Avenues/CT40108.jpg",
    "brand": "Seabrook",
    "collection": "The Avenues",
    "width": 521,
    "height": 531
  },
  {
    "category": "wallpaper",
    "src": "assets/products/oboi/Seabrook/The Avenues/CT40201.jpg",
    "brand": "Seabrook",
    "collection": "The Avenues",
    "width": 521,
    "height": 531
  },
  {
    "category": "wallpaper",
    "src": "assets/products/oboi/Seabrook/The Avenues/CT40205.jpg",
    "brand": "Seabrook",
    "collection": "The Avenues",
    "width": 521,
    "height": 531
  },
  {
    "category": "wallpaper",
    "src": "assets/products/oboi/Seabrook/The Avenues/CT40207.jpg",
    "brand": "Seabrook",
    "collection": "The Avenues",
    "width": 521,
    "height": 531
  },
  {
    "category": "wallpaper",
    "src": "assets/products/oboi/Seabrook/The Avenues/CT40208.jpg",
    "brand": "Seabrook",
    "collection": "The Avenues",
    "width": 521,
    "height": 531
  },







  {
    "category": "wallpaper",
    "src": "assets/products/oboi/Seabrook/The Avenues/CT40301.jpg",
    "brand": "Seabrook",
    "collection": "The Avenues",
    "width": 686,
    "height": 531
  },
  {
    "category": "wallpaper",
    "src": "assets/products/oboi/Seabrook/The Avenues/CT40307.jpg",
    "brand": "Seabrook",
    "collection": "The Avenues",
    "width": 686,
    "height": 531
  },
  {
    "category": "wallpaper",
    "src": "assets/products/oboi/Seabrook/The Avenues/CT40308.jpg",
    "brand": "Seabrook",
    "collection": "The Avenues",
    "width": 686,
    "height": 531
  },







  {
    "category": "wallpaper",
    "src": "assets/products/oboi/Seabrook/The Avenues/CT40400.jpg",
    "brand": "Seabrook",
    "collection": "The Avenues",
    "width": 686,
    "height": 641
  },
  {
    "category": "wallpaper",
    "src": "assets/products/oboi/Seabrook/The Avenues/CT40401.jpg",
    "brand": "Seabrook",
    "collection": "The Avenues",
    "width": 686,
    "height": 641
  },
  {
    "category": "wallpaper",
    "src": "assets/products/oboi/Seabrook/The Avenues/CT40405.jpg",
    "brand": "Seabrook",
    "collection": "The Avenues",
    "width": 686,
    "height": 641
  },
  {
    "category": "wallpaper",
    "src": "assets/products/oboi/Seabrook/The Avenues/CT40410.jpg",
    "brand": "Seabrook",
    "collection": "The Avenues",
    "width": 686,
    "height": 641
  },
  {
    "category": "wallpaper",
    "src": "assets/products/oboi/Seabrook/The Avenues/CT40411.jpg",
    "brand": "Seabrook",
    "collection": "The Avenues",
    "width": 686,
    "height": 641
  },
  {
    "category": "wallpaper",
    "src": "assets/products/oboi/Seabrook/The Avenues/CT40500.jpg",
    "brand": "Seabrook",
    "collection": "The Avenues",
    "width": 686,
    "height": 641
  },
  {
    "category": "wallpaper",
    "src": "assets/products/oboi/Seabrook/The Avenues/CT40501.jpg",
    "brand": "Seabrook",
    "collection": "The Avenues",
    "width": 686,
    "height": 641
  },
  {
    "category": "wallpaper",
    "src": "assets/products/oboi/Seabrook/The Avenues/CT40505.jpg",
    "brand": "Seabrook",
    "collection": "The Avenues",
    "width": 686,
    "height": 641
  },
  {
    "category": "wallpaper",
    "src": "assets/products/oboi/Seabrook/The Avenues/CT40511.jpg",
    "brand": "Seabrook",
    "collection": "The Avenues",
    "width": 686,
    "height": 641
  },







  {
    "category": "wallpaper",
    "src": "assets/products/oboi/Seabrook/The Avenues/CT40600.jpg",
    "brand": "Seabrook",
    "collection": "The Avenues",
    "width": 521,
    "height": 531
  },
  {
    "category": "wallpaper",
    "src": "assets/products/oboi/Seabrook/The Avenues/CT40602.jpg",
    "brand": "Seabrook",
    "collection": "The Avenues",
    "width": 521,
    "height": 531
  },
  {
    "category": "wallpaper",
    "src": "assets/products/oboi/Seabrook/The Avenues/CT40605.jpg",
    "brand": "Seabrook",
    "collection": "The Avenues",
    "width": 521,
    "height": 531
  },
  {
    "category": "wallpaper",
    "src": "assets/products/oboi/Seabrook/The Avenues/CT40700.jpg",
    "brand": "Seabrook",
    "collection": "The Avenues",
    "width": 521,
    "height": 531
  },
  {
    "category": "wallpaper",
    "src": "assets/products/oboi/Seabrook/The Avenues/CT40702.jpg",
    "brand": "Seabrook",
    "collection": "The Avenues",
    "width": 521,
    "height": 531
  },
  {
    "category": "wallpaper",
    "src": "assets/products/oboi/Seabrook/The Avenues/CT40705.jpg",
    "brand": "Seabrook",
    "collection": "The Avenues",
    "width": 521,
    "height": 531
  },
  {
    "category": "wallpaper",
    "src": "assets/products/oboi/Seabrook/The Avenues/CT40800.jpg",
    "brand": "Seabrook",
    "collection": "The Avenues",
    "width": 521,
    "height": 531
  },
  {
    "category": "wallpaper",
    "src": "assets/products/oboi/Seabrook/The Avenues/CT40805.jpg",
    "brand": "Seabrook",
    "collection": "The Avenues",
    "width": 521,
    "height": 531
  },
  {
    "category": "wallpaper",
    "src": "assets/products/oboi/Seabrook/The Avenues/CT40808.jpg",
    "brand": "Seabrook",
    "collection": "The Avenues",
    "width": 521,
    "height": 531
  },







  {
    "category": "wallpaper",
    "src": "assets/products/oboi/Seabrook/The Avenues/CT40900.jpg",
    "brand": "Seabrook",
    "collection": "The Avenues",
    "width": 531,
    "height": 531
  },
  {
    "category": "wallpaper",
    "src": "assets/products/oboi/Seabrook/The Avenues/CT40905.jpg",
    "brand": "Seabrook",
    "collection": "The Avenues",
    "width": 531,
    "height": 531
  },
  {
    "category": "wallpaper",
    "src": "assets/products/oboi/Seabrook/The Avenues/CT40908.jpg",
    "brand": "Seabrook",
    "collection": "The Avenues",
    "width": 531,
    "height": 531
  },







  {
    "category": "wallpaper",
    "src": "assets/products/oboi/Seabrook/The Avenues/CT41000.jpg",
    "brand": "Seabrook",
    "collection": "The Avenues",
    "width": 521,
    "height": 531
  },
  {
    "category": "wallpaper",
    "src": "assets/products/oboi/Seabrook/The Avenues/CT41005.jpg",
    "brand": "Seabrook",
    "collection": "The Avenues",
    "width": 521,
    "height": 531
  },
  {
    "category": "wallpaper",
    "src": "assets/products/oboi/Seabrook/The Avenues/CT41008.jpg",
    "brand": "Seabrook",
    "collection": "The Avenues",
    "width": 521,
    "height": 531
  },
  {
    "category": "wallpaper",
    "src": "assets/products/oboi/Seabrook/The Avenues/CT41100.jpg",
    "brand": "Seabrook",
    "collection": "The Avenues",
    "width": 521,
    "height": 531
  },
  {
    "category": "wallpaper",
    "src": "assets/products/oboi/Seabrook/The Avenues/CT41105.jpg",
    "brand": "Seabrook",
    "collection": "The Avenues",
    "width": 521,
    "height": 531
  },
  {
    "category": "wallpaper",
    "src": "assets/products/oboi/Seabrook/The Avenues/CT41108.jpg",
    "brand": "Seabrook",
    "collection": "The Avenues",
    "width": 521,
    "height": 531
  },
  {
    "category": "wallpaper",
    "src": "assets/products/oboi/Seabrook/The Avenues/CT41112.jpg",
    "brand": "Seabrook",
    "collection": "The Avenues",
    "width": 521,
    "height": 531
  },
  {
    "category": "wallpaper",
    "src": "assets/products/oboi/Seabrook/The Avenues/CT41200.jpg",
    "brand": "Seabrook",
    "collection": "The Avenues",
    "width": 521,
    "height": 531
  },
  {
    "category": "wallpaper",
    "src": "assets/products/oboi/Seabrook/The Avenues/CT41202.jpg",
    "brand": "Seabrook",
    "collection": "The Avenues",
    "width": 521,
    "height": 531
  },
  {
    "category": "wallpaper",
    "src": "assets/products/oboi/Seabrook/The Avenues/CT41205.jpg",
    "brand": "Seabrook",
    "collection": "The Avenues",
    "width": 521,
    "height": 531
  },
  {
    "category": "wallpaper",
    "src": "assets/products/oboi/Seabrook/The Avenues/CT41208.jpg",
    "brand": "Seabrook",
    "collection": "The Avenues",
    "width": 521,
    "height": 531
  },







  {
    "category": "wallpaper",
    "src": "assets/products/oboi/Seabrook/The Avenues/CT41300.jpg",
    "brand": "Seabrook",
    "collection": "The Avenues",
    "width": 686,
    "height": 641
  },
  {
    "category": "wallpaper",
    "src": "assets/products/oboi/Seabrook/The Avenues/CT41301.jpg",
    "brand": "Seabrook",
    "collection": "The Avenues",
    "width": 686,
    "height": 641
  },
  {
    "category": "wallpaper",
    "src": "assets/products/oboi/Seabrook/The Avenues/CT41305.jpg",
    "brand": "Seabrook",
    "collection": "The Avenues",
    "width": 686,
    "height": 641
  },
  {
    "category": "wallpaper",
    "src": "assets/products/oboi/Seabrook/The Avenues/CT41402.jpg",
    "brand": "Seabrook",
    "collection": "The Avenues",
    "width": 686,
    "height": 641
  },
  {
    "category": "wallpaper",
    "src": "assets/products/oboi/Seabrook/The Avenues/CT41412.jpg",
    "brand": "Seabrook",
    "collection": "The Avenues",
    "width": 686,
    "height": 641
  },







  {
    "category": "wallpaper",
    "src": "assets/products/oboi/Seabrook/The Avenues/CT41502.jpg",
    "brand": "Seabrook",
    "collection": "The Avenues",
    "width": 521,
    "height": 531
  },
  {
    "category": "wallpaper",
    "src": "assets/products/oboi/Seabrook/The Avenues/CT41512.jpg",
    "brand": "Seabrook",
    "collection": "The Avenues",
    "width": 521,
    "height": 531
  },







  {
    "category": "wallpaper",
    "src": "assets/products/oboi/Seabrook/The Avenues/CT41600.jpg",
    "brand": "Seabrook",
    "collection": "The Avenues",
    "width": 686,
    "height": 531
  },
  {
    "category": "wallpaper",
    "src": "assets/products/oboi/Seabrook/The Avenues/CT41602.jpg",
    "brand": "Seabrook",
    "collection": "The Avenues",
    "width": 686,
    "height": 531
  },
  {
    "category": "wallpaper",
    "src": "assets/products/oboi/Seabrook/The Avenues/CT41702.jpg",
    "brand": "Seabrook",
    "collection": "The Avenues",
    "width": 686,
    "height": 531
  },
  {
    "category": "wallpaper",
    "src": "assets/products/oboi/Seabrook/The Avenues/CT41712.jpg",
    "brand": "Seabrook",
    "collection": "The Avenues",
    "width": 686,
    "height": 531
  },







  {
    "category": "wallpaper",
    "src": "assets/products/oboi/Seabrook/The Avenues/CT41802.jpg",
    "brand": "Seabrook",
    "collection": "The Avenues",
    "width": 686,
    "height": 641
  },
  {
    "category": "wallpaper",
    "src": "assets/products/oboi/Seabrook/The Avenues/CT41812.jpg",
    "brand": "Seabrook",
    "collection": "The Avenues",
    "width": 686,
    "height": 641
  },







  {
    "category": "wallpaper",
    "src": "assets/products/oboi/Seabrook/The Avenues/CT41900.jpg",
    "brand": "Seabrook",
    "collection": "The Avenues",
    "width": 686,
    "height": 686
  },
  {
    "category": "wallpaper",
    "src": "assets/products/oboi/Seabrook/The Avenues/CT41906.jpg",
    "brand": "Seabrook",
    "collection": "The Avenues",
    "width": 686,
    "height": 686
  }


]
