[

  {
    "category": "wallpaper",
    "src": "assets/products/oboi/Seabrook/Watercolors/AQ50001.jpg",
    "brand": "Seabrook",
    "collection": "Watercolors",
    "width": 521,
    "height": 531
  },
  {
    "category": "wallpaper",
    "src": "assets/products/oboi/Seabrook/Watercolors/AQ50005.jpg",
    "brand": "Seabrook",
    "collection": "Watercolors",
    "width": 521,
    "height": 531
  },
  {
    "category": "wallpaper",
    "src": "assets/products/oboi/Seabrook/Watercolors/AQ50008.jpg",
    "brand": "Seabrook",
    "collection": "Watercolors",
    "width": 521,
    "height": 531
  },
  {
    "category": "wallpaper",
    "src": "assets/products/oboi/Seabrook/Watercolors/AQ50009.jpg",
    "brand": "Seabrook",
    "collection": "Watercolors",
    "width": 521,
    "height": 531
  },
  {
    "category": "wallpaper",
    "src": "assets/products/oboi/Seabrook/Watercolors/AQ50011.jpg",
    "brand": "Seabrook",
    "collection": "Watercolors",
    "width": 521,
    "height": 531
  },







  {
    "category": "wallpaper",
    "src": "assets/products/oboi/Seabrook/Watercolors/AQ50102.jpg",
    "brand": "Seabrook",
    "collection": "Watercolors",
    "width": 521,
    "height": 516
  },
  {
    "category": "wallpaper",
    "src": "assets/products/oboi/Seabrook/Watercolors/AQ50104.jpg",
    "brand": "Seabrook",
    "collection": "Watercolors",
    "width": 521,
    "height": 516
  },
  {
    "category": "wallpaper",
    "src": "assets/products/oboi/Seabrook/Watercolors/AQ50107.jpg",
    "brand": "Seabrook",
    "collection": "Watercolors",
    "width": 521,
    "height": 516
  },
  {
    "category": "wallpaper",
    "src": "assets/products/oboi/Seabrook/Watercolors/AQ50109.jpg",
    "brand": "Seabrook",
    "collection": "Watercolors",
    "width": 521,
    "height": 516
  },







  {
    "category": "wallpaper",
    "src": "assets/products/oboi/Seabrook/Watercolors/AQ50201.jpg",
    "brand": "Seabrook",
    "collection": "Watercolors",
    "width": 521,
    "height": 531
  },
  {
    "category": "wallpaper",
    "src": "assets/products/oboi/Seabrook/Watercolors/AQ50202.jpg",
    "brand": "Seabrook",
    "collection": "Watercolors",
    "width": 521,
    "height": 531
  },
  {
    "category": "wallpaper",
    "src": "assets/products/oboi/Seabrook/Watercolors/AQ50205.jpg",
    "brand": "Seabrook",
    "collection": "Watercolors",
    "width": 521,
    "height": 531
  },
  {
    "category": "wallpaper",
    "src": "assets/products/oboi/Seabrook/Watercolors/AQ50209.jpg",
    "brand": "Seabrook",
    "collection": "Watercolors",
    "width": 521,
    "height": 531
  },
  {
    "category": "wallpaper",
    "src": "assets/products/oboi/Seabrook/Watercolors/AQ50219.jpg",
    "brand": "Seabrook",
    "collection": "Watercolors",
    "width": 521,
    "height": 531
  },
  {
    "category": "wallpaper",
    "src": "assets/products/oboi/Seabrook/Watercolors/AQ50301.jpg",
    "brand": "Seabrook",
    "collection": "Watercolors",
    "width": 521,
    "height": 531
  },
  {
    "category": "wallpaper",
    "src": "assets/products/oboi/Seabrook/Watercolors/AQ50305.jpg",
    "brand": "Seabrook",
    "collection": "Watercolors",
    "width": 521,
    "height": 531
  },
  {
    "category": "wallpaper",
    "src": "assets/products/oboi/Seabrook/Watercolors/AQ50307.jpg",
    "brand": "Seabrook",
    "collection": "Watercolors",
    "width": 521,
    "height": 531
  },
  {
    "category": "wallpaper",
    "src": "assets/products/oboi/Seabrook/Watercolors/AQ50309.jpg",
    "brand": "Seabrook",
    "collection": "Watercolors",
    "width": 521,
    "height": 531
  },
  {
    "category": "wallpaper",
    "src": "assets/products/oboi/Seabrook/Watercolors/AQ50311.jpg",
    "brand": "Seabrook",
    "collection": "Watercolors",
    "width": 521,
    "height": 531
  },
  {
    "category": "wallpaper",
    "src": "assets/products/oboi/Seabrook/Watercolors/AQ50401.jpg",
    "brand": "Seabrook",
    "collection": "Watercolors",
    "width": 521,
    "height": 531
  },
  {
    "category": "wallpaper",
    "src": "assets/products/oboi/Seabrook/Watercolors/AQ50405.jpg",
    "brand": "Seabrook",
    "collection": "Watercolors",
    "width": 521,
    "height": 531
  },
  {
    "category": "wallpaper",
    "src": "assets/products/oboi/Seabrook/Watercolors/AQ50407.jpg",
    "brand": "Seabrook",
    "collection": "Watercolors",
    "width": 521,
    "height": 531
  },
  {
    "category": "wallpaper",
    "src": "assets/products/oboi/Seabrook/Watercolors/AQ50409.jpg",
    "brand": "Seabrook",
    "collection": "Watercolors",
    "width": 521,
    "height": 531
  },
  {
    "category": "wallpaper",
    "src": "assets/products/oboi/Seabrook/Watercolors/AQ50411.jpg",
    "brand": "Seabrook",
    "collection": "Watercolors",
    "width": 521,
    "height": 531
  },
  {
    "category": "wallpaper",
    "src": "assets/products/oboi/Seabrook/Watercolors/AQ50501.jpg",
    "brand": "Seabrook",
    "collection": "Watercolors",
    "width": 521,
    "height": 531
  },
  {
    "category": "wallpaper",
    "src": "assets/products/oboi/Seabrook/Watercolors/AQ50502.jpg",
    "brand": "Seabrook",
    "collection": "Watercolors",
    "width": 521,
    "height": 531
  },
  {
    "category": "wallpaper",
    "src": "assets/products/oboi/Seabrook/Watercolors/AQ50505.jpg",
    "brand": "Seabrook",
    "collection": "Watercolors",
    "width": 521,
    "height": 531
  },
  {
    "category": "wallpaper",
    "src": "assets/products/oboi/Seabrook/Watercolors/AQ50509.jpg",
    "brand": "Seabrook",
    "collection": "Watercolors",
    "width": 521,
    "height": 531
  },
  {
    "category": "wallpaper",
    "src": "assets/products/oboi/Seabrook/Watercolors/AQ50519.jpg",
    "brand": "Seabrook",
    "collection": "Watercolors",
    "width": 521,
    "height": 531
  },







  {
    "category": "wallpaper",
    "src": "assets/products/oboi/Seabrook/Watercolors/AQ50601.jpg",
    "brand": "Seabrook",
    "collection": "Watercolors",
    "width": 521,
    "height": 638
  },
  {
    "category": "wallpaper",
    "src": "assets/products/oboi/Seabrook/Watercolors/AQ50605.jpg",
    "brand": "Seabrook",
    "collection": "Watercolors",
    "width": 521,
    "height": 638
  },
  {
    "category": "wallpaper",
    "src": "assets/products/oboi/Seabrook/Watercolors/AQ50607.jpg",
    "brand": "Seabrook",
    "collection": "Watercolors",
    "width": 521,
    "height": 638
  },
  {
    "category": "wallpaper",
    "src": "assets/products/oboi/Seabrook/Watercolors/AQ50609.jpg",
    "brand": "Seabrook",
    "collection": "Watercolors",
    "width": 521,
    "height": 638
  },
  {
    "category": "wallpaper",
    "src": "assets/products/oboi/Seabrook/Watercolors/AQ50611.jpg",
    "brand": "Seabrook",
    "collection": "Watercolors",
    "width": 521,
    "height": 638
  },







  {
    "category": "wallpaper",
    "src": "assets/products/oboi/Seabrook/Watercolors/AQ50702.jpg",
    "brand": "Seabrook",
    "collection": "Watercolors",
    "width": 521,
    "height": 706
  },
  {
    "category": "wallpaper",
    "src": "assets/products/oboi/Seabrook/Watercolors/AQ50704.jpg",
    "brand": "Seabrook",
    "collection": "Watercolors",
    "width": 521,
    "height": 706
  },
  {
    "category": "wallpaper",
    "src": "assets/products/oboi/Seabrook/Watercolors/AQ50707.jpg",
    "brand": "Seabrook",
    "collection": "Watercolors",
    "width": 521,
    "height": 706
  },
  {
    "category": "wallpaper",
    "src": "assets/products/oboi/Seabrook/Watercolors/AQ50709.jpg",
    "brand": "Seabrook",
    "collection": "Watercolors",
    "width": 521,
    "height": 706
  },







  {
    "category": "wallpaper",
    "src": "assets/products/oboi/Seabrook/Watercolors/AQ50801.jpg",
    "brand": "Seabrook",
    "collection": "Watercolors",
    "width": 521,
    "height": 531
  },
  {
    "category": "wallpaper",
    "src": "assets/products/oboi/Seabrook/Watercolors/AQ50804.jpg",
    "brand": "Seabrook",
    "collection": "Watercolors",
    "width": 521,
    "height": 531
  },
  {
    "category": "wallpaper",
    "src": "assets/products/oboi/Seabrook/Watercolors/AQ50805.jpg",
    "brand": "Seabrook",
    "collection": "Watercolors",
    "width": 521,
    "height": 531
  },
  {
    "category": "wallpaper",
    "src": "assets/products/oboi/Seabrook/Watercolors/AQ50809.jpg",
    "brand": "Seabrook",
    "collection": "Watercolors",
    "width": 521,
    "height": 531
  },
  {
    "category": "wallpaper",
    "src": "assets/products/oboi/Seabrook/Watercolors/AQ50901.jpg",
    "brand": "Seabrook",
    "collection": "Watercolors",
    "width": 521,
    "height": 531
  },
  {
    "category": "wallpaper",
    "src": "assets/products/oboi/Seabrook/Watercolors/AQ50905.jpg",
    "brand": "Seabrook",
    "collection": "Watercolors",
    "width": 521,
    "height": 531
  },
  {
    "category": "wallpaper",
    "src": "assets/products/oboi/Seabrook/Watercolors/AQ50908.jpg",
    "brand": "Seabrook",
    "collection": "Watercolors",
    "width": 521,
    "height": 531
  },
  {
    "category": "wallpaper",
    "src": "assets/products/oboi/Seabrook/Watercolors/AQ50909.jpg",
    "brand": "Seabrook",
    "collection": "Watercolors",
    "width": 521,
    "height": 531
  },
  {
    "category": "wallpaper",
    "src": "assets/products/oboi/Seabrook/Watercolors/AQ50911.jpg",
    "brand": "Seabrook",
    "collection": "Watercolors",
    "width": 521,
    "height": 531
  },
  {
    "category": "wallpaper",
    "src": "assets/products/oboi/Seabrook/Watercolors/AQ51101.jpg",
    "brand": "Seabrook",
    "collection": "Watercolors",
    "width": 521,
    "height": 531
  },
  {
    "category": "wallpaper",
    "src": "assets/products/oboi/Seabrook/Watercolors/AQ51103.jpg",
    "brand": "Seabrook",
    "collection": "Watercolors",
    "width": 521,
    "height": 531
  },
  {
    "category": "wallpaper",
    "src": "assets/products/oboi/Seabrook/Watercolors/AQ51105.jpg",
    "brand": "Seabrook",
    "collection": "Watercolors",
    "width": 521,
    "height": 531
  },
  {
    "category": "wallpaper",
    "src": "assets/products/oboi/Seabrook/Watercolors/AQ51107.jpg",
    "brand": "Seabrook",
    "collection": "Watercolors",
    "width": 521,
    "height": 531
  },
  {
    "category": "wallpaper",
    "src": "assets/products/oboi/Seabrook/Watercolors/AQ51109.jpg",
    "brand": "Seabrook",
    "collection": "Watercolors",
    "width": 521,
    "height": 531
  },
  {
    "category": "wallpaper",
    "src": "assets/products/oboi/Seabrook/Watercolors/AQ51301.jpg",
    "brand": "Seabrook",
    "collection": "Watercolors",
    "width": 521,
    "height": 531
  },
  {
    "category": "wallpaper",
    "src": "assets/products/oboi/Seabrook/Watercolors/AQ51304.jpg",
    "brand": "Seabrook",
    "collection": "Watercolors",
    "width": 521,
    "height": 531
  },
  {
    "category": "wallpaper",
    "src": "assets/products/oboi/Seabrook/Watercolors/AQ51305.jpg",
    "brand": "Seabrook",
    "collection": "Watercolors",
    "width": 521,
    "height": 531
  },
  {
    "category": "wallpaper",
    "src": "assets/products/oboi/Seabrook/Watercolors/AQ51309.jpg",
    "brand": "Seabrook",
    "collection": "Watercolors",
    "width": 521,
    "height": 531
  },
  {
    "category": "wallpaper",
    "src": "assets/products/oboi/Seabrook/Watercolors/AQ51401.jpg",
    "brand": "Seabrook",
    "collection": "Watercolors",
    "width": 521,
    "height": 531
  },
  {
    "category": "wallpaper",
    "src": "assets/products/oboi/Seabrook/Watercolors/AQ51403.jpg",
    "brand": "Seabrook",
    "collection": "Watercolors",
    "width": 521,
    "height": 531
  },
  {
    "category": "wallpaper",
    "src": "assets/products/oboi/Seabrook/Watercolors/AQ51405.jpg",
    "brand": "Seabrook",
    "collection": "Watercolors",
    "width": 521,
    "height": 531
  },
  {
    "category": "wallpaper",
    "src": "assets/products/oboi/Seabrook/Watercolors/AQ51407.jpg",
    "brand": "Seabrook",
    "collection": "Watercolors",
    "width": 521,
    "height": 531
  },
  {
    "category": "wallpaper",
    "src": "assets/products/oboi/Seabrook/Watercolors/AQ51409.jpg",
    "brand": "Seabrook",
    "collection": "Watercolors",
    "width": 521,
    "height": 531
  },
  {
    "category": "wallpaper",
    "src": "assets/products/oboi/Seabrook/Watercolors/AQ51502.jpg",
    "brand": "Seabrook",
    "collection": "Watercolors",
    "width": 521,
    "height": 531
  },
  {
    "category": "wallpaper",
    "src": "assets/products/oboi/Seabrook/Watercolors/AQ51504.jpg",
    "brand": "Seabrook",
    "collection": "Watercolors",
    "width": 521,
    "height": 531
  },
  {
    "category": "wallpaper",
    "src": "assets/products/oboi/Seabrook/Watercolors/AQ51507.jpg",
    "brand": "Seabrook",
    "collection": "Watercolors",
    "width": 521,
    "height": 531
  },
  {
    "category": "wallpaper",
    "src": "assets/products/oboi/Seabrook/Watercolors/AQ51509.jpg",
    "brand": "Seabrook",
    "collection": "Watercolors",
    "width": 521,
    "height": 531
  },
  {
    "category": "wallpaper",
    "src": "assets/products/oboi/Seabrook/Watercolors/AQ51601.jpg",
    "brand": "Seabrook",
    "collection": "Watercolors",
    "width": 521,
    "height": 531
  },
  {
    "category": "wallpaper",
    "src": "assets/products/oboi/Seabrook/Watercolors/AQ51603.jpg",
    "brand": "Seabrook",
    "collection": "Watercolors",
    "width": 521,
    "height": 531
  },
  {
    "category": "wallpaper",
    "src": "assets/products/oboi/Seabrook/Watercolors/AQ51605.jpg",
    "brand": "Seabrook",
    "collection": "Watercolors",
    "width": 521,
    "height": 531
  },
  {
    "category": "wallpaper",
    "src": "assets/products/oboi/Seabrook/Watercolors/AQ51607.jpg",
    "brand": "Seabrook",
    "collection": "Watercolors",
    "width": 521,
    "height": 531
  },
  {
    "category": "wallpaper",
    "src": "assets/products/oboi/Seabrook/Watercolors/AQ51609.jpg",
    "brand": "Seabrook",
    "collection": "Watercolors",
    "width": 521,
    "height": 531
  }


]
