# 3ds Max Wavefront OBJ Exporter v0.97b - (c)2007 guruware
# File Created: 30.01.2016 15:32:43

mtllib _RIGHT.mtl

#
# object _RIGHT_
#

v  2225.000000 2705.000000 2430.000000
v  2225.000000 2705.000000 0.000000
v  2225.000000 -5.000000 0.000000
v  2225.000000 -5.000000 2430.000000
v  2225.000000 2705.000000 -2430.000000
v  2225.000000 -5.000000 -2430.000000
# 6 vertices

vn -1.000000 0.000000 -0.000000
# 1 vertex normals

vt 4.862431 2.711355 0.999500
vt 2.432431 2.711355 0.999500
vt 2.432431 0.001355 0.999500
vt 4.862431 0.001355 0.999500
vt 0.002432 2.711355 0.999500
vt 0.002432 0.001355 0.999500
# 6 texture coords

g _RIGHT_
usemtl wire_166229229
s 16
f 1/1/1 2/2/1 3/3/1 
f 3/3/1 4/4/1 1/1/1 
f 5/5/1 6/6/1 3/3/1 
f 3/3/1 2/2/1 5/5/1 
# 4 faces

