
[

  {
    "category": "wallpaper",
    "src": "assets/products/oboi/York/Boulevard/kp4925.jpg",
    "brand": "York",
    "collection": "Boulevard",
    "width": 521,
    "height": 521
  },
  {
    "category": "wallpaper",
    "src": "assets/products/oboi/York/Boulevard/kp4927.jpg",
    "brand": "York",
    "collection": "Boulevard",
    "width": 521,
    "height": 521
  },







  {
    "category": "wallpaper",
    "src": "assets/products/oboi/York/Boulevard/rl9596.jpg",
    "brand": "York",
    "collection": "Boulevard",
    "width": 641,
    "height": 641
  },
  {
    "category": "wallpaper",
    "src": "assets/products/oboi/York/Boulevard/rl9597.jpg",
    "brand": "York",
    "collection": "Boulevard",
    "width": 641,
    "height": 641
  },
  {
    "category": "wallpaper",
    "src": "assets/products/oboi/York/Boulevard/rl9598.jpg",
    "brand": "York",
    "collection": "Boulevard",
    "width": 641,
    "height": 641
  },








  {
    "category": "wallpaper",
    "src": "assets/products/oboi/York/Boulevard/te4100.jpg",
    "brand": "York",
    "collection": "Boulevard",
    "width": 686,
    "height": 641
  },
  {
    "category": "wallpaper",
    "src": "assets/products/oboi/York/Boulevard/te4101.jpg",
    "brand": "York",
    "collection": "Boulevard",
    "width": 686,
    "height": 641
  },
  {
    "category": "wallpaper",
    "src": "assets/products/oboi/York/Boulevard/te4102.jpg",
    "brand": "York",
    "collection": "Boulevard",
    "width": 686,
    "height": 641
  },
  {
    "category": "wallpaper",
    "src": "assets/products/oboi/York/Boulevard/te4103.jpg",
    "brand": "York",
    "collection": "Boulevard",
    "width": 686,
    "height": 641
  },
  {
    "category": "wallpaper",
    "src": "assets/products/oboi/York/Boulevard/te4104.jpg",
    "brand": "York",
    "collection": "Boulevard",
    "width": 686,
    "height": 641
  },
  {
    "category": "wallpaper",
    "src": "assets/products/oboi/York/Boulevard/te4105.jpg",
    "brand": "York",
    "collection": "Boulevard",
    "width": 686,
    "height": 641
  },







  {
    "category": "wallpaper",
    "src": "assets/products/oboi/York/Boulevard/te4108.jpg",
    "brand": "York",
    "collection": "Boulevard",
    "width": 686,
    "height": 641
  },
  {
    "category": "wallpaper",
    "src": "assets/products/oboi/York/Boulevard/te4109.jpg",
    "brand": "York",
    "collection": "Boulevard",
    "width": 686,
    "height": 641
  },
  {
    "category": "wallpaper",
    "src": "assets/products/oboi/York/Boulevard/te4110.jpg",
    "brand": "York",
    "collection": "Boulevard",
    "width": 686,
    "height": 641
  },
  {
    "category": "wallpaper",
    "src": "assets/products/oboi/York/Boulevard/te4111.jpg",
    "brand": "York",
    "collection": "Boulevard",
    "width": 686,
    "height": 641
  },







  {
    "category": "wallpaper",
    "src": "assets/products/oboi/York/Boulevard/te4116.jpg",
    "brand": "York",
    "collection": "Boulevard",
    "width": 521,
    "height": 610
  },
  {
    "category": "wallpaper",
    "src": "assets/products/oboi/York/Boulevard/te4117.jpg",
    "brand": "York",
    "collection": "Boulevard",
    "width": 521,
    "height": 610
  },
  {
    "category": "wallpaper",
    "src": "assets/products/oboi/York/Boulevard/te4118.jpg",
    "brand": "York",
    "collection": "Boulevard",
    "width": 521,
    "height": 610
  },







  {
    "category": "wallpaper",
    "src": "assets/products/oboi/York/Boulevard/te4124.jpg",
    "brand": "York",
    "collection": "Boulevard",
    "width": 686,
    "height": 521
  },
  {
    "category": "wallpaper",
    "src": "assets/products/oboi/York/Boulevard/te4125.jpg",
    "brand": "York",
    "collection": "Boulevard",
    "width": 686,
    "height": 521
  },
  {
    "category": "wallpaper",
    "src": "assets/products/oboi/York/Boulevard/te4126.jpg",
    "brand": "York",
    "collection": "Boulevard",
    "width": 686,
    "height": 521
  },
  {
    "category": "wallpaper",
    "src": "assets/products/oboi/York/Boulevard/te4127.jpg",
    "brand": "York",
    "collection": "Boulevard",
    "width": 686,
    "height": 521
  },







  {
    "category": "wallpaper",
    "src": "assets/products/oboi/York/Boulevard/te4132.jpg",
    "brand": "York",
    "collection": "Boulevard",
    "width": 521,
    "height": 521
  },
  {
    "category": "wallpaper",
    "src": "assets/products/oboi/York/Boulevard/te4133.jpg",
    "brand": "York",
    "collection": "Boulevard",
    "width": 521,
    "height": 521
  },
  {
    "category": "wallpaper",
    "src": "assets/products/oboi/York/Boulevard/te4134.jpg",
    "brand": "York",
    "collection": "Boulevard",
    "width": 521,
    "height": 521
  },
  {
    "category": "wallpaper",
    "src": "assets/products/oboi/York/Boulevard/te4135.jpg",
    "brand": "York",
    "collection": "Boulevard",
    "width": 521,
    "height": 521
  },
  {
    "category": "wallpaper",
    "src": "assets/products/oboi/York/Boulevard/te4136.jpg",
    "brand": "York",
    "collection": "Boulevard",
    "width": 521,
    "height": 521
  },







  {
    "category": "wallpaper",
    "src": "assets/products/oboi/York/Boulevard/te4140.jpg",
    "brand": "York",
    "collection": "Boulevard",
    "width": 686,
    "height": 610
  },
  {
    "category": "wallpaper",
    "src": "assets/products/oboi/York/Boulevard/te4141.jpg",
    "brand": "York",
    "collection": "Boulevard",
    "width": 686,
    "height": 610
  },
  {
    "category": "wallpaper",
    "src": "assets/products/oboi/York/Boulevard/te4142.jpg",
    "brand": "York",
    "collection": "Boulevard",
    "width": 686,
    "height": 610
  },
  {
    "category": "wallpaper",
    "src": "assets/products/oboi/York/Boulevard/te4143.jpg",
    "brand": "York",
    "collection": "Boulevard",
    "width": 686,
    "height": 610
  },
  {
    "category": "wallpaper",
    "src": "assets/products/oboi/York/Boulevard/te4144.jpg",
    "brand": "York",
    "collection": "Boulevard",
    "width": 686,
    "height": 610
  },







  {
    "category": "wallpaper",
    "src": "assets/products/oboi/York/Boulevard/te4148.jpg",
    "brand": "York",
    "collection": "Boulevard",
    "width": 686,
    "height": 610
  },
  {
    "category": "wallpaper",
    "src": "assets/products/oboi/York/Boulevard/te4149.jpg",
    "brand": "York",
    "collection": "Boulevard",
    "width": 686,
    "height": 610
  },
  {
    "category": "wallpaper",
    "src": "assets/products/oboi/York/Boulevard/te4150.jpg",
    "brand": "York",
    "collection": "Boulevard",
    "width": 686,
    "height": 610
  },
  {
    "category": "wallpaper",
    "src": "assets/products/oboi/York/Boulevard/te4151.jpg",
    "brand": "York",
    "collection": "Boulevard",
    "width": 686,
    "height": 610
  },
  {
    "category": "wallpaper",
    "src": "assets/products/oboi/York/Boulevard/te4152.jpg",
    "brand": "York",
    "collection": "Boulevard",
    "width": 686,
    "height": 610
  },






  {
    "category": "wallpaper",
    "src": "assets/products/oboi/York/Boulevard/te4164.jpg",
    "brand": "York",
    "collection": "Boulevard",
    "width": 686,
    "height": 641
  },
  {
    "category": "wallpaper",
    "src": "assets/products/oboi/York/Boulevard/te4165.jpg",
    "brand": "York",
    "collection": "Boulevard",
    "width": 686,
    "height": 641
  },
  {
    "category": "wallpaper",
    "src": "assets/products/oboi/York/Boulevard/te4166.jpg",
    "brand": "York",
    "collection": "Boulevard",
    "width": 686,
    "height": 641
  },
  {
    "category": "wallpaper",
    "src": "assets/products/oboi/York/Boulevard/te4167.jpg",
    "brand": "York",
    "collection": "Boulevard",
    "width": 686,
    "height": 641
  },
  {
    "category": "wallpaper",
    "src": "assets/products/oboi/York/Boulevard/te4168.jpg",
    "brand": "York",
    "collection": "Boulevard",
    "width": 686,
    "height": 641
  },







  {
    "category": "wallpaper",
    "src": "assets/products/oboi/York/Boulevard/te4164.jpg",
    "brand": "York",
    "collection": "Boulevard",
    "width": 686,
    "height": 641
  },
  {
    "category": "wallpaper",
    "src": "assets/products/oboi/York/Boulevard/te4165.jpg",
    "brand": "York",
    "collection": "Boulevard",
    "width": 686,
    "height": 641
  },
  {
    "category": "wallpaper",
    "src": "assets/products/oboi/York/Boulevard/te4167.jpg",
    "brand": "York",
    "collection": "Boulevard",
    "width": 686,
    "height": 641
  },
  {
    "category": "wallpaper",
    "src": "assets/products/oboi/York/Boulevard/te4168.jpg",
    "brand": "York",
    "collection": "Boulevard",
    "width": 686,
    "height": 641
  },







  {
    "category": "wallpaper",
    "src": "assets/products/oboi/York/Boulevard/te4172.jpg",
    "brand": "York",
    "collection": "Boulevard",
    "width": 686,
    "height": 641
  },
  {
    "category": "wallpaper",
    "src": "assets/products/oboi/York/Boulevard/te4173.jpg",
    "brand": "York",
    "collection": "Boulevard",
    "width": 686,
    "height": 641
  },
  {
    "category": "wallpaper",
    "src": "assets/products/oboi/York/Boulevard/te4174.jpg",
    "brand": "York",
    "collection": "Boulevard",
    "width": 686,
    "height": 641
  },
  {
    "category": "wallpaper",
    "src": "assets/products/oboi/York/Boulevard/te4175.jpg",
    "brand": "York",
    "collection": "Boulevard",
    "width": 686,
    "height": 641
  },







  {
    "category": "wallpaper",
    "src": "assets/products/oboi/York/Boulevard/te4180.jpg",
    "brand": "York",
    "collection": "Boulevard",
    "width": 686,
    "height": 641
  },
  {
    "category": "wallpaper",
    "src": "assets/products/oboi/York/Boulevard/te4181.jpg",
    "brand": "York",
    "collection": "Boulevard",
    "width": 686,
    "height": 641
  },
  {
    "category": "wallpaper",
    "src": "assets/products/oboi/York/Boulevard/te4182.jpg",
    "brand": "York",
    "collection": "Boulevard",
    "width": 686,
    "height": 641
  },
  {
    "category": "wallpaper",
    "src": "assets/products/oboi/York/Boulevard/te4183.jpg",
    "brand": "York",
    "collection": "Boulevard",
    "width": 686,
    "height": 641
  },
  {
    "category": "wallpaper",
    "src": "assets/products/oboi/York/Boulevard/te4184.jpg",
    "brand": "York",
    "collection": "Boulevard",
    "width": 686,
    "height": 641
  },







  {
    "category": "wallpaper",
    "src": "assets/products/oboi/York/Boulevard/te4188.jpg",
    "brand": "York",
    "collection": "Boulevard",
    "width": 686,
    "height": 641
  },
  {
    "category": "wallpaper",
    "src": "assets/products/oboi/York/Boulevard/te4189.jpg",
    "brand": "York",
    "collection": "Boulevard",
    "width": 686,
    "height": 641
  },
  {
    "category": "wallpaper",
    "src": "assets/products/oboi/York/Boulevard/te4190.jpg",
    "brand": "York",
    "collection": "Boulevard",
    "width": 686,
    "height": 641
  },
  {
    "category": "wallpaper",
    "src": "assets/products/oboi/York/Boulevard/te4191.jpg",
    "brand": "York",
    "collection": "Boulevard",
    "width": 686,
    "height": 641
  },
  {
    "category": "wallpaper",
    "src": "assets/products/oboi/York/Boulevard/te4192.jpg",
    "brand": "York",
    "collection": "Boulevard",
    "width": 686,
    "height": 641
  },







  {
    "category": "wallpaper",
    "src": "assets/products/oboi/York/Boulevard/te4197.jpg",
    "brand": "York",
    "collection": "Boulevard",
    "width": 686,
    "height": 641
  },
  {
    "category": "wallpaper",
    "src": "assets/products/oboi/York/Boulevard/te4198.jpg",
    "brand": "York",
    "collection": "Boulevard",
    "width": 686,
    "height": 641
  },
  {
    "category": "wallpaper",
    "src": "assets/products/oboi/York/Boulevard/te4199.jpg",
    "brand": "York",
    "collection": "Boulevard",
    "width": 686,
    "height": 641
  },
  {
    "category": "wallpaper",
    "src": "assets/products/oboi/York/Boulevard/te4200.jpg",
    "brand": "York",
    "collection": "Boulevard",
    "width": 686,
    "height": 641
  },
  {
    "category": "wallpaper",
    "src": "assets/products/oboi/York/Boulevard/te4201.jpg",
    "brand": "York",
    "collection": "Boulevard",
    "width": 686,
    "height": 641
  },







  {
    "category": "wallpaper",
    "src": "assets/products/oboi/York/Boulevard/te4204.jpg",
    "brand": "York",
    "collection": "Boulevard",
    "width": 686,
    "height": 641
  },
  {
    "category": "wallpaper",
    "src": "assets/products/oboi/York/Boulevard/te4205.jpg",
    "brand": "York",
    "collection": "Boulevard",
    "width": 686,
    "height": 641
  },
  {
    "category": "wallpaper",
    "src": "assets/products/oboi/York/Boulevard/te4206.jpg",
    "brand": "York",
    "collection": "Boulevard",
    "width": 686,
    "height": 641
  },
  {
    "category": "wallpaper",
    "src": "assets/products/oboi/York/Boulevard/te4207.jpg",
    "brand": "York",
    "collection": "Boulevard",
    "width": 686,
    "height": 641
  },








  {
    "category": "wallpaper",
    "src": "assets/products/oboi/York/Boulevard/te4212.jpg",
    "brand": "York",
    "collection": "Boulevard",
    "width": 686,
    "height": 641
  },
  {
    "category": "wallpaper",
    "src": "assets/products/oboi/York/Boulevard/te4213.jpg",
    "brand": "York",
    "collection": "Boulevard",
    "width": 686,
    "height": 641
  },
  {
    "category": "wallpaper",
    "src": "assets/products/oboi/York/Boulevard/te4214.jpg",
    "brand": "York",
    "collection": "Boulevard",
    "width": 686,
    "height": 641
  },
  {
    "category": "wallpaper",
    "src": "assets/products/oboi/York/Boulevard/te4215.jpg",
    "brand": "York",
    "collection": "Boulevard",
    "width": 686,
    "height": 641
  },








  {
    "category": "wallpaper",
    "src": "assets/products/oboi/York/Boulevard/te4220.jpg",
    "brand": "York",
    "collection": "Boulevard",
    "width": 686,
    "height": 521
  },
  {
    "category": "wallpaper",
    "src": "assets/products/oboi/York/Boulevard/te4221.jpg",
    "brand": "York",
    "collection": "Boulevard",
    "width": 686,
    "height": 521
  },






  {
    "category": "wallpaper",
    "src": "assets/products/oboi/York/Boulevard/te4220.jpg",
    "brand": "York",
    "collection": "Boulevard",
    "width": 686,
    "height": 521
  }


]
