
[

  {
    "category": "wallpaper",
    "src": "assets/products/oboi/York/Charlotte/HN5309.jpg",
    "brand": "York",
    "collection": "Charlotte",
    "width": 521,
    "height": 521
  },
  {
    "category": "wallpaper",
    "src": "assets/products/oboi/York/Charlotte/HN5310.jpg",
    "brand": "York",
    "collection": "Charlotte",
    "width": 521,
    "height": 521
  },
  {
    "category": "wallpaper",
    "src": "assets/products/oboi/York/Charlotte/HN5311.jpg",
    "brand": "York",
    "collection": "Charlotte",
    "width": 521,
    "height": 521
  },
  {
    "category": "wallpaper",
    "src": "assets/products/oboi/York/Charlotte/HN5313.jpg",
    "brand": "York",
    "collection": "Charlotte",
    "width": 521,
    "height": 521
  },







  {
    "category": "wallpaper",
    "src": "assets/products/oboi/York/Charlotte/HN5377.jpg",
    "brand": "York",
    "collection": "Charlotte",
    "width": 521,
    "height": 521
  },
  {
    "category": "wallpaper",
    "src": "assets/products/oboi/York/Charlotte/HN5378.jpg",
    "brand": "York",
    "collection": "Charlotte",
    "width": 521,
    "height": 521
  },
  {
    "category": "wallpaper",
    "src": "assets/products/oboi/York/Charlotte/HN5379.jpg",
    "brand": "York",
    "collection": "Charlotte",
    "width": 521,
    "height": 521
  },
  {
    "category": "wallpaper",
    "src": "assets/products/oboi/York/Charlotte/HN5381.jpg",
    "brand": "York",
    "collection": "Charlotte",
    "width": 521,
    "height": 521
  },







  {
    "category": "wallpaper",
    "src": "assets/products/oboi/York/Charlotte/TB4201.jpg",
    "brand": "York",
    "collection": "Charlotte",
    "width": 521,
    "height": 521
  },
  {
    "category": "wallpaper",
    "src": "assets/products/oboi/York/Charlotte/TB4202.jpg",
    "brand": "York",
    "collection": "Charlotte",
    "width": 521,
    "height": 521
  },
  {
    "category": "wallpaper",
    "src": "assets/products/oboi/York/Charlotte/TB4203.jpg",
    "brand": "York",
    "collection": "Charlotte",
    "width": 521,
    "height": 521
  },
  {
    "category": "wallpaper",
    "src": "assets/products/oboi/York/Charlotte/TB4204.jpg",
    "brand": "York",
    "collection": "Charlotte",
    "width": 521,
    "height": 521
  },
  {
    "category": "wallpaper",
    "src": "assets/products/oboi/York/Charlotte/TB4205.jpg",
    "brand": "York",
    "collection": "Charlotte",
    "width": 521,
    "height": 521
  },







  {
    "category": "wallpaper",
    "src": "assets/products/oboi/York/Charlotte/TB4208.jpg",
    "brand": "York",
    "collection": "Charlotte",
    "width": 686,
    "height": 521
  },
  {
    "category": "wallpaper",
    "src": "assets/products/oboi/York/Charlotte/TB4209.jpg",
    "brand": "York",
    "collection": "Charlotte",
    "width": 686,
    "height": 521
  },
  {
    "category": "wallpaper",
    "src": "assets/products/oboi/York/Charlotte/TB4210.jpg",
    "brand": "York",
    "collection": "Charlotte",
    "width": 686,
    "height": 521
  },
  {
    "category": "wallpaper",
    "src": "assets/products/oboi/York/Charlotte/TB4211.jpg",
    "brand": "York",
    "collection": "Charlotte",
    "width": 686,
    "height": 521
  },
  {
    "category": "wallpaper",
    "src": "assets/products/oboi/York/Charlotte/TB4212.jpg",
    "brand": "York",
    "collection": "Charlotte",
    "width": 686,
    "height": 521
  },







  {
    "category": "wallpaper",
    "src": "assets/products/oboi/York/Charlotte/TB4216.jpg",
    "brand": "York",
    "collection": "Charlotte",
    "width": 686,
    "height": 610
  },
  {
    "category": "wallpaper",
    "src": "assets/products/oboi/York/Charlotte/TB4217.jpg",
    "brand": "York",
    "collection": "Charlotte",
    "width": 686,
    "height": 610
  },
  {
    "category": "wallpaper",
    "src": "assets/products/oboi/York/Charlotte/TB4218.jpg",
    "brand": "York",
    "collection": "Charlotte",
    "width": 686,
    "height": 610
  },
  {
    "category": "wallpaper",
    "src": "assets/products/oboi/York/Charlotte/TB4219.jpg",
    "brand": "York",
    "collection": "Charlotte",
    "width": 686,
    "height": 610
  },
  {
    "category": "wallpaper",
    "src": "assets/products/oboi/York/Charlotte/TB4220.jpg",
    "brand": "York",
    "collection": "Charlotte",
    "width": 686,
    "height": 610
  },







  {
    "category": "wallpaper",
    "src": "assets/products/oboi/York/Charlotte/TB4224.jpg",
    "brand": "York",
    "collection": "Charlotte",
    "width": 686,
    "height": 521
  },
  {
    "category": "wallpaper",
    "src": "assets/products/oboi/York/Charlotte/TB4225.jpg",
    "brand": "York",
    "collection": "Charlotte",
    "width": 686,
    "height": 521
  },
  {
    "category": "wallpaper",
    "src": "assets/products/oboi/York/Charlotte/TB4226.jpg",
    "brand": "York",
    "collection": "Charlotte",
    "width": 686,
    "height": 521
  },
  {
    "category": "wallpaper",
    "src": "assets/products/oboi/York/Charlotte/TB4227.jpg",
    "brand": "York",
    "collection": "Charlotte",
    "width": 686,
    "height": 521
  },
  {
    "category": "wallpaper",
    "src": "assets/products/oboi/York/Charlotte/TB4228.jpg",
    "brand": "York",
    "collection": "Charlotte",
    "width": 686,
    "height": 521
  },






  {
    "category": "wallpaper",
    "src": "assets/products/oboi/York/Charlotte/TB4233.jpg",
    "brand": "York",
    "collection": "Charlotte",
    "width": 686,
    "height": 521
  },
  {
    "category": "wallpaper",
    "src": "assets/products/oboi/York/Charlotte/TB4234.jpg",
    "brand": "York",
    "collection": "Charlotte",
    "width": 686,
    "height": 521
  },
  {
    "category": "wallpaper",
    "src": "assets/products/oboi/York/Charlotte/TB4235.jpg",
    "brand": "York",
    "collection": "Charlotte",
    "width": 686,
    "height": 521
  },
  {
    "category": "wallpaper",
    "src": "assets/products/oboi/York/Charlotte/TB4236.jpg",
    "brand": "York",
    "collection": "Charlotte",
    "width": 686,
    "height": 521
  },
  {
    "category": "wallpaper",
    "src": "assets/products/oboi/York/Charlotte/TB4237.jpg",
    "brand": "York",
    "collection": "Charlotte",
    "width": 686,
    "height": 521
  },







  {
    "category": "wallpaper",
    "src": "assets/products/oboi/York/Charlotte/TB4240.jpg",
    "brand": "York",
    "collection": "Charlotte",
    "width": 686,
    "height": 521
  },
  {
    "category": "wallpaper",
    "src": "assets/products/oboi/York/Charlotte/TB4241.jpg",
    "brand": "York",
    "collection": "Charlotte",
    "width": 686,
    "height": 521
  },
  {
    "category": "wallpaper",
    "src": "assets/products/oboi/York/Charlotte/TB4242.jpg",
    "brand": "York",
    "collection": "Charlotte",
    "width": 686,
    "height": 521
  },
  {
    "category": "wallpaper",
    "src": "assets/products/oboi/York/Charlotte/TB4244.jpg",
    "brand": "York",
    "collection": "Charlotte",
    "width": 686,
    "height": 521
  },
  {
    "category": "wallpaper",
    "src": "assets/products/oboi/York/Charlotte/TB4245.jpg",
    "brand": "York",
    "collection": "Charlotte",
    "width": 686,
    "height": 521
  },
  {
    "category": "wallpaper",
    "src": "assets/products/oboi/York/Charlotte/TB4246.jpg",
    "brand": "York",
    "collection": "Charlotte",
    "width": 686,
    "height": 521
  },







  {
    "category": "wallpaper",
    "src": "assets/products/oboi/York/Charlotte/TB4248.jpg",
    "brand": "York",
    "collection": "Charlotte",
    "width": 521,
    "height": 521
  },
  {
    "category": "wallpaper",
    "src": "assets/products/oboi/York/Charlotte/TB4249.jpg",
    "brand": "York",
    "collection": "Charlotte",
    "width": 521,
    "height": 521
  },
  {
    "category": "wallpaper",
    "src": "assets/products/oboi/York/Charlotte/TB4250.jpg",
    "brand": "York",
    "collection": "Charlotte",
    "width": 521,
    "height": 521
  },
  {
    "category": "wallpaper",
    "src": "assets/products/oboi/York/Charlotte/TB4251.jpg",
    "brand": "York",
    "collection": "Charlotte",
    "width": 521,
    "height": 521
  },
  {
    "category": "wallpaper",
    "src": "assets/products/oboi/York/Charlotte/TB4252.jpg",
    "brand": "York",
    "collection": "Charlotte",
    "width": 521,
    "height": 521
  },







  {
    "category": "wallpaper",
    "src": "assets/products/oboi/York/Charlotte/TB4256.jpg",
    "brand": "York",
    "collection": "Charlotte",
    "width": 686,
    "height": 610
  },
  {
    "category": "wallpaper",
    "src": "assets/products/oboi/York/Charlotte/TB4257.jpg",
    "brand": "York",
    "collection": "Charlotte",
    "width": 686,
    "height": 610
  },
  {
    "category": "wallpaper",
    "src": "assets/products/oboi/York/Charlotte/TB4258.jpg",
    "brand": "York",
    "collection": "Charlotte",
    "width": 686,
    "height": 610
  },
  {
    "category": "wallpaper",
    "src": "assets/products/oboi/York/Charlotte/TB4259.jpg",
    "brand": "York",
    "collection": "Charlotte",
    "width": 686,
    "height": 610
  },
  {
    "category": "wallpaper",
    "src": "assets/products/oboi/York/Charlotte/TB4260.jpg",
    "brand": "York",
    "collection": "Charlotte",
    "width": 686,
    "height": 610
  },







  {
    "category": "wallpaper",
    "src": "assets/products/oboi/York/Charlotte/TB4265.jpg",
    "brand": "York",
    "collection": "Charlotte",
    "width": 686,
    "height": 521
  },
  {
    "category": "wallpaper",
    "src": "assets/products/oboi/York/Charlotte/TB4266.jpg",
    "brand": "York",
    "collection": "Charlotte",
    "width": 686,
    "height": 521
  },
  {
    "category": "wallpaper",
    "src": "assets/products/oboi/York/Charlotte/TB4267.jpg",
    "brand": "York",
    "collection": "Charlotte",
    "width": 686,
    "height": 521
  },
  {
    "category": "wallpaper",
    "src": "assets/products/oboi/York/Charlotte/TB4268.jpg",
    "brand": "York",
    "collection": "Charlotte",
    "width": 686,
    "height": 521
  },







  {
    "category": "wallpaper",
    "src": "assets/products/oboi/York/Charlotte/TB4273.jpg",
    "brand": "York",
    "collection": "Charlotte",
    "width": 686,
    "height": 641
  },
  {
    "category": "wallpaper",
    "src": "assets/products/oboi/York/Charlotte/TB4274.jpg",
    "brand": "York",
    "collection": "Charlotte",
    "width": 686,
    "height": 641
  },
  {
    "category": "wallpaper",
    "src": "assets/products/oboi/York/Charlotte/TB4275.jpg",
    "brand": "York",
    "collection": "Charlotte",
    "width": 686,
    "height": 641
  },
  {
    "category": "wallpaper",
    "src": "assets/products/oboi/York/Charlotte/TB4276.jpg",
    "brand": "York",
    "collection": "Charlotte",
    "width": 686,
    "height": 641
  },
  {
    "category": "wallpaper",
    "src": "assets/products/oboi/York/Charlotte/TB4277.jpg",
    "brand": "York",
    "collection": "Charlotte",
    "width": 686,
    "height": 641
  },







  {
    "category": "wallpaper",
    "src": "assets/products/oboi/York/Charlotte/TB4280.jpg",
    "brand": "York",
    "collection": "Charlotte",
    "width": 686,
    "height": 610
  },
  {
    "category": "wallpaper",
    "src": "assets/products/oboi/York/Charlotte/TB4281.jpg",
    "brand": "York",
    "collection": "Charlotte",
    "width": 686,
    "height": 610
  },
  {
    "category": "wallpaper",
    "src": "assets/products/oboi/York/Charlotte/TB4282.jpg",
    "brand": "York",
    "collection": "Charlotte",
    "width": 686,
    "height": 610
  },
  {
    "category": "wallpaper",
    "src": "assets/products/oboi/York/Charlotte/TB4283.jpg",
    "brand": "York",
    "collection": "Charlotte",
    "width": 686,
    "height": 610
  },
  {
    "category": "wallpaper",
    "src": "assets/products/oboi/York/Charlotte/TB4284.jpg",
    "brand": "York",
    "collection": "Charlotte",
    "width": 686,
    "height": 610
  },







  {
    "category": "wallpaper",
    "src": "assets/products/oboi/York/Charlotte/TB4296.jpg",
    "brand": "York",
    "collection": "Charlotte",
    "width": 686,
    "height": 521
  },
  {
    "category": "wallpaper",
    "src": "assets/products/oboi/York/Charlotte/TB4297.jpg",
    "brand": "York",
    "collection": "Charlotte",
    "width": 686,
    "height": 521
  },
  {
    "category": "wallpaper",
    "src": "assets/products/oboi/York/Charlotte/TB4298.jpg",
    "brand": "York",
    "collection": "Charlotte",
    "width": 686,
    "height": 521
  },
  {
    "category": "wallpaper",
    "src": "assets/products/oboi/York/Charlotte/TB4300.jpg",
    "brand": "York",
    "collection": "Charlotte",
    "width": 686,
    "height": 521
  },
  {
    "category": "wallpaper",
    "src": "assets/products/oboi/York/Charlotte/TB4301.jpg",
    "brand": "York",
    "collection": "Charlotte",
    "width": 686,
    "height": 521
  },
  {
    "category": "wallpaper",
    "src": "assets/products/oboi/York/Charlotte/TB4302.jpg",
    "brand": "York",
    "collection": "Charlotte",
    "width": 686,
    "height": 521
  },







  {
    "category": "wallpaper",
    "src": "assets/products/oboi/York/Charlotte/TB4305.jpg",
    "brand": "York",
    "collection": "Charlotte",
    "width": 521,
    "height": 521
  },
  {
    "category": "wallpaper",
    "src": "assets/products/oboi/York/Charlotte/TB4306.jpg",
    "brand": "York",
    "collection": "Charlotte",
    "width": 521,
    "height": 521
  },
  {
    "category": "wallpaper",
    "src": "assets/products/oboi/York/Charlotte/TB4307.jpg",
    "brand": "York",
    "collection": "Charlotte",
    "width": 521,
    "height": 521
  },
  {
    "category": "wallpaper",
    "src": "assets/products/oboi/York/Charlotte/TB4308.jpg",
    "brand": "York",
    "collection": "Charlotte",
    "width": 521,
    "height": 521
  },
  {
    "category": "wallpaper",
    "src": "assets/products/oboi/York/Charlotte/TB4309.jpg",
    "brand": "York",
    "collection": "Charlotte",
    "width": 521,
    "height": 521
  },







  {
    "category": "wallpaper",
    "src": "assets/products/oboi/York/Charlotte/TB4313.jpg",
    "brand": "York",
    "collection": "Charlotte",
    "width": 521,
    "height": 521
  },
  {
    "category": "wallpaper",
    "src": "assets/products/oboi/York/Charlotte/TB4314.jpg",
    "brand": "York",
    "collection": "Charlotte",
    "width": 521,
    "height": 521
  },
  {
    "category": "wallpaper",
    "src": "assets/products/oboi/York/Charlotte/TB4315.jpg",
    "brand": "York",
    "collection": "Charlotte",
    "width": 521,
    "height": 521
  },







  {
    "category": "wallpaper",
    "src": "assets/products/oboi/York/Charlotte/TB4318.jpg",
    "brand": "York",
    "collection": "Charlotte",
    "width": 521,
    "height": 521
  },
  {
    "category": "wallpaper",
    "src": "assets/products/oboi/York/Charlotte/TB4319.jpg",
    "brand": "York",
    "collection": "Charlotte",
    "width": 521,
    "height": 521
  },
  {
    "category": "wallpaper",
    "src": "assets/products/oboi/York/Charlotte/TB4320.jpg",
    "brand": "York",
    "collection": "Charlotte",
    "width": 521,
    "height": 521
  }


]
