
[

  {
    "category": "wallpaper",
    "src": "assets/products/oboi/York/Riverside Park/FD8401.jpg",
    "brand": "York",
    "collection": "Riverside Park",
    "width": 686,
    "height": 641
  },
  {
    "category": "wallpaper",
    "src": "assets/products/oboi/York/Riverside Park/FD8402.jpg",
    "brand": "York",
    "collection": "Riverside Park",
    "width": 686,
    "height": 641
  },
  {
    "category": "wallpaper",
    "src": "assets/products/oboi/York/Riverside Park/FD8403.jpg",
    "brand": "York",
    "collection": "Riverside Park",
    "width": 686,
    "height": 641
  },
  {
    "category": "wallpaper",
    "src": "assets/products/oboi/York/Riverside Park/FD8404.jpg",
    "brand": "York",
    "collection": "Riverside Park",
    "width": 686,
    "height": 641
  },







  {
    "category": "wallpaper",
    "src": "assets/products/oboi/York/Riverside Park/FD8418.jpg",
    "brand": "York",
    "collection": "Riverside Park",
    "width": 521,
    "height": 521
  },
  {
    "category": "wallpaper",
    "src": "assets/products/oboi/York/Riverside Park/FD8419.jpg",
    "brand": "York",
    "collection": "Riverside Park",
    "width": 521,
    "height": 521
  },
  {
    "category": "wallpaper",
    "src": "assets/products/oboi/York/Riverside Park/FD8420.jpg",
    "brand": "York",
    "collection": "Riverside Park",
    "width": 521,
    "height": 521
  },
  {
    "category": "wallpaper",
    "src": "assets/products/oboi/York/Riverside Park/FD8421.jpg",
    "brand": "York",
    "collection": "Riverside Park",
    "width": 521,
    "height": 521
  },







  {
    "category": "wallpaper",
    "src": "assets/products/oboi/York/Riverside Park/FD8422.jpg",
    "brand": "York",
    "collection": "Riverside Park",
    "width": 521,
    "height": 521
  },
  {
    "category": "wallpaper",
    "src": "assets/products/oboi/York/Riverside Park/FD8423.jpg",
    "brand": "York",
    "collection": "Riverside Park",
    "width": 521,
    "height": 521
  },
  {
    "category": "wallpaper",
    "src": "assets/products/oboi/York/Riverside Park/FD8424.jpg",
    "brand": "York",
    "collection": "Riverside Park",
    "width": 521,
    "height": 521
  },
  {
    "category": "wallpaper",
    "src": "assets/products/oboi/York/Riverside Park/FD8425.jpg",
    "brand": "York",
    "collection": "Riverside Park",
    "width": 521,
    "height": 521
  },







  {
    "category": "wallpaper",
    "src": "assets/products/oboi/York/Riverside Park/FD8427.jpg",
    "brand": "York",
    "collection": "Riverside Park",
    "width": 521,
    "height": 521
  },
  {
    "category": "wallpaper",
    "src": "assets/products/oboi/York/Riverside Park/FD8428.jpg",
    "brand": "York",
    "collection": "Riverside Park",
    "width": 521,
    "height": 521
  },
  {
    "category": "wallpaper",
    "src": "assets/products/oboi/York/Riverside Park/FD8429.jpg",
    "brand": "York",
    "collection": "Riverside Park",
    "width": 521,
    "height": 521
  },
  {
    "category": "wallpaper",
    "src": "assets/products/oboi/York/Riverside Park/FD8430.jpg",
    "brand": "York",
    "collection": "Riverside Park",
    "width": 521,
    "height": 521
  },
  {
    "category": "wallpaper",
    "src": "assets/products/oboi/York/Riverside Park/FD8431.jpg",
    "brand": "York",
    "collection": "Riverside Park",
    "width": 521,
    "height": 521
  },
  {
    "category": "wallpaper",
    "src": "assets/products/oboi/York/Riverside Park/FD8432.jpg",
    "brand": "York",
    "collection": "Riverside Park",
    "width": 521,
    "height": 521
  },
  {
    "category": "wallpaper",
    "src": "assets/products/oboi/York/Riverside Park/FD8433.jpg",
    "brand": "York",
    "collection": "Riverside Park",
    "width": 521,
    "height": 521
  },







  {
    "category": "wallpaper",
    "src": "assets/products/oboi/York/Riverside Park/FD8438.jpg",
    "brand": "York",
    "collection": "Riverside Park",
    "width": 521,
    "height": 521
  },
  {
    "category": "wallpaper",
    "src": "assets/products/oboi/York/Riverside Park/FD8439.jpg",
    "brand": "York",
    "collection": "Riverside Park",
    "width": 521,
    "height": 521
  },
  {
    "category": "wallpaper",
    "src": "assets/products/oboi/York/Riverside Park/FD8440.jpg",
    "brand": "York",
    "collection": "Riverside Park",
    "width": 521,
    "height": 521
  },
  {
    "category": "wallpaper",
    "src": "assets/products/oboi/York/Riverside Park/FD8441.jpg",
    "brand": "York",
    "collection": "Riverside Park",
    "width": 521,
    "height": 521
  },
  {
    "category": "wallpaper",
    "src": "assets/products/oboi/York/Riverside Park/FD8442.jpg",
    "brand": "York",
    "collection": "Riverside Park",
    "width": 521,
    "height": 521
  },
  {
    "category": "wallpaper",
    "src": "assets/products/oboi/York/Riverside Park/FD8443.jpg",
    "brand": "York",
    "collection": "Riverside Park",
    "width": 521,
    "height": 521
  },
  {
    "category": "wallpaper",
    "src": "assets/products/oboi/York/Riverside Park/FD8444.jpg",
    "brand": "York",
    "collection": "Riverside Park",
    "width": 521,
    "height": 521
  },







  {
    "category": "wallpaper",
    "src": "assets/products/oboi/York/Riverside Park/FD8450.jpg",
    "brand": "York",
    "collection": "Riverside Park",
    "width": 521,
    "height": 521
  },
  {
    "category": "wallpaper",
    "src": "assets/products/oboi/York/Riverside Park/FD8451.jpg",
    "brand": "York",
    "collection": "Riverside Park",
    "width": 521,
    "height": 521
  },
  {
    "category": "wallpaper",
    "src": "assets/products/oboi/York/Riverside Park/FD8452.jpg",
    "brand": "York",
    "collection": "Riverside Park",
    "width": 521,
    "height": 521
  },
  {
    "category": "wallpaper",
    "src": "assets/products/oboi/York/Riverside Park/FD8453.jpg",
    "brand": "York",
    "collection": "Riverside Park",
    "width": 521,
    "height": 521
  },
  {
    "category": "wallpaper",
    "src": "assets/products/oboi/York/Riverside Park/FD8454.jpg",
    "brand": "York",
    "collection": "Riverside Park",
    "width": 521,
    "height": 521
  },
  {
    "category": "wallpaper",
    "src": "assets/products/oboi/York/Riverside Park/FD8455.jpg",
    "brand": "York",
    "collection": "Riverside Park",
    "width": 521,
    "height": 521
  },
  {
    "category": "wallpaper",
    "src": "assets/products/oboi/York/Riverside Park/FD8456.jpg",
    "brand": "York",
    "collection": "Riverside Park",
    "width": 521,
    "height": 521
  },







  {
    "category": "wallpaper",
    "src": "assets/products/oboi/York/Riverside Park/FD8460.jpg",
    "brand": "York",
    "collection": "Riverside Park",
    "width": 521,
    "height": 521
  },
  {
    "category": "wallpaper",
    "src": "assets/products/oboi/York/Riverside Park/FD8461.jpg",
    "brand": "York",
    "collection": "Riverside Park",
    "width": 521,
    "height": 521
  },
  {
    "category": "wallpaper",
    "src": "assets/products/oboi/York/Riverside Park/FD8462.jpg",
    "brand": "York",
    "collection": "Riverside Park",
    "width": 521,
    "height": 521
  },
  {
    "category": "wallpaper",
    "src": "assets/products/oboi/York/Riverside Park/FD8463.jpg",
    "brand": "York",
    "collection": "Riverside Park",
    "width": 521,
    "height": 521
  },







  {
    "category": "wallpaper",
    "src": "assets/products/oboi/York/Riverside Park/FD8469.jpg",
    "brand": "York",
    "collection": "Riverside Park",
    "width": 521,
    "height": 610
  },
  {
    "category": "wallpaper",
    "src": "assets/products/oboi/York/Riverside Park/FD8470.jpg",
    "brand": "York",
    "collection": "Riverside Park",
    "width": 521,
    "height": 610
  },
  {
    "category": "wallpaper",
    "src": "assets/products/oboi/York/Riverside Park/FD8471.jpg",
    "brand": "York",
    "collection": "Riverside Park",
    "width": 521,
    "height": 610
  },
  {
    "category": "wallpaper",
    "src": "assets/products/oboi/York/Riverside Park/FD8472.jpg",
    "brand": "York",
    "collection": "Riverside Park",
    "width": 521,
    "height": 610
  },
  {
    "category": "wallpaper",
    "src": "assets/products/oboi/York/Riverside Park/FD8473.jpg",
    "brand": "York",
    "collection": "Riverside Park",
    "width": 521,
    "height": 610
  },







  {
    "category": "wallpaper",
    "src": "assets/products/oboi/York/Riverside Park/FD8478.jpg",
    "brand": "York",
    "collection": "Riverside Park",
    "width": 521,
    "height": 610
  },
  {
    "category": "wallpaper",
    "src": "assets/products/oboi/York/Riverside Park/FD8479.jpg",
    "brand": "York",
    "collection": "Riverside Park",
    "width": 521,
    "height": 610
  },
  {
    "category": "wallpaper",
    "src": "assets/products/oboi/York/Riverside Park/FD8481.jpg",
    "brand": "York",
    "collection": "Riverside Park",
    "width": 521,
    "height": 610
  },
  {
    "category": "wallpaper",
    "src": "assets/products/oboi/York/Riverside Park/FD8482.jpg",
    "brand": "York",
    "collection": "Riverside Park",
    "width": 521,
    "height": 610
  },







  {
    "category": "wallpaper",
    "src": "assets/products/oboi/York/Riverside Park/FD8487.jpg",
    "brand": "York",
    "collection": "Riverside Park",
    "width": 521,
    "height": 610
  },
  {
    "category": "wallpaper",
    "src": "assets/products/oboi/York/Riverside Park/FD8488.jpg",
    "brand": "York",
    "collection": "Riverside Park",
    "width": 521,
    "height": 610
  },
  {
    "category": "wallpaper",
    "src": "assets/products/oboi/York/Riverside Park/FD8489.jpg",
    "brand": "York",
    "collection": "Riverside Park",
    "width": 521,
    "height": 610
  },
  {
    "category": "wallpaper",
    "src": "assets/products/oboi/York/Riverside Park/FD8490.jpg",
    "brand": "York",
    "collection": "Riverside Park",
    "width": 521,
    "height": 610
  },
  {
    "category": "wallpaper",
    "src": "assets/products/oboi/York/Riverside Park/FD8491.jpg",
    "brand": "York",
    "collection": "Riverside Park",
    "width": 521,
    "height": 610
  },







  {
    "category": "wallpaper",
    "src": "assets/products/oboi/York/Riverside Park/FD8496.jpg",
    "brand": "York",
    "collection": "Riverside Park",
    "width": 521,
    "height": 521
  },
  {
    "category": "wallpaper",
    "src": "assets/products/oboi/York/Riverside Park/FD8497.jpg",
    "brand": "York",
    "collection": "Riverside Park",
    "width": 521,
    "height": 521
  },
  {
    "category": "wallpaper",
    "src": "assets/products/oboi/York/Riverside Park/FD8498.jpg",
    "brand": "York",
    "collection": "Riverside Park",
    "width": 521,
    "height": 521
  },
  {
    "category": "wallpaper",
    "src": "assets/products/oboi/York/Riverside Park/FD8499.jpg",
    "brand": "York",
    "collection": "Riverside Park",
    "width": 521,
    "height": 521
  },
  {
    "category": "wallpaper",
    "src": "assets/products/oboi/York/Riverside Park/FD8500.jpg",
    "brand": "York",
    "collection": "Riverside Park",
    "width": 521,
    "height": 521
  },
  {
    "category": "wallpaper",
    "src": "assets/products/oboi/York/Riverside Park/FD8501.jpg",
    "brand": "York",
    "collection": "Riverside Park",
    "width": 521,
    "height": 521
  },
  {
    "category": "wallpaper",
    "src": "assets/products/oboi/York/Riverside Park/FD8502.jpg",
    "brand": "York",
    "collection": "Riverside Park",
    "width": 521,
    "height": 521
  },







  {
    "category": "wallpaper",
    "src": "assets/products/oboi/York/Riverside Park/FD8506.jpg",
    "brand": "York",
    "collection": "Riverside Park",
    "width": 521,
    "height": 521
  },
  {
    "category": "wallpaper",
    "src": "assets/products/oboi/York/Riverside Park/FD8507.jpg",
    "brand": "York",
    "collection": "Riverside Park",
    "width": 521,
    "height": 521
  },
  {
    "category": "wallpaper",
    "src": "assets/products/oboi/York/Riverside Park/FD8508.jpg",
    "brand": "York",
    "collection": "Riverside Park",
    "width": 521,
    "height": 521
  },
  {
    "category": "wallpaper",
    "src": "assets/products/oboi/York/Riverside Park/FD8509.jpg",
    "brand": "York",
    "collection": "Riverside Park",
    "width": 521,
    "height": 521
  },
  {
    "category": "wallpaper",
    "src": "assets/products/oboi/York/Riverside Park/FD8510.jpg",
    "brand": "York",
    "collection": "Riverside Park",
    "width": 521,
    "height": 521
  },
  {
    "category": "wallpaper",
    "src": "assets/products/oboi/York/Riverside Park/FD8511.jpg",
    "brand": "York",
    "collection": "Riverside Park",
    "width": 521,
    "height": 521
  },







  {
    "category": "wallpaper",
    "src": "assets/products/oboi/York/Riverside Park/FD8514.jpg",
    "brand": "York",
    "collection": "Riverside Park",
    "width": 521,
    "height": 610
  },
  {
    "category": "wallpaper",
    "src": "assets/products/oboi/York/Riverside Park/FD8515.jpg",
    "brand": "York",
    "collection": "Riverside Park",
    "width": 521,
    "height": 610
  },
  {
    "category": "wallpaper",
    "src": "assets/products/oboi/York/Riverside Park/FD8516.jpg",
    "brand": "York",
    "collection": "Riverside Park",
    "width": 521,
    "height": 610
  },
  {
    "category": "wallpaper",
    "src": "assets/products/oboi/York/Riverside Park/FD8517.jpg",
    "brand": "York",
    "collection": "Riverside Park",
    "width": 521,
    "height": 610
  },







  {
    "category": "wallpaper",
    "src": "assets/products/oboi/York/Riverside Park/FD8523.jpg",
    "brand": "York",
    "collection": "Riverside Park",
    "width": 521,
    "height": 521
  },
  {
    "category": "wallpaper",
    "src": "assets/products/oboi/York/Riverside Park/FD8524.jpg",
    "brand": "York",
    "collection": "Riverside Park",
    "width": 521,
    "height": 521
  },
  {
    "category": "wallpaper",
    "src": "assets/products/oboi/York/Riverside Park/FD8525.jpg",
    "brand": "York",
    "collection": "Riverside Park",
    "width": 521,
    "height": 521
  },
  {
    "category": "wallpaper",
    "src": "assets/products/oboi/York/Riverside Park/FD8526.jpg",
    "brand": "York",
    "collection": "Riverside Park",
    "width": 521,
    "height": 521
  },
  {
    "category": "wallpaper",
    "src": "assets/products/oboi/York/Riverside Park/FD8527.jpg",
    "brand": "York",
    "collection": "Riverside Park",
    "width": 521,
    "height": 521
  },
  {
    "category": "wallpaper",
    "src": "assets/products/oboi/York/Riverside Park/FD8528.jpg",
    "brand": "York",
    "collection": "Riverside Park",
    "width": 521,
    "height": 521
  },







  {
    "category": "wallpaper",
    "src": "assets/products/oboi/York/Riverside Park/FD8532.jpg",
    "brand": "York",
    "collection": "Riverside Park",
    "width": 521,
    "height": 521
  },
  {
    "category": "wallpaper",
    "src": "assets/products/oboi/York/Riverside Park/FD8533.jpg",
    "brand": "York",
    "collection": "Riverside Park",
    "width": 521,
    "height": 521
  },
  {
    "category": "wallpaper",
    "src": "assets/products/oboi/York/Riverside Park/FD8534.jpg",
    "brand": "York",
    "collection": "Riverside Park",
    "width": 521,
    "height": 521
  },
  {
    "category": "wallpaper",
    "src": "assets/products/oboi/York/Riverside Park/FD8535.jpg",
    "brand": "York",
    "collection": "Riverside Park",
    "width": 521,
    "height": 521
  },
  {
    "category": "wallpaper",
    "src": "assets/products/oboi/York/Riverside Park/FD8536.jpg",
    "brand": "York",
    "collection": "Riverside Park",
    "width": 521,
    "height": 521
  },
  {
    "category": "wallpaper",
    "src": "assets/products/oboi/York/Riverside Park/FD8537.jpg",
    "brand": "York",
    "collection": "Riverside Park",
    "width": 521,
    "height": 521
  }


]
