
[

  {
    "category": "wallpaper",
    "src": "assets/products/oboi/York/Stockbridge Square/YW1400.jpg",
    "brand": "York",
    "collection": "Stockbridge Square",
    "width": 686,
    "height": 641
  },
  {
    "category": "wallpaper",
    "src": "assets/products/oboi/York/Stockbridge Square/YW1401.jpg",
    "brand": "York",
    "collection": "Stockbridge Square",
    "width": 686,
    "height": 641
  },
  {
    "category": "wallpaper",
    "src": "assets/products/oboi/York/Stockbridge Square/YW1402.jpg",
    "brand": "York",
    "collection": "Stockbridge Square",
    "width": 686,
    "height": 641
  },
  {
    "category": "wallpaper",
    "src": "assets/products/oboi/York/Stockbridge Square/YW1403.jpg",
    "brand": "York",
    "collection": "Stockbridge Square",
    "width": 686,
    "height": 641
  },
  {
    "category": "wallpaper",
    "src": "assets/products/oboi/York/Stockbridge Square/YW1404.jpg",
    "brand": "York",
    "collection": "Stockbridge Square",
    "width": 686,
    "height": 641
  },
  {
    "category": "wallpaper",
    "src": "assets/products/oboi/York/Stockbridge Square/YW1405.jpg",
    "brand": "York",
    "collection": "Stockbridge Square",
    "width": 686,
    "height": 641
  },







  {
    "category": "wallpaper",
    "src": "assets/products/oboi/York/Stockbridge Square/YW1408.jpg",
    "brand": "York",
    "collection": "Stockbridge Square",
    "width": 686,
    "height": 641
  },
  {
    "category": "wallpaper",
    "src": "assets/products/oboi/York/Stockbridge Square/YW1409.jpg",
    "brand": "York",
    "collection": "Stockbridge Square",
    "width": 686,
    "height": 641
  },
  {
    "category": "wallpaper",
    "src": "assets/products/oboi/York/Stockbridge Square/YW1410.jpg",
    "brand": "York",
    "collection": "Stockbridge Square",
    "width": 686,
    "height": 641
  },
  {
    "category": "wallpaper",
    "src": "assets/products/oboi/York/Stockbridge Square/YW1411.jpg",
    "brand": "York",
    "collection": "Stockbridge Square",
    "width": 686,
    "height": 641
  },
  {
    "category": "wallpaper",
    "src": "assets/products/oboi/York/Stockbridge Square/YW1412.jpg",
    "brand": "York",
    "collection": "Stockbridge Square",
    "width": 686,
    "height": 641
  },







  {
    "category": "wallpaper",
    "src": "assets/products/oboi/York/Stockbridge Square/YW1416.jpg",
    "brand": "York",
    "collection": "Stockbridge Square",
    "width": 686,
    "height": 641
  },
  {
    "category": "wallpaper",
    "src": "assets/products/oboi/York/Stockbridge Square/YW1417.jpg",
    "brand": "York",
    "collection": "Stockbridge Square",
    "width": 686,
    "height": 641
  },
  {
    "category": "wallpaper",
    "src": "assets/products/oboi/York/Stockbridge Square/YW1418.jpg",
    "brand": "York",
    "collection": "Stockbridge Square",
    "width": 686,
    "height": 641
  },
  {
    "category": "wallpaper",
    "src": "assets/products/oboi/York/Stockbridge Square/YW1419.jpg",
    "brand": "York",
    "collection": "Stockbridge Square",
    "width": 686,
    "height": 641
  },
  {
    "category": "wallpaper",
    "src": "assets/products/oboi/York/Stockbridge Square/YW1420.jpg",
    "brand": "York",
    "collection": "Stockbridge Square",
    "width": 686,
    "height": 641
  },
  {
    "category": "wallpaper",
    "src": "assets/products/oboi/York/Stockbridge Square/YW1421.jpg",
    "brand": "York",
    "collection": "Stockbridge Square",
    "width": 686,
    "height": 641
  },







  {
    "category": "wallpaper",
    "src": "assets/products/oboi/York/Stockbridge Square/YW1424.jpg",
    "brand": "York",
    "collection": "Stockbridge Square",
    "width": 686,
    "height": 521
  },
  {
    "category": "wallpaper",
    "src": "assets/products/oboi/York/Stockbridge Square/YW1425.jpg",
    "brand": "York",
    "collection": "Stockbridge Square",
    "width": 686,
    "height": 521
  },
  {
    "category": "wallpaper",
    "src": "assets/products/oboi/York/Stockbridge Square/YW1426.jpg",
    "brand": "York",
    "collection": "Stockbridge Square",
    "width": 686,
    "height": 521
  },
  {
    "category": "wallpaper",
    "src": "assets/products/oboi/York/Stockbridge Square/YW1427.jpg",
    "brand": "York",
    "collection": "Stockbridge Square",
    "width": 686,
    "height": 521
  },
  {
    "category": "wallpaper",
    "src": "assets/products/oboi/York/Stockbridge Square/YW1428.jpg",
    "brand": "York",
    "collection": "Stockbridge Square",
    "width": 686,
    "height": 521
  },







  {
    "category": "wallpaper",
    "src": "assets/products/oboi/York/Stockbridge Square/YW1432.jpg",
    "brand": "York",
    "collection": "Stockbridge Square",
    "width": 686,
    "height": 641
  },
  {
    "category": "wallpaper",
    "src": "assets/products/oboi/York/Stockbridge Square/YW1433.jpg",
    "brand": "York",
    "collection": "Stockbridge Square",
    "width": 686,
    "height": 641
  },
  {
    "category": "wallpaper",
    "src": "assets/products/oboi/York/Stockbridge Square/YW1434.jpg",
    "brand": "York",
    "collection": "Stockbridge Square",
    "width": 686,
    "height": 641
  },
  {
    "category": "wallpaper",
    "src": "assets/products/oboi/York/Stockbridge Square/YW1435.jpg",
    "brand": "York",
    "collection": "Stockbridge Square",
    "width": 686,
    "height": 641
  },
  {
    "category": "wallpaper",
    "src": "assets/products/oboi/York/Stockbridge Square/YW1436.jpg",
    "brand": "York",
    "collection": "Stockbridge Square",
    "width": 686,
    "height": 641
  },







  {
    "category": "wallpaper",
    "src": "assets/products/oboi/York/Stockbridge Square/YW1437.jpg",
    "brand": "York",
    "collection": "Stockbridge Square",
    "width": 521,
    "height": 521
  },
  {
    "category": "wallpaper",
    "src": "assets/products/oboi/York/Stockbridge Square/YW1438.jpg",
    "brand": "York",
    "collection": "Stockbridge Square",
    "width": 521,
    "height": 521
  },
  {
    "category": "wallpaper",
    "src": "assets/products/oboi/York/Stockbridge Square/YW1439.jpg",
    "brand": "York",
    "collection": "Stockbridge Square",
    "width": 521,
    "height": 521
  },
  {
    "category": "wallpaper",
    "src": "assets/products/oboi/York/Stockbridge Square/YW1440.jpg",
    "brand": "York",
    "collection": "Stockbridge Square",
    "width": 521,
    "height": 521
  },
  {
    "category": "wallpaper",
    "src": "assets/products/oboi/York/Stockbridge Square/YW1441.jpg",
    "brand": "York",
    "collection": "Stockbridge Square",
    "width": 521,
    "height": 521
  },
  {
    "category": "wallpaper",
    "src": "assets/products/oboi/York/Stockbridge Square/YW1442.jpg",
    "brand": "York",
    "collection": "Stockbridge Square",
    "width": 521,
    "height": 521
  },
  {
    "category": "wallpaper",
    "src": "assets/products/oboi/York/Stockbridge Square/YW1443.jpg",
    "brand": "York",
    "collection": "Stockbridge Square",
    "width": 521,
    "height": 521
  },
  {
    "category": "wallpaper",
    "src": "assets/products/oboi/York/Stockbridge Square/YW1444.jpg",
    "brand": "York",
    "collection": "Stockbridge Square",
    "width": 521,
    "height": 521
  },
  {
    "category": "wallpaper",
    "src": "assets/products/oboi/York/Stockbridge Square/YW1445.jpg",
    "brand": "York",
    "collection": "Stockbridge Square",
    "width": 521,
    "height": 521
  },
  {
    "category": "wallpaper",
    "src": "assets/products/oboi/York/Stockbridge Square/YW1446.jpg",
    "brand": "York",
    "collection": "Stockbridge Square",
    "width": 521,
    "height": 521
  },
  {
    "category": "wallpaper",
    "src": "assets/products/oboi/York/Stockbridge Square/YW1447.jpg",
    "brand": "York",
    "collection": "Stockbridge Square",
    "width": 521,
    "height": 521
  },







  {
    "category": "wallpaper",
    "src": "assets/products/oboi/York/Stockbridge Square/YW1448.jpg",
    "brand": "York",
    "collection": "Stockbridge Square",
    "width": 521,
    "height": 521
  },
  {
    "category": "wallpaper",
    "src": "assets/products/oboi/York/Stockbridge Square/YW1449.jpg",
    "brand": "York",
    "collection": "Stockbridge Square",
    "width": 521,
    "height": 521
  },
  {
    "category": "wallpaper",
    "src": "assets/products/oboi/York/Stockbridge Square/YW1450.jpg",
    "brand": "York",
    "collection": "Stockbridge Square",
    "width": 521,
    "height": 521
  },
  {
    "category": "wallpaper",
    "src": "assets/products/oboi/York/Stockbridge Square/YW1451.jpg",
    "brand": "York",
    "collection": "Stockbridge Square",
    "width": 521,
    "height": 521
  },







  {
    "category": "wallpaper",
    "src": "assets/products/oboi/York/Stockbridge Square/YW1456.jpg",
    "brand": "York",
    "collection": "Stockbridge Square",
    "width": 686,
    "height": 521
  },
  {
    "category": "wallpaper",
    "src": "assets/products/oboi/York/Stockbridge Square/YW1457.jpg",
    "brand": "York",
    "collection": "Stockbridge Square",
    "width": 686,
    "height": 521
  },
  {
    "category": "wallpaper",
    "src": "assets/products/oboi/York/Stockbridge Square/YW1458.jpg",
    "brand": "York",
    "collection": "Stockbridge Square",
    "width": 686,
    "height": 521
  },
  {
    "category": "wallpaper",
    "src": "assets/products/oboi/York/Stockbridge Square/YW1459.jpg",
    "brand": "York",
    "collection": "Stockbridge Square",
    "width": 686,
    "height": 521
  },
  {
    "category": "wallpaper",
    "src": "assets/products/oboi/York/Stockbridge Square/YW1460.jpg",
    "brand": "York",
    "collection": "Stockbridge Square",
    "width": 686,
    "height": 521
  },







  {
    "category": "wallpaper",
    "src": "assets/products/oboi/York/Stockbridge Square/YW1464.jpg",
    "brand": "York",
    "collection": "Stockbridge Square",
    "width": 686,
    "height": 521
  },
  {
    "category": "wallpaper",
    "src": "assets/products/oboi/York/Stockbridge Square/YW1465.jpg",
    "brand": "York",
    "collection": "Stockbridge Square",
    "width": 686,
    "height": 521
  },
  {
    "category": "wallpaper",
    "src": "assets/products/oboi/York/Stockbridge Square/YW1466.jpg",
    "brand": "York",
    "collection": "Stockbridge Square",
    "width": 686,
    "height": 521
  },
  {
    "category": "wallpaper",
    "src": "assets/products/oboi/York/Stockbridge Square/YW1467.jpg",
    "brand": "York",
    "collection": "Stockbridge Square",
    "width": 686,
    "height": 521
  },
  {
    "category": "wallpaper",
    "src": "assets/products/oboi/York/Stockbridge Square/YW1468.jpg",
    "brand": "York",
    "collection": "Stockbridge Square",
    "width": 686,
    "height": 521
  },







  {
    "category": "wallpaper",
    "src": "assets/products/oboi/York/Stockbridge Square/YW1472.jpg",
    "brand": "York",
    "collection": "Stockbridge Square",
    "width": 686,
    "height": 641
  },
  {
    "category": "wallpaper",
    "src": "assets/products/oboi/York/Stockbridge Square/YW1473.jpg",
    "brand": "York",
    "collection": "Stockbridge Square",
    "width": 686,
    "height": 641
  },
  {
    "category": "wallpaper",
    "src": "assets/products/oboi/York/Stockbridge Square/YW1474.jpg",
    "brand": "York",
    "collection": "Stockbridge Square",
    "width": 686,
    "height": 641
  },
  {
    "category": "wallpaper",
    "src": "assets/products/oboi/York/Stockbridge Square/YW1475.jpg",
    "brand": "York",
    "collection": "Stockbridge Square",
    "width": 686,
    "height": 641
  },
  {
    "category": "wallpaper",
    "src": "assets/products/oboi/York/Stockbridge Square/YW1476.jpg",
    "brand": "York",
    "collection": "Stockbridge Square",
    "width": 686,
    "height": 641
  },







  {
    "category": "wallpaper",
    "src": "assets/products/oboi/York/Stockbridge Square/YW1480.jpg",
    "brand": "York",
    "collection": "Stockbridge Square",
    "width": 686,
    "height": 641
  },
  {
    "category": "wallpaper",
    "src": "assets/products/oboi/York/Stockbridge Square/YW1481.jpg",
    "brand": "York",
    "collection": "Stockbridge Square",
    "width": 686,
    "height": 641
  },
  {
    "category": "wallpaper",
    "src": "assets/products/oboi/York/Stockbridge Square/YW1482.jpg",
    "brand": "York",
    "collection": "Stockbridge Square",
    "width": 686,
    "height": 641
  },
  {
    "category": "wallpaper",
    "src": "assets/products/oboi/York/Stockbridge Square/YW1483.jpg",
    "brand": "York",
    "collection": "Stockbridge Square",
    "width": 686,
    "height": 641
  },
  {
    "category": "wallpaper",
    "src": "assets/products/oboi/York/Stockbridge Square/YW1484.jpg",
    "brand": "York",
    "collection": "Stockbridge Square",
    "width": 686,
    "height": 641
  },







  {
    "category": "wallpaper",
    "src": "assets/products/oboi/York/Stockbridge Square/YW1488.jpg",
    "brand": "York",
    "collection": "Stockbridge Square",
    "width": 686,
    "height": 641
  },
  {
    "category": "wallpaper",
    "src": "assets/products/oboi/York/Stockbridge Square/YW1490.jpg",
    "brand": "York",
    "collection": "Stockbridge Square",
    "width": 686,
    "height": 641
  },
  {
    "category": "wallpaper",
    "src": "assets/products/oboi/York/Stockbridge Square/YW1491.jpg",
    "brand": "York",
    "collection": "Stockbridge Square",
    "width": 686,
    "height": 641
  },
  {
    "category": "wallpaper",
    "src": "assets/products/oboi/York/Stockbridge Square/YW1492.jpg",
    "brand": "York",
    "collection": "Stockbridge Square",
    "width": 686,
    "height": 641
  },
  {
    "category": "wallpaper",
    "src": "assets/products/oboi/York/Stockbridge Square/YW1493.jpg",
    "brand": "York",
    "collection": "Stockbridge Square",
    "width": 686,
    "height": 641
  },
  {
    "category": "wallpaper",
    "src": "assets/products/oboi/York/Stockbridge Square/YW1494.jpg",
    "brand": "York",
    "collection": "Stockbridge Square",
    "width": 686,
    "height": 641
  },







  {
    "category": "wallpaper",
    "src": "assets/products/oboi/York/Stockbridge Square/YW1496.jpg",
    "brand": "York",
    "collection": "Stockbridge Square",
    "width": 686,
    "height": 641
  },
  {
    "category": "wallpaper",
    "src": "assets/products/oboi/York/Stockbridge Square/YW1497.jpg",
    "brand": "York",
    "collection": "Stockbridge Square",
    "width": 686,
    "height": 641
  },
  {
    "category": "wallpaper",
    "src": "assets/products/oboi/York/Stockbridge Square/YW1498.jpg",
    "brand": "York",
    "collection": "Stockbridge Square",
    "width": 686,
    "height": 641
  },
  {
    "category": "wallpaper",
    "src": "assets/products/oboi/York/Stockbridge Square/YW1499.jpg",
    "brand": "York",
    "collection": "Stockbridge Square",
    "width": 686,
    "height": 641
  },
  {
    "category": "wallpaper",
    "src": "assets/products/oboi/York/Stockbridge Square/YW1500.jpg",
    "brand": "York",
    "collection": "Stockbridge Square",
    "width": 686,
    "height": 641
  },







  {
    "category": "wallpaper",
    "src": "assets/products/oboi/York/Stockbridge Square/YW1504.jpg",
    "brand": "York",
    "collection": "Stockbridge Square",
    "width": 686,
    "height": 641
  },
  {
    "category": "wallpaper",
    "src": "assets/products/oboi/York/Stockbridge Square/YW1505.jpg",
    "brand": "York",
    "collection": "Stockbridge Square",
    "width": 686,
    "height": 641
  },
  {
    "category": "wallpaper",
    "src": "assets/products/oboi/York/Stockbridge Square/YW1506.jpg",
    "brand": "York",
    "collection": "Stockbridge Square",
    "width": 686,
    "height": 641
  },
  {
    "category": "wallpaper",
    "src": "assets/products/oboi/York/Stockbridge Square/YW1507.jpg",
    "brand": "York",
    "collection": "Stockbridge Square",
    "width": 686,
    "height": 641
  },
  {
    "category": "wallpaper",
    "src": "assets/products/oboi/York/Stockbridge Square/YW1508.jpg",
    "brand": "York",
    "collection": "Stockbridge Square",
    "width": 686,
    "height": 641
  },
  {
    "category": "wallpaper",
    "src": "assets/products/oboi/York/Stockbridge Square/YW1989.jpg",
    "brand": "York",
    "collection": "Stockbridge Square",
    "width": 686,
    "height": 641
  }


]
