[

  {
    "category": "wallpaper",
    "src": "assets/products/oboi/borastapeter/Lilleby/2651.jpg",
    "brand": "Borastapeter",
    "collection": "Lilleby",
    "width": 1060,
    "height": 700
  },
  {
    "category": "wallpaper",
    "src": "assets/products/oboi/borastapeter/Lilleby/2652.jpg",
    "brand": "Borastapeter",
    "collection": "Lilleby",
    "width": 1060,
    "height": 700
  },
  {
    "category": "wallpaper",
    "src": "assets/products/oboi/borastapeter/Lilleby/2653.jpg",
    "brand": "Borastapeter",
    "collection": "Lilleby",
    "width": 1060,
    "height": 700
  }



,
  {
    "category": "wallpaper",
    "src": "assets/products/oboi/borastapeter/Lilleby/2654.jpg",
    "brand": "Borastapeter",
    "collection": "Lilleby",
    "width": 530,
    "height": 530
  },
  {
    "category": "wallpaper",
    "src": "assets/products/oboi/borastapeter/Lilleby/2655.jpg",
    "brand": "Borastapeter",
    "collection": "Lilleby",
    "width": 530,
    "height": 530
  },
  {
    "category": "wallpaper",
    "src": "assets/products/oboi/borastapeter/Lilleby/2656.jpg",
    "brand": "Borastapeter",
    "collection": "Lilleby",
    "width": 530,
    "height": 530
  },
  {
    "category": "wallpaper",
    "src": "assets/products/oboi/borastapeter/Lilleby/2657.jpg",
    "brand": "Borastapeter",
    "collection": "Lilleby",
    "width": 530,
    "height": 530
  },
  {
    "category": "wallpaper",
    "src": "assets/products/oboi/borastapeter/Lilleby/2658.jpg",
    "brand": "Borastapeter",
    "collection": "Lilleby",
    "width": 530,
    "height": 530
  },
  {
    "category": "wallpaper",
    "src": "assets/products/oboi/borastapeter/Lilleby/2659.jpg",
    "brand": "Borastapeter",
    "collection": "Lilleby",
    "width": 530,
    "height": 530
  }



,
  {
    "category": "wallpaper",
    "src": "assets/products/oboi/borastapeter/Lilleby/2660.jpg",
    "brand": "Borastapeter",
    "collection": "Lilleby",
    "width": 1060,
    "height": 530
  },
  {
    "category": "wallpaper",
    "src": "assets/products/oboi/borastapeter/Lilleby/2661.jpg",
    "brand": "Borastapeter",
    "collection": "Lilleby",
    "width": 1060,
    "height": 530
  },
  {
    "category": "wallpaper",
    "src": "assets/products/oboi/borastapeter/Lilleby/2662.jpg",
    "brand": "Borastapeter",
    "collection": "Lilleby",
    "width": 1060,
    "height": 530
  },
  {
    "category": "wallpaper",
    "src": "assets/products/oboi/borastapeter/Lilleby/2663.jpg",
    "brand": "Borastapeter",
    "collection": "Lilleby",
    "width": 1060,
    "height": 530
  },
  {
    "category": "wallpaper",
    "src": "assets/products/oboi/borastapeter/Lilleby/2664.jpg",
    "brand": "Borastapeter",
    "collection": "Lilleby",
    "width": 1060,
    "height": 530
  }



,
  {
    "category": "wallpaper",
    "src": "assets/products/oboi/borastapeter/Lilleby/2665.jpg",
    "brand": "Borastapeter",
    "collection": "Lilleby",
    "width": 530,
    "height": 530
  },
  {
    "category": "wallpaper",
    "src": "assets/products/oboi/borastapeter/Lilleby/2666.jpg",
    "brand": "Borastapeter",
    "collection": "Lilleby",
    "width": 530,
    "height": 530
  },
  {
    "category": "wallpaper",
    "src": "assets/products/oboi/borastapeter/Lilleby/2667.jpg",
    "brand": "Borastapeter",
    "collection": "Lilleby",
    "width": 530,
    "height": 530
  },
  {
    "category": "wallpaper",
    "src": "assets/products/oboi/borastapeter/Lilleby/2668.jpg",
    "brand": "Borastapeter",
    "collection": "Lilleby",
    "width": 530,
    "height": 530
  }



,
  {
    "category": "wallpaper",
    "src": "assets/products/oboi/borastapeter/Lilleby/2669.jpg",
    "brand": "Borastapeter",
    "collection": "Lilleby",
    "width": 1060,
    "height": 530
  },
  {
    "category": "wallpaper",
    "src": "assets/products/oboi/borastapeter/Lilleby/2670.jpg",
    "brand": "Borastapeter",
    "collection": "Lilleby",
    "width": 1060,
    "height": 530
  },
  {
    "category": "wallpaper",
    "src": "assets/products/oboi/borastapeter/Lilleby/2671.jpg",
    "brand": "Borastapeter",
    "collection": "Lilleby",
    "width": 1060,
    "height": 530
  }



,
  {
    "category": "wallpaper",
    "src": "assets/products/oboi/borastapeter/Lilleby/2672.jpg",
    "brand": "Borastapeter",
    "collection": "Lilleby",
    "width": 1060,
    "height": 700
  },
  {
    "category": "wallpaper",
    "src": "assets/products/oboi/borastapeter/Lilleby/2673.jpg",
    "brand": "Borastapeter",
    "collection": "Lilleby",
    "width": 1060,
    "height": 700
  }



,
  {
    "category": "wallpaper",
    "src": "assets/products/oboi/borastapeter/Lilleby/2674.jpg",
    "brand": "Borastapeter",
    "collection": "Lilleby",
    "width": 1060,
    "height": 530
  },
  {
    "category": "wallpaper",
    "src": "assets/products/oboi/borastapeter/Lilleby/2675.jpg",
    "brand": "Borastapeter",
    "collection": "Lilleby",
    "width": 1060,
    "height": 530
  },
  {
    "category": "wallpaper",
    "src": "assets/products/oboi/borastapeter/Lilleby/2676.jpg",
    "brand": "Borastapeter",
    "collection": "Lilleby",
    "width": 1060,
    "height": 530
  },
  {
    "category": "wallpaper",
    "src": "assets/products/oboi/borastapeter/Lilleby/2677.jpg",
    "brand": "Borastapeter",
    "collection": "Lilleby",
    "width": 1060,
    "height": 530
  },
  {
    "category": "wallpaper",
    "src": "assets/products/oboi/borastapeter/Lilleby/2678.jpg",
    "brand": "Borastapeter",
    "collection": "Lilleby",
    "width": 1060,
    "height": 530
  },
  {
    "category": "wallpaper",
    "src": "assets/products/oboi/borastapeter/Lilleby/2679.jpg",
    "brand": "Borastapeter",
    "collection": "Lilleby",
    "width": 1060,
    "height": 530
  },
  {
    "category": "wallpaper",
    "src": "assets/products/oboi/borastapeter/Lilleby/2680.jpg",
    "brand": "Borastapeter",
    "collection": "Lilleby",
    "width": 1060,
    "height": 530
  },
  {
    "category": "wallpaper",
    "src": "assets/products/oboi/borastapeter/Lilleby/2681.jpg",
    "brand": "Borastapeter",
    "collection": "Lilleby",
    "width": 1060,
    "height": 530
  }



,
  {
    "category": "wallpaper",
    "src": "assets/products/oboi/borastapeter/Lilleby/2682.jpg",
    "brand": "Borastapeter",
    "collection": "Lilleby",
    "width": 530,
    "height": 530
  },
  {
    "category": "wallpaper",
    "src": "assets/products/oboi/borastapeter/Lilleby/2683.jpg",
    "brand": "Borastapeter",
    "collection": "Lilleby",
    "width": 530,
    "height": 530
  },
  {
    "category": "wallpaper",
    "src": "assets/products/oboi/borastapeter/Lilleby/2684.jpg",
    "brand": "Borastapeter",
    "collection": "Lilleby",
    "width": 530,
    "height": 530
  },
  {
    "category": "wallpaper",
    "src": "assets/products/oboi/borastapeter/Lilleby/2685.jpg",
    "brand": "Borastapeter",
    "collection": "Lilleby",
    "width": 530,
    "height": 530
  },
  {
    "category": "wallpaper",
    "src": "assets/products/oboi/borastapeter/Lilleby/2686.jpg",
    "brand": "Borastapeter",
    "collection": "Lilleby",
    "width": 530,
    "height": 530
  },
  {
    "category": "wallpaper",
    "src": "assets/products/oboi/borastapeter/Lilleby/2687.jpg",
    "brand": "Borastapeter",
    "collection": "Lilleby",
    "width": 530,
    "height": 530
  },
  {
    "category": "wallpaper",
    "src": "assets/products/oboi/borastapeter/Lilleby/2688.jpg",
    "brand": "Borastapeter",
    "collection": "Lilleby",
    "width": 530,
    "height": 530
  },
  {
    "category": "wallpaper",
    "src": "assets/products/oboi/borastapeter/Lilleby/2689.jpg",
    "brand": "Borastapeter",
    "collection": "Lilleby",
    "width": 530,
    "height": 530
  },
  {
    "category": "wallpaper",
    "src": "assets/products/oboi/borastapeter/Lilleby/2690.jpg",
    "brand": "Borastapeter",
    "collection": "Lilleby",
    "width": 530,
    "height": 530
  }



,
  {
    "category": "wallpaper",
    "src": "assets/products/oboi/borastapeter/Lilleby/2691.jpg",
    "brand": "Borastapeter",
    "collection": "Lilleby",
    "width": 900,
    "height": 2650
  },
  {
    "category": "wallpaper",
    "src": "assets/products/oboi/borastapeter/Lilleby/2692.jpg",
    "brand": "Borastapeter",
    "collection": "Lilleby",
    "width": 900,
    "height": 2650
  },
  {
    "category": "wallpaper",
    "src": "assets/products/oboi/borastapeter/Lilleby/2693.jpg",
    "brand": "Borastapeter",
    "collection": "Lilleby",
    "width": 900,
    "height": 2650
  }



,
  {
    "category": "wallpaper",
    "src": "assets/products/oboi/borastapeter/Lilleby/2694.jpg",
    "brand": "Borastapeter",
    "collection": "Lilleby",
    "width": 3600,
    "height": 2650
  }



,
  {
    "category": "wallpaper",
    "src": "assets/products/oboi/borastapeter/Lilleby/2695.jpg",
    "brand": "Borastapeter",
    "collection": "Lilleby",
    "width": 900,
    "height": 2650
  },
  {
    "category": "wallpaper",
    "src": "assets/products/oboi/borastapeter/Lilleby/2696.jpg",
    "brand": "Borastapeter",
    "collection": "Lilleby",
    "width": 900,
    "height": 2650
  }



]
