[

  {
    "category": "wallpaper",
    "src": "assets/products/oboi/borastapeter/Marstrand/2950.jpg",
    "brand": "Borastapeter",
    "collection": "Marstrand",
    "width": 530,
    "height": 530
  },
  {
    "category": "wallpaper",
    "src": "assets/products/oboi/borastapeter/Marstrand/2961.jpg",
    "brand": "Borastapeter",
    "collection": "Marstrand",
    "width": 530,
    "height": 530
  }



]
