[

  {
    "category": "wallpaper",
    "src": "assets/products/oboi/borastapeter/Mineral/4201.jpg",
    "brand": "Borastapeter",
    "collection": "Mineral",
    "width": 530,
    "height": 530
  },
  {
    "category": "wallpaper",
    "src": "assets/products/oboi/borastapeter/Mineral/4202.jpg",
    "brand": "Borastapeter",
    "collection": "Mineral",
    "width": 530,
    "height": 530
  },
  {
    "category": "wallpaper",
    "src": "assets/products/oboi/borastapeter/Mineral/4203.jpg",
    "brand": "Borastapeter",
    "collection": "Mineral",
    "width": 530,
    "height": 530
  },
  {
    "category": "wallpaper",
    "src": "assets/products/oboi/borastapeter/Mineral/4204.jpg",
    "brand": "Borastapeter",
    "collection": "Mineral",
    "width": 530,
    "height": 530
  },
  {
    "category": "wallpaper",
    "src": "assets/products/oboi/borastapeter/Mineral/4205.jpg",
    "brand": "Borastapeter",
    "collection": "Mineral",
    "width": 530,
    "height": 530
  },
  {
    "category": "wallpaper",
    "src": "assets/products/oboi/borastapeter/Mineral/4206.jpg",
    "brand": "Borastapeter",
    "collection": "Mineral",
    "width": 530,
    "height": 530
  },
  {
    "category": "wallpaper",
    "src": "assets/products/oboi/borastapeter/Mineral/4207.jpg",
    "brand": "Borastapeter",
    "collection": "Mineral",
    "width": 530,
    "height": 530
  },
  {
    "category": "wallpaper",
    "src": "assets/products/oboi/borastapeter/Mineral/4208.jpg",
    "brand": "Borastapeter",
    "collection": "Mineral",
    "width": 530,
    "height": 530
  },
  {
    "category": "wallpaper",
    "src": "assets/products/oboi/borastapeter/Mineral/4209.jpg",
    "brand": "Borastapeter",
    "collection": "Mineral",
    "width": 530,
    "height": 530
  },
  {
    "category": "wallpaper",
    "src": "assets/products/oboi/borastapeter/Mineral/4210.jpg",
    "brand": "Borastapeter",
    "collection": "Mineral",
    "width": 530,
    "height": 530
  },
  {
    "category": "wallpaper",
    "src": "assets/products/oboi/borastapeter/Mineral/4211.jpg",
    "brand": "Borastapeter",
    "collection": "Mineral",
    "width": 530,
    "height": 530
  },
  {
    "category": "wallpaper",
    "src": "assets/products/oboi/borastapeter/Mineral/4212.jpg",
    "brand": "Borastapeter",
    "collection": "Mineral",
    "width": 530,
    "height": 530
  },
  {
    "category": "wallpaper",
    "src": "assets/products/oboi/borastapeter/Mineral/4213.jpg",
    "brand": "Borastapeter",
    "collection": "Mineral",
    "width": 530,
    "height": 530
  },
  {
    "category": "wallpaper",
    "src": "assets/products/oboi/borastapeter/Mineral/4214.jpg",
    "brand": "Borastapeter",
    "collection": "Mineral",
    "width": 530,
    "height": 530
  },
  {
    "category": "wallpaper",
    "src": "assets/products/oboi/borastapeter/Mineral/4215.jpg",
    "brand": "Borastapeter",
    "collection": "Mineral",
    "width": 530,
    "height": 530
  },
  {
    "category": "wallpaper",
    "src": "assets/products/oboi/borastapeter/Mineral/4216.jpg",
    "brand": "Borastapeter",
    "collection": "Mineral",
    "width": 530,
    "height": 530
  },
  {
    "category": "wallpaper",
    "src": "assets/products/oboi/borastapeter/Mineral/4217.jpg",
    "brand": "Borastapeter",
    "collection": "Mineral",
    "width": 530,
    "height": 530
  },
  {
    "category": "wallpaper",
    "src": "assets/products/oboi/borastapeter/Mineral/4218.jpg",
    "brand": "Borastapeter",
    "collection": "Mineral",
    "width": 530,
    "height": 530
  },
  {
    "category": "wallpaper",
    "src": "assets/products/oboi/borastapeter/Mineral/4219.jpg",
    "brand": "Borastapeter",
    "collection": "Mineral",
    "width": 530,
    "height": 530
  },
  {
    "category": "wallpaper",
    "src": "assets/products/oboi/borastapeter/Mineral/4220.jpg",
    "brand": "Borastapeter",
    "collection": "Mineral",
    "width": 530,
    "height": 530
  },
  {
    "category": "wallpaper",
    "src": "assets/products/oboi/borastapeter/Mineral/4221.jpg",
    "brand": "Borastapeter",
    "collection": "Mineral",
    "width": 530,
    "height": 530
  },
  {
    "category": "wallpaper",
    "src": "assets/products/oboi/borastapeter/Mineral/4222.jpg",
    "brand": "Borastapeter",
    "collection": "Mineral",
    "width": 530,
    "height": 530
  },
  {
    "category": "wallpaper",
    "src": "assets/products/oboi/borastapeter/Mineral/4223.jpg",
    "brand": "Borastapeter",
    "collection": "Mineral",
    "width": 530,
    "height": 530
  },
  {
    "category": "wallpaper",
    "src": "assets/products/oboi/borastapeter/Mineral/4224.jpg",
    "brand": "Borastapeter",
    "collection": "Mineral",
    "width": 530,
    "height": 530
  },
  {
    "category": "wallpaper",
    "src": "assets/products/oboi/borastapeter/Mineral/4225.jpg",
    "brand": "Borastapeter",
    "collection": "Mineral",
    "width": 530,
    "height": 530
  },
  {
    "category": "wallpaper",
    "src": "assets/products/oboi/borastapeter/Mineral/4226.jpg",
    "brand": "Borastapeter",
    "collection": "Mineral",
    "width": 530,
    "height": 530
  },
  {
    "category": "wallpaper",
    "src": "assets/products/oboi/borastapeter/Mineral/4227.jpg",
    "brand": "Borastapeter",
    "collection": "Mineral",
    "width": 530,
    "height": 530
  },
  {
    "category": "wallpaper",
    "src": "assets/products/oboi/borastapeter/Mineral/4228.jpg",
    "brand": "Borastapeter",
    "collection": "Mineral",
    "width": 530,
    "height": 530
  },
  {
    "category": "wallpaper",
    "src": "assets/products/oboi/borastapeter/Mineral/4229.jpg",
    "brand": "Borastapeter",
    "collection": "Mineral",
    "width": 530,
    "height": 530
  },
  {
    "category": "wallpaper",
    "src": "assets/products/oboi/borastapeter/Mineral/4230.jpg",
    "brand": "Borastapeter",
    "collection": "Mineral",
    "width": 530,
    "height": 530
  }



]
