# 3ds Max Wavefront OBJ Exporter v0.97b - (c)2007 guruware
# File Created: 30.01.2016 12:34:18

mtllib _SHADOW.mtl

#
# object _SHADOW_001
#

v  -755.000061 -0.000061 2125.000000
v  -755.000061 -0.000061 -0.000000
v  -1620.000000 -0.000061 -0.000000
v  -1620.000000 -0.000061 2125.000000
v  -1620.000000 2400.000000 0.000000
v  1620.000000 2400.000000 0.000000
v  1620.000000 2400.000000 2125.000000
v  -1620.000000 2400.000000 2125.000000
v  -1620.000000 2000.000000 2125.000000
v  -755.000000 2000.000000 2125.000000
v  -755.000000 -0.000000 2125.000000
v  -1620.000000 -0.000000 2125.000000
v  1620.000000 -0.000000 0.000000
v  1620.000000 -0.000000 2125.000000
v  1620.000000 699.999268 -2125.000000
v  1060.000000 699.999268 -2125.000000
v  1060.000000 0.000000 -2125.000000
v  1620.000000 0.000000 -2125.000000
v  -1620.000000 2400.000000 -2125.000000
v  -1620.000000 -0.000000 0.000000
v  -1620.000000 0.000000 -2125.000000
v  1620.000000 2199.996582 -2125.000000
v  1060.000000 2199.996582 -2125.000000
v  -755.000000 2400.000000 2125.000000
v  1620.000000 2400.000000 -2125.000000
v  1060.000000 2400.000000 -2125.000000
v  1620.000000 2000.000000 2125.000000
v  745.000000 -0.000000 2125.000000
v  745.000000 2000.000000 2125.000000
v  -1070.000000 699.999268 -2125.000000
v  -1070.000000 0.000000 -2125.000000
v  745.000000 2400.000000 2125.000000
v  -1070.000000 2400.000000 -2125.000000
v  -1070.000000 2199.996582 -2125.000000
v  -1620.000000 699.999268 -2125.000000
v  -1620.000000 2199.996582 -2125.000000
v  1060.000000 699.999268 -2325.000000
v  -1070.000000 699.999268 -2325.000000
v  1060.000000 2199.996582 -2325.000000
v  -1070.000000 2199.996582 -2325.000000
v  1620.000000 -0.000061 -2125.000000
v  744.999939 -0.000061 -2125.000000
v  744.999939 -0.000061 -0.000000
v  1620.000000 -0.000061 -0.000000
v  745.000000 -0.000000 2225.000000
v  745.000000 2000.000000 2225.000000
v  -755.000000 2000.000000 2225.000000
v  -755.000000 -0.000000 2225.000000
v  744.999878 -0.000061 2125.000000
v  -1620.000000 -0.000061 -2125.000000
v  -755.000061 -0.000061 -2125.000000
v  1620.000000 -0.000061 2125.000000
v  -755.000061 -0.000061 2225.000000
v  744.999878 -0.000061 2225.000000
# 54 vertices

vn 0.000000 1.000000 0.000000
vn -0.000000 -1.000000 -0.000000
vn 0.000000 0.000000 -1.000000
vn -1.000000 0.000000 -0.000000
vn 0.000000 -0.000000 1.000000
vn 1.000000 -0.000000 -0.000000
# 6 vertex normals

vt 0.096119 0.019956 0.000000
vt 0.096119 0.231519 0.000000
vt 0.010000 0.231519 0.000000
vt 0.010000 0.019956 0.000000
vt 0.010000 0.662723 0.000000
vt 0.332572 0.662723 0.000000
vt 0.332572 0.874287 0.000000
vt 0.010000 0.874287 0.000000
vt 0.663221 0.703157 0.000000
vt 0.577102 0.703157 0.000000
vt 0.577102 0.504039 0.000000
vt 0.663221 0.504039 0.000000
vt 0.763776 0.495961 0.000000
vt 0.552212 0.495961 0.000000
vt 0.552212 0.257019 0.000000
vt 0.763776 0.257019 0.000000
vt 0.663221 0.820749 0.000000
vt 0.607468 0.820749 0.000000
vt 0.607468 0.751058 0.000000
vt 0.663221 0.751058 0.000000
vt 0.763776 0.248942 0.000000
vt 0.552212 0.248942 0.000000
vt 0.552212 0.010000 0.000000
vt 0.763776 0.010000 0.000000
vt 0.663221 0.970088 0.000000
vt 0.607468 0.970088 0.000000
vt 0.663221 0.742981 0.000000
vt 0.577102 0.742981 0.000000
vt 0.663221 0.990000 0.000000
vt 0.607468 0.990000 0.000000
vt 0.340649 0.703157 0.000000
vt 0.340649 0.504039 0.000000
vt 0.427763 0.504039 0.000000
vt 0.427763 0.703157 0.000000
vt 0.395407 0.820749 0.000000
vt 0.395407 0.751058 0.000000
vt 0.340649 0.742981 0.000000
vt 0.427763 0.742981 0.000000
vt 0.395407 0.990000 0.000000
vt 0.395407 0.970088 0.000000
vt 0.340649 0.820749 0.000000
vt 0.340649 0.751058 0.000000
vt 0.340649 0.970088 0.000000
vt 0.340649 0.990000 0.000000
vt 0.771853 0.010000 0.000000
vt 0.983914 0.010000 0.000000
vt 0.983914 0.029912 0.000000
vt 0.771853 0.029912 0.000000
vt 0.691210 0.504039 0.000000
vt 0.691210 0.653377 0.000000
vt 0.671298 0.653377 0.000000
vt 0.671298 0.504039 0.000000
vt 0.222061 0.902276 0.000000
vt 0.010000 0.902276 0.000000
vt 0.010000 0.882364 0.000000
vt 0.222061 0.882364 0.000000
vt 0.771853 0.406358 0.000000
vt 0.771853 0.257019 0.000000
vt 0.791765 0.257019 0.000000
vt 0.791765 0.406358 0.000000
vt 0.340649 0.495961 0.000000
vt 0.340649 0.257019 0.000000
vt 0.340649 0.248942 0.000000
vt 0.340649 0.010000 0.000000
vt 0.332572 0.443083 0.000000
vt 0.245458 0.443083 0.000000
vt 0.245458 0.231519 0.000000
vt 0.332572 0.231519 0.000000
vt 0.010000 0.451160 0.000000
vt 0.332572 0.451160 0.000000
vt 0.671298 0.950176 0.000000
vt 0.671298 0.751058 0.000000
vt 0.681254 0.751058 0.000000
vt 0.681254 0.950176 0.000000
vt 0.781809 0.037989 0.000000
vt 0.781809 0.237107 0.000000
vt 0.771853 0.237107 0.000000
vt 0.771853 0.037989 0.000000
vt 0.010000 0.910353 0.000000
vt 0.159339 0.910353 0.000000
vt 0.159339 0.920309 0.000000
vt 0.010000 0.920309 0.000000
vt 0.245458 0.019956 0.000000
vt 0.010000 0.443083 0.000000
vt 0.096119 0.443083 0.000000
vt 0.332572 0.019956 0.000000
vt 0.096119 0.010000 0.000000
vt 0.245458 0.010000 0.000000
# 88 texture coords

g _SHADOW_001
usemtl Material__12
s 2
f 1/1/1 2/2/1 3/3/1 
f 3/3/1 4/4/1 1/1/1 
s 4
f 5/5/2 6/6/2 7/7/2 
f 7/7/2 8/8/2 5/5/2 
s 8
f 9/9/3 10/10/3 11/11/3 
f 11/11/3 12/12/3 9/9/3 
s 16
f 7/13/4 6/14/4 13/15/4 
f 13/15/4 14/16/4 7/13/4 
s 32
f 15/17/5 16/18/5 17/19/5 
f 17/19/5 18/20/5 15/17/5 
s 64
f 19/21/6 5/22/6 20/23/6 
f 20/23/6 21/24/6 19/21/6 
s 32
f 22/25/5 23/26/5 16/18/5 
f 16/18/5 15/17/5 22/25/5 
s 8
f 8/27/3 24/28/3 10/10/3 
f 10/10/3 9/9/3 8/27/3 
s 32
f 25/29/5 26/30/5 23/26/5 
f 23/26/5 22/25/5 25/29/5 
s 8
f 27/31/3 14/32/3 28/33/3 
f 28/33/3 29/34/3 27/31/3 
s 32
f 30/35/5 31/36/5 17/19/5 
f 17/19/5 16/18/5 30/35/5 
s 8
f 7/37/3 27/31/3 29/34/3 
f 29/34/3 32/38/3 7/37/3 
s 32
f 33/39/5 34/40/5 23/26/5 
f 23/26/5 26/30/5 33/39/5 
s 8
f 32/38/3 29/34/3 10/10/3 
f 10/10/3 24/28/3 32/38/3 
s 32
f 35/41/5 21/42/5 31/36/5 
f 31/36/5 30/35/5 35/41/5 
f 36/43/5 35/41/5 30/35/5 
f 30/35/5 34/40/5 36/43/5 
f 19/44/5 36/43/5 34/40/5 
f 34/40/5 33/39/5 19/44/5 
s off
f 30/45/1 16/46/1 37/47/1 
f 37/47/1 38/48/1 30/45/1 
f 16/49/4 23/50/4 39/51/4 
f 39/51/4 37/52/4 16/49/4 
f 23/53/2 34/54/2 40/55/2 
f 40/55/2 39/56/2 23/53/2 
f 34/57/6 30/58/6 38/59/6 
f 38/59/6 40/60/6 34/57/6 
s 16
f 25/61/4 18/62/4 13/15/4 
f 13/15/4 6/14/4 25/61/4 
s 64
f 8/63/6 12/64/6 20/23/6 
f 20/23/6 5/22/6 8/63/6 
s 2
f 41/65/1 42/66/1 43/67/1 
f 43/67/1 44/68/1 41/65/1 
s 4
f 19/69/2 25/70/2 6/6/2 
f 6/6/2 5/5/2 19/69/2 
s off
f 29/71/4 28/72/4 45/73/4 
f 45/73/4 46/74/4 29/71/4 
f 11/75/6 10/76/6 47/77/6 
f 47/77/6 48/78/6 11/75/6 
f 10/79/2 29/80/2 46/81/2 
f 46/81/2 47/82/2 10/79/2 
s 2
f 49/83/1 43/67/1 2/2/1 
f 2/2/1 1/1/1 49/83/1 
f 50/84/1 3/3/1 2/2/1 
f 2/2/1 51/85/1 50/84/1 
f 51/85/1 2/2/1 43/67/1 
f 43/67/1 42/66/1 51/85/1 
f 52/86/1 44/68/1 43/67/1 
f 43/67/1 49/83/1 52/86/1 
s off
f 49/83/1 1/1/1 53/87/1 
f 53/87/1 54/88/1 49/83/1 
# 66 faces

