# 3ds Max Wavefront OBJ Exporter v0.97b - (c)2007 guruware
# File Created: 30.01.2016 12:42:05

mtllib _TOP.mtl

#
# object _TOP_
#

v  -1625.000000 2405.000000 0.000000
v  1625.000000 2405.000000 0.000000
v  1625.000000 2405.000000 2130.000000
v  -1625.000000 2405.000000 2130.000000
v  -1625.000000 2405.000000 -2130.000000
v  1625.000000 2405.000000 -2130.000000
# 6 vertices

vn -0.000000 -1.000000 -0.000000
# 1 vertex normals

vt 3.251626 1.868178 0.999500
vt 0.001626 1.868178 0.999500
vt 0.001626 -0.261822 0.999500
vt 3.251626 -0.261822 0.999500
vt 3.251625 3.998178 0.999500
vt 0.001625 3.998178 0.999500
# 6 texture coords

g _TOP_
usemtl wire_166229229
s 4
f 1/1/1 2/2/1 3/3/1 
f 3/3/1 4/4/1 1/1/1 
f 5/5/1 6/6/1 2/2/1 
f 2/2/1 1/1/1 5/5/1 
# 4 faces

