# 3ds Max Wavefront OBJ Exporter v0.97b - (c)2007 guruware
# File Created: 19.04.2016 17:49:14

newmtl Material__64
	Ns 10.000000
	Ni 1.500000
	d 1.000000
	Tr 0.000000
	Tf 1.000000 1.000000 1.000000 
	illum 2
	Ka 0.588000 0.588000 0.588000
	Kd 0.588000 0.588000 0.588000
	Ks 0.180000 0.180000 0.180000
	Ke 0.000000 0.000000 0.000000
	map_Ka HUSK_Cush01CompleteMap.jpg
	map_Kd HUSK_Cush01CompleteMap.jpg

newmtl Material__65
	Ns 10.000000
	Ni 1.500000
	d 1.000000
	Tr 0.000000
	Tf 1.000000 1.000000 1.000000 
	illum 2
	Ka 0.588000 0.588000 0.588000
	Kd 0.588000 0.588000 0.588000
	Ks 0.180000 0.180000 0.180000
	Ke 0.000000 0.000000 0.000000
	map_Ka HUSK_Cush02CompleteMap.jpg
	map_Kd HUSK_Cush02CompleteMap.jpg

newmtl Material__72
	Ns 19.999998
	Ni 1.500000
	d 1.000000
	Tr 0.000000
	Tf 1.000000 1.000000 1.000000 
	illum 2
	Ka 0.588000 0.588000 0.588000
	Kd 0.588000 0.588000 0.588000
	Ks 0.360000 0.360000 0.360000
	Ke 0.000000 0.000000 0.000000
	map_Ka MEXIQUE_LegsCompleteMap.jpg
	map_Kd MEXIQUE_LegsCompleteMap.jpg

newmtl Material__74
	Ns 10.000000
	Ni 1.500000
	d 1.000000
	Tr 0.000000
	Tf 1.000000 1.000000 1.000000 
	illum 2
	Ka 0.588000 0.588000 0.588000
	Kd 0.588000 0.588000 0.588000
	Ks 0.720000 0.720000 0.720000
	Ke 0.000000 0.000000 0.000000
	map_Ka TVCompleteMap.jpg
	map_Kd TVCompleteMap.jpg

newmtl 563u6e6e5
	Ns 10.000000
	Ni 1.500000
	d 1.000000
	Tr 0.000000
	Tf 1.000000 1.000000 1.000000 
	illum 2
	Ka 0.000000 0.000000 0.000000
	Kd 0.000000 0.000000 0.000000
	Ks 0.720000 0.720000 0.720000
	Ke 0.000000 0.000000 0.000000

newmtl Material__68
	Ns 10.000000
	Ni 1.500000
	d 1.000000
	Tr 0.000000
	Tf 1.000000 1.000000 1.000000 
	illum 2
	Ka 0.588000 0.588000 0.588000
	Kd 0.588000 0.588000 0.588000
	Ks 0.180000 0.180000 0.180000
	Ke 0.000000 0.000000 0.000000
	map_Ka LUCCIOLA_WhiteCompleteMap.jpg
	map_Kd LUCCIOLA_WhiteCompleteMap.jpg

newmtl Material__67
	Ns 0.000000
	Ni 1.500000
	d 1.000000
	Tr 0.000000
	Tf 1.000000 1.000000 1.000000 
	illum 2
	Ka 0.588000 0.588000 0.588000
	Kd 0.588000 0.588000 0.588000
	Ks 0.720000 0.720000 0.720000
	Ke 0.000000 0.000000 0.000000
	map_Ka LUCCIOLA_MetalCompleteMap.jpg
	map_Kd LUCCIOLA_MetalCompleteMap.jpg

newmtl Material__54
	Ns 19.999998
	Ni 1.500000
	d 1.000000
	Tr 0.000000
	Tf 1.000000 1.000000 1.000000 
	illum 2
	Ka 0.588000 0.588000 0.588000
	Kd 0.588000 0.588000 0.588000
	Ks 0.720000 0.720000 0.720000
	Ke 0.000000 0.000000 0.000000
	map_Ka AXEL_MetalCompleteMap.jpg
	map_Kd AXEL_MetalCompleteMap.jpg

newmtl Material__53
	Ns 10.000000
	Ni 1.500000
	d 1.000000
	Tr 0.000000
	Tf 1.000000 1.000000 1.000000 
	illum 2
	Ka 0.588000 0.588000 0.588000
	Kd 0.588000 0.588000 0.588000
	Ks 0.180000 0.180000 0.180000
	Ke 0.000000 0.000000 0.000000
	map_Ka AXEL_MainCompleteMap.jpg
	map_Kd AXEL_MainCompleteMap.jpg

newmtl Material__55
	Ns 10.000000
	Ni 1.500000
	d 1.000000
	Tr 0.000000
	Tf 1.000000 1.000000 1.000000 
	illum 2
	Ka 0.588000 0.588000 0.588000
	Kd 0.588000 0.588000 0.588000
	Ks 0.270000 0.270000 0.270000
	Ke 0.000000 0.000000 0.000000
	map_Ka AXEL_WhiteCompleteMap.jpg
	map_Kd AXEL_WhiteCompleteMap.jpg

newmtl Material__70
	Ns 19.999998
	Ni 1.500000
	d 1.000000
	Tr 0.000000
	Tf 1.000000 1.000000 1.000000 
	illum 2
	Ka 0.588000 0.588000 0.588000
	Kd 0.588000 0.588000 0.588000
	Ks 0.360000 0.360000 0.360000
	Ke 0.000000 0.000000 0.000000
	map_Ka MADCHAIR_LegsCompleteMap.jpg
	map_Kd MADCHAIR_LegsCompleteMap.jpg

newmtl Material__69
	Ns 10.000000
	Ni 1.500000
	d 1.000000
	Tr 0.000000
	Tf 1.000000 1.000000 1.000000 
	illum 2
	Ka 0.588000 0.588000 0.588000
	Kd 0.588000 0.588000 0.588000
	Ks 0.180000 0.180000 0.180000
	Ke 0.000000 0.000000 0.000000
	map_Ka MADCHAIR_CushCompleteMap.jpg
	map_Kd MADCHAIR_CushCompleteMap.jpg

newmtl Material__58
	Ns 10.000000
	Ni 1.500000
	d 1.000000
	Tr 0.000000
	Tf 1.000000 1.000000 1.000000 
	illum 2
	Ka 0.588000 0.588000 0.588000
	Kd 0.588000 0.588000 0.588000
	Ks 0.360000 0.360000 0.360000
	Ke 0.000000 0.000000 0.000000
	map_Ka CALA_WhiteCompleteMap.jpg
	map_Kd CALA_WhiteCompleteMap.jpg

newmtl Material__59
	Ns 10.000000
	Ni 1.500000
	d 1.000000
	Tr 0.000000
	Tf 1.000000 1.000000 1.000000 
	illum 2
	Ka 0.588000 0.588000 0.588000
	Kd 0.588000 0.588000 0.588000
	Ks 0.180000 0.180000 0.180000
	Ke 0.000000 0.000000 0.000000
	map_Ka CALA_WoodCompleteMap.jpg
	map_Kd CALA_WoodCompleteMap.jpg

newmtl Material__57
	Ns 19.999998
	Ni 1.500000
	d 1.000000
	Tr 0.000000
	Tf 1.000000 1.000000 1.000000 
	illum 2
	Ka 0.588000 0.588000 0.588000
	Kd 0.588000 0.588000 0.588000
	Ks 0.720000 0.720000 0.720000
	Ke 0.000000 0.000000 0.000000
	map_Ka CALA_MetalCompleteMap.jpg
	map_Kd CALA_MetalCompleteMap.jpg

newmtl Material__56
	Ns 10.000000
	Ni 1.500000
	d 1.000000
	Tr 0.000000
	Tf 1.000000 1.000000 1.000000 
	illum 2
	Ka 0.588000 0.588000 0.588000
	Kd 0.588000 0.588000 0.588000
	Ks 0.180000 0.180000 0.180000
	Ke 0.000000 0.000000 0.000000
	map_Ka CALA_MAINCompleteMap.jpg
	map_Kd CALA_MAINCompleteMap.jpg

newmtl Material__61
	Ns 10.000000
	Ni 1.500000
	d 1.000000
	Tr 0.000000
	Tf 1.000000 1.000000 1.000000 
	illum 2
	Ka 0.588000 0.588000 0.588000
	Kd 0.588000 0.588000 0.588000
	Ks 0.270000 0.270000 0.270000
	Ke 0.000000 0.000000 0.000000
	map_Ka CANDYSHELF_LightCompleteMap.jpg
	map_Kd CANDYSHELF_LightCompleteMap.jpg

newmtl Material__60
	Ns 19.999998
	Ni 1.500000
	d 1.000000
	Tr 0.000000
	Tf 1.000000 1.000000 1.000000 
	illum 2
	Ka 0.588000 0.588000 0.588000
	Kd 0.588000 0.588000 0.588000
	Ks 0.360000 0.360000 0.360000
	Ke 0.000000 0.000000 0.000000
	map_Ka CANDYSHELF_BlackCompleteMap.jpg
	map_Kd CANDYSHELF_BlackCompleteMap.jpg

newmtl Material__62
	Ns 10.000000
	Ni 1.500000
	d 1.000000
	Tr 0.000000
	Tf 1.000000 1.000000 1.000000 
	illum 2
	Ka 0.588000 0.588000 0.588000
	Kd 0.588000 0.588000 0.588000
	Ks 0.270000 0.270000 0.270000
	Ke 0.000000 0.000000 0.000000
	map_Ka HOLA_MainCompleteMap.jpg
	map_Kd HOLA_MainCompleteMap.jpg

newmtl Material__73
	Ns 10.000000
	Ni 1.500000
	d 1.000000
	Tr 0.000000
	Tf 1.000000 1.000000 1.000000 
	illum 2
	Ka 0.588000 0.588000 0.588000
	Kd 0.588000 0.588000 0.588000
	Ks 0.270000 0.270000 0.270000
	Ke 0.000000 0.000000 0.000000
	map_Ka MEXIQUECompleteMap.jpg
	map_Kd MEXIQUECompleteMap.jpg

newmtl Material__63
	Ns 19.999998
	Ni 1.500000
	d 1.000000
	Tr 0.000000
	Tf 1.000000 1.000000 1.000000 
	illum 2
	Ka 0.588000 0.588000 0.588000
	Kd 0.588000 0.588000 0.588000
	Ks 0.360000 0.360000 0.360000
	Ke 0.000000 0.000000 0.000000
	map_Ka HUSK_BaseCompleteMap.jpg
	map_Kd HUSK_BaseCompleteMap.jpg

newmtl Material__71
	Ns 10.000000
	Ni 1.500000
	d 1.000000
	Tr 0.000000
	Tf 1.000000 1.000000 1.000000 
	illum 2
	Ka 0.588000 0.588000 0.588000
	Kd 0.588000 0.588000 0.588000
	Ks 0.180000 0.180000 0.180000
	Ke 0.000000 0.000000 0.000000
	map_Ka MADCHAIR_MainCompleteMap.jpg
	map_Kd MADCHAIR_MainCompleteMap.jpg

newmtl Material__66
	Ns 10.000000
	Ni 1.500000
	d 1.000000
	Tr 0.000000
	Tf 1.000000 1.000000 1.000000 
	illum 2
	Ka 0.588000 0.588000 0.588000
	Kd 0.588000 0.588000 0.588000
	Ks 0.180000 0.180000 0.180000
	Ke 0.000000 0.000000 0.000000
	map_Ka HUSKCompleteMap.jpg
	map_Kd HUSKCompleteMap.jpg

newmtl Material__49
	Ns 10.000000
	Ni 1.500000
	d 1.000000
	Tr 0.000000
	Tf 1.000000 1.000000 1.000000 
	illum 2
	Ka 0.588000 0.588000 0.588000
	Kd 0.588000 0.588000 0.588000
	Ks 0.000000 0.000000 0.000000
	Ke 0.000000 0.000000 0.000000
