# 3ds Max Wavefront OBJ Exporter v0.97b - (c)2007 guruware
# File Created: 09.04.2016 14:39:18

newmtl 5675678
	Ns 10.000000
	Ni 1.500000
	d 1.000000
	Tr 0.000000
	Tf 1.000000 1.000000 1.000000 
	illum 2
	Ka 0.509804 0.509804 0.509804
	Kd 0.509804 0.509804 0.509804
	Ks 0.000000 0.000000 0.000000
	Ke 0.000000 0.000000 0.000000

newmtl 556475
	Ns 9.999999
	Ni 1.500000
	d 1.000000
	Tr 0.000000
	Tf 1.000000 1.000000 1.000000 
	illum 2
	Ka 0.019608 0.019608 0.019608
	Kd 0.019608 0.019608 0.019608
	Ks 2.250000 2.250000 2.250000
	Ke 0.000000 0.000000 0.000000

newmtl Material__42
	Ns 14.999999
	Ni 1.500000
	d 1.000000
	Tr 0.000000
	Tf 1.000000 1.000000 1.000000 
	illum 2
	Ka 0.588000 0.588000 0.588000
	Kd 0.588000 0.588000 0.588000
	Ks 0.450000 0.450000 0.450000
	Ke 0.000000 0.000000 0.000000
	map_Ka BRERA F2_WhiteCompleteMap.jpg
	map_Kd BRERA F2_WhiteCompleteMap.jpg

newmtl Material__41
	Ns 19.999998
	Ni 1.500000
	d 1.000000
	Tr 0.000000
	Tf 1.000000 1.000000 1.000000 
	illum 2
	Ka 0.588000 0.588000 0.588000
	Kd 0.588000 0.588000 0.588000
	Ks 0.630000 0.630000 0.630000
	Ke 0.000000 0.000000 0.000000
	map_Ka BRERA F2_MetalCompleteMap.jpg
	map_Kd BRERA F2_MetalCompleteMap.jpg

newmtl Material__43
	Ns 14.999999
	Ni 1.500000
	d 1.000000
	Tr 0.000000
	Tf 1.000000 1.000000 1.000000 
	illum 2
	Ka 0.588000 0.588000 0.588000
	Kd 0.588000 0.588000 0.588000
	Ks 0.450000 0.450000 0.450000
	Ke 0.000000 0.000000 0.000000
	map_Ka NELLY_WhiteCompleteMap.jpg
	map_Kd NELLY_WhiteCompleteMap.jpg

newmtl Material__48
	Ns 10.000000
	Ni 1.500000
	d 1.000000
	Tr 0.000000
	Tf 1.000000 1.000000 1.000000 
	illum 2
	Ka 0.588000 0.588000 0.588000
	Kd 0.588000 0.588000 0.588000
	Ks 0.900000 0.900000 0.900000
	Ke 0.000000 0.000000 0.000000
	map_Ka VITRUVIO_MetalCompleteMap.jpg
	map_Kd VITRUVIO_MetalCompleteMap.jpg

newmtl Material__49
	Ns 10.000000
	Ni 1.500000
	d 1.000000
	Tr 0.000000
	Tf 1.000000 1.000000 1.000000 
	illum 2
	Ka 0.588000 0.588000 0.588000
	Kd 0.588000 0.588000 0.588000
	Ks 0.000000 0.000000 0.000000
	Ke 0.000000 0.000000 0.000000
	map_Ka VITRUVIO_WoodCompleteMap.jpg
	map_Kd VITRUVIO_WoodCompleteMap.jpg

newmtl Material__40
	Ns 10.000000
	Ni 1.500000
	d 1.000000
	Tr 0.000000
	Tf 1.000000 1.000000 1.000000 
	illum 2
	Ka 0.588000 0.588000 0.588000
	Kd 0.588000 0.588000 0.588000
	Ks 0.315000 0.315000 0.315000
	Ke 0.000000 0.000000 0.000000
	map_Ka BEND_FabricCompleteMap.jpg
	map_Kd BEND_FabricCompleteMap.jpg

newmtl 23___Default
	Ns 10.000000
	Ni 1.500000
	d 1.000000
	Tr 0.000000
	Tf 1.000000 1.000000 1.000000 
	illum 2
	Ka 0.019608 0.019608 0.019608
	Kd 0.019608 0.019608 0.019608
	Ks 0.450000 0.450000 0.450000
	Ke 0.000000 0.000000 0.000000

newmtl Material__47
	Ns 10.000000
	Ni 1.500000
	d 1.000000
	Tr 0.000000
	Tf 1.000000 1.000000 1.000000 
	illum 2
	Ka 0.588000 0.588000 0.588000
	Kd 0.588000 0.588000 0.588000
	Ks 1.800000 1.800000 1.800000
	Ke 0.000000 0.000000 0.000000
	map_Ka TERMINAL_PlasticCompleteMap.jpg
	map_Kd TERMINAL_PlasticCompleteMap.jpg

newmtl Material__44
	Ns 14.999999
	Ni 1.500000
	d 1.000000
	Tr 0.000000
	Tf 1.000000 1.000000 1.000000 
	illum 2
	Ka 0.588000 0.588000 0.588000
	Kd 0.588000 0.588000 0.588000
	Ks 0.630000 0.630000 0.630000
	Ke 0.000000 0.000000 0.000000
	map_Ka SPRINGTIME_AcrylicCompleteMap.jpg
	map_Kd SPRINGTIME_AcrylicCompleteMap.jpg

newmtl 47567457
	Ns 10.000000
	Ni 1.500000
	d 1.000000
	Tr 0.000000
	Tf 1.000000 1.000000 1.000000 
	illum 2
	Ka 0.705882 0.705882 0.705882
	Kd 0.705882 0.705882 0.705882
	Ks 0.000000 0.000000 0.000000
	Ke 0.000000 0.000000 0.000000

newmtl Material__64
	Ns 5.000000
	Ni 1.500000
	d 1.000000
	Tr 0.000000
	Tf 1.000000 1.000000 1.000000 
	illum 2
	Ka 0.588000 0.588000 0.588000
	Kd 0.588000 0.588000 0.588000
	Ks 2.250000 2.250000 2.250000
	Ke 0.000000 0.000000 0.000000
	map_Ka TERMINAL_LeatherCompleteMap.jpg
	map_Kd TERMINAL_LeatherCompleteMap.jpg
