
[
  {
    "category": "wallpaper",
    "src": "assets/products/oboi/wall&deco/2010/WDNP0901.jpg",
    "brand": "Wall & Deco",
    "collection": "2010",
    "width": 3290,
    "height": 3000
  },
  {
    "category": "wallpaper",
    "src": "assets/products/oboi/wall&deco/2010/WDNP0902.jpg",
    "brand": "Wall & Deco",
    "collection": "2010",
    "width": 3290,
    "height": 3000
  },

  {
    "category": "wallpaper",
    "src": "assets/products/oboi/wall&deco/2010/WDOP0901.jpg",
    "brand": "Wall & Deco",
    "collection": "2010",
    "width": 4230,
    "height": 3000
  },
  {
    "category": "wallpaper",
    "src": "assets/products/oboi/wall&deco/2010/WDOP0902.jpg",
    "brand": "Wall & Deco",
    "collection": "2010",
    "width": 4230,
    "height": 3000
  },

  {
    "category": "wallpaper",
    "src": "assets/products/oboi/wall&deco/2010/WDAE0901.jpg",
    "brand": "Wall & Deco",
    "collection": "2010",
    "width": 12690,
    "height": 3000
  },
  {
    "category": "wallpaper",
    "src": "assets/products/oboi/wall&deco/2010/WDAE0902.jpg",
    "brand": "Wall & Deco",
    "collection": "2010",
    "width": 12690,
    "height": 3000
  },

  {
    "category": "wallpaper",
    "src": "assets/products/oboi/wall&deco/2010/WDKA0901.jpg",
    "brand": "Wall & Deco",
    "collection": "2010",
    "width": 3290,
    "height": 3000
  },
  {
    "category": "wallpaper",
    "src": "assets/products/oboi/wall&deco/2010/WDKA0902.jpg",
    "brand": "Wall & Deco",
    "collection": "2010",
    "width": 3290,
    "height": 3000
  },

  {
    "category": "wallpaper",
    "src": "assets/products/oboi/wall&deco/2010/WDGE0901.jpg",
    "brand": "Wall & Deco",
    "collection": "2010",
    "width": 8460,
    "height": 3000
  },
  {
    "category": "wallpaper",
    "src": "assets/products/oboi/wall&deco/2010/WDGE0902.jpg",
    "brand": "Wall & Deco",
    "collection": "2010",
    "width": 8460,
    "height": 3000
  },

  {
    "category": "wallpaper",
    "src": "assets/products/oboi/wall&deco/2010/WDHM0901.jpg",
    "brand": "Wall & Deco",
    "collection": "2010",
    "width": 4230,
    "height": 3000
  },
  {
    "category": "wallpaper",
    "src": "assets/products/oboi/wall&deco/2010/WDHM0902.jpg",
    "brand": "Wall & Deco",
    "collection": "2010",
    "width": 4230,
    "height": 3000
  },

  {
    "category": "wallpaper",
    "src": "assets/products/oboi/wall&deco/2010/WDOO0901.jpg",
    "brand": "Wall & Deco",
    "collection": "2010",
    "width": 4230,
    "height": 3000
  },
  {
    "category": "wallpaper",
    "src": "assets/products/oboi/wall&deco/2010/WDOO0902.jpg",
    "brand": "Wall & Deco",
    "collection": "2010",
    "width": 4230,
    "height": 3000
  },

  {
    "category": "wallpaper",
    "src": "assets/products/oboi/wall&deco/2010/WDGL0901.jpg",
    "brand": "Wall & Deco",
    "collection": "2010",
    "width": 4230,
    "height": 3000
  },
  {
    "category": "wallpaper",
    "src": "assets/products/oboi/wall&deco/2010/WDGL0902.jpg",
    "brand": "Wall & Deco",
    "collection": "2010",
    "width": 4230,
    "height": 3000
  },

  {
    "category": "wallpaper",
    "src": "assets/products/oboi/wall&deco/2010/WDTC0901.jpg",
    "brand": "Wall & Deco",
    "collection": "2010",
    "width": 3290,
    "height": 3000
  },
  {
    "category": "wallpaper",
    "src": "assets/products/oboi/wall&deco/2010/WDTC0902.jpg",
    "brand": "Wall & Deco",
    "collection": "2010",
    "width": 3290,
    "height": 3000
  },

  {
    "category": "wallpaper",
    "src": "assets/products/oboi/wall&deco/2010/WDRE0901.jpg",
    "brand": "Wall & Deco",
    "collection": "2010",
    "width": 3290,
    "height": 3000
  },
  {
    "category": "wallpaper",
    "src": "assets/products/oboi/wall&deco/2010/WDRE0902.jpg",
    "brand": "Wall & Deco",
    "collection": "2010",
    "width": 3290,
    "height": 3000
  },

  {
    "category": "wallpaper",
    "src": "assets/products/oboi/wall&deco/2010/WDNT0901.jpg",
    "brand": "Wall & Deco",
    "collection": "2010",
    "width": 3290,
    "height": 3000
  },
  {
    "category": "wallpaper",
    "src": "assets/products/oboi/wall&deco/2010/WDNT0902.jpg",
    "brand": "Wall & Deco",
    "collection": "2010",
    "width": 3290,
    "height": 3000
  },

  {
    "category": "wallpaper",
    "src": "assets/products/oboi/wall&deco/2010/WDBK0901.jpg",
    "brand": "Wall & Deco",
    "collection": "2010",
    "width": 1880,
    "height": 3000
  },
  {
    "category": "wallpaper",
    "src": "assets/products/oboi/wall&deco/2010/WDBK0902.jpg",
    "brand": "Wall & Deco",
    "collection": "2010",
    "width": 1880,
    "height": 3000
  },

  {
    "category": "wallpaper",
    "src": "assets/products/oboi/wall&deco/2010/WDRI0901.jpg",
    "brand": "Wall & Deco",
    "collection": "2010",
    "width": 1880,
    "height": 3000
  },
  {
    "category": "wallpaper",
    "src": "assets/products/oboi/wall&deco/2010/WDRI0902.jpg",
    "brand": "Wall & Deco",
    "collection": "2010",
    "width": 1880,
    "height": 3000
  },

  {
    "category": "wallpaper",
    "src": "assets/products/oboi/wall&deco/2010/WDYU0901.jpg",
    "brand": "Wall & Deco",
    "collection": "2010",
    "width": 3760,
    "height": 3000
  },
  {
    "category": "wallpaper",
    "src": "assets/products/oboi/wall&deco/2010/WDYU0902.jpg",
    "brand": "Wall & Deco",
    "collection": "2010",
    "width": 3760,
    "height": 3000
  },

  {
    "category": "wallpaper",
    "src": "assets/products/oboi/wall&deco/2010/WDTY0901.jpg",
    "brand": "Wall & Deco",
    "collection": "2010",
    "width": 4230,
    "height": 3000
  },
  {
    "category": "wallpaper",
    "src": "assets/products/oboi/wall&deco/2010/WDTY0902.jpg",
    "brand": "Wall & Deco",
    "collection": "2010",
    "width": 2350,
    "height": 3000
  },

  {
    "category": "wallpaper",
    "src": "assets/products/oboi/wall&deco/2010/WDWH0901.jpg",
    "brand": "Wall & Deco",
    "collection": "2010",
    "width": 1330,
    "height": 3000
  },
  {
    "category": "wallpaper",
    "src": "assets/products/oboi/wall&deco/2010/WDWH0902.jpg",
    "brand": "Wall & Deco",
    "collection": "2010",
    "width": 3290,
    "height": 3000
  },

  {
    "category": "wallpaper",
    "src": "assets/products/oboi/wall&deco/2010/WDOS0901.jpg",
    "brand": "Wall & Deco",
    "collection": "2010",
    "width": 4230,
    "height": 3000
  },
  {
    "category": "wallpaper",
    "src": "assets/products/oboi/wall&deco/2010/WDOS0902.jpg",
    "brand": "Wall & Deco",
    "collection": "2010",
    "width": 4230,
    "height": 3000
  },

  {
    "category": "wallpaper",
    "src": "assets/products/oboi/wall&deco/2010/WDOR0901.jpg",
    "brand": "Wall & Deco",
    "collection": "2010",
    "width": 3290,
    "height": 3000
  },
  {
    "category": "wallpaper",
    "src": "assets/products/oboi/wall&deco/2010/WDOR0902.jpg",
    "brand": "Wall & Deco",
    "collection": "2010",
    "width": 3290,
    "height": 3000
  },

  {
    "category": "wallpaper",
    "src": "assets/products/oboi/wall&deco/2010/WDGR0901.jpg",
    "brand": "Wall & Deco",
    "collection": "2010",
    "width": 4230,
    "height": 3000
  },
  {
    "category": "wallpaper",
    "src": "assets/products/oboi/wall&deco/2010/WDGR0902.jpg",
    "brand": "Wall & Deco",
    "collection": "2010",
    "width": 4230,
    "height": 3000
  },

  {
    "category": "wallpaper",
    "src": "assets/products/oboi/wall&deco/2010/WDGY0901.jpg",
    "brand": "Wall & Deco",
    "collection": "2010",
    "width": 2350,
    "height": 3000
  },
  {
    "category": "wallpaper",
    "src": "assets/products/oboi/wall&deco/2010/WDGY0902.jpg",
    "brand": "Wall & Deco",
    "collection": "2010",
    "width": 2350,
    "height": 3000
  },

  {
    "category": "wallpaper",
    "src": "assets/products/oboi/wall&deco/2010/WDMO0901.jpg",
    "brand": "Wall & Deco",
    "collection": "2010",
    "width": 4230,
    "height": 3000
  },
  {
    "category": "wallpaper",
    "src": "assets/products/oboi/wall&deco/2010/WDMO0902.jpg",
    "brand": "Wall & Deco",
    "collection": "2010",
    "width": 4230,
    "height": 3000
  },

  {
    "category": "wallpaper",
    "src": "assets/products/oboi/wall&deco/2010/WDAI0801.jpg",
    "brand": "Wall & Deco",
    "collection": "2010",
    "width": 12690,
    "height": 3000
  },
  {
    "category": "wallpaper",
    "src": "assets/products/oboi/wall&deco/2010/WDAI0802.jpg",
    "brand": "Wall & Deco",
    "collection": "2010",
    "width": 8460,
    "height": 3000
  },
  {
    "category": "wallpaper",
    "src": "assets/products/oboi/wall&deco/2010/WDAI0803.jpg",
    "brand": "Wall & Deco",
    "collection": "2010",
    "width": 8460,
    "height": 3000
  },

  {
    "category": "wallpaper",
    "src": "assets/products/oboi/wall&deco/2010/WDFL0801.jpg",
    "brand": "Wall & Deco",
    "collection": "2010",
    "width": 1880,
    "height": 3000
  },
  {
    "category": "wallpaper",
    "src": "assets/products/oboi/wall&deco/2010/WDFL0802.jpg",
    "brand": "Wall & Deco",
    "collection": "2010",
    "width": 4230,
    "height": 3000
  },
  {
    "category": "wallpaper",
    "src": "assets/products/oboi/wall&deco/2010/WDFL0803.jpg",
    "brand": "Wall & Deco",
    "collection": "2010",
    "width": 4230,
    "height": 3000
  },

  {
    "category": "wallpaper",
    "src": "assets/products/oboi/wall&deco/2010/WDAR0801.jpg",
    "brand": "Wall & Deco",
    "collection": "2010",
    "width": 4230,
    "height": 3000
  },
  {
    "category": "wallpaper",
    "src": "assets/products/oboi/wall&deco/2010/WDAR0802.jpg",
    "brand": "Wall & Deco",
    "collection": "2010",
    "width": 4230,
    "height": 3000
  },
  {
    "category": "wallpaper",
    "src": "assets/products/oboi/wall&deco/2010/WDAR0803.jpg",
    "brand": "Wall & Deco",
    "collection": "2010",
    "width": 4230,
    "height": 3000
  },

  {
    "category": "wallpaper",
    "src": "assets/products/oboi/wall&deco/2010/WDMI0801.jpg",
    "brand": "Wall & Deco",
    "collection": "2010",
    "width": 4230,
    "height": 3000
  },
  {
    "category": "wallpaper",
    "src": "assets/products/oboi/wall&deco/2010/WDMI0802.jpg",
    "brand": "Wall & Deco",
    "collection": "2010",
    "width": 1880,
    "height": 3000
  },
  {
    "category": "wallpaper",
    "src": "assets/products/oboi/wall&deco/2010/WDMI0803.jpg",
    "brand": "Wall & Deco",
    "collection": "2010",
    "width": 4230,
    "height": 3000
  },

  {
    "category": "wallpaper",
    "src": "assets/products/oboi/wall&deco/2010/WDBA0801.jpg",
    "brand": "Wall & Deco",
    "collection": "2010",
    "width": 4230,
    "height": 3000
  },
  {
    "category": "wallpaper",
    "src": "assets/products/oboi/wall&deco/2010/WDBA0802.jpg",
    "brand": "Wall & Deco",
    "collection": "2010",
    "width": 1880,
    "height": 3000
  },
  {
    "category": "wallpaper",
    "src": "assets/products/oboi/wall&deco/2010/WDBA0803.jpg",
    "brand": "Wall & Deco",
    "collection": "2010",
    "width": 1880,
    "height": 3000
  },

  {
    "category": "wallpaper",
    "src": "assets/products/oboi/wall&deco/2010/WDLL0801.jpg",
    "brand": "Wall & Deco",
    "collection": "2010",
    "width": 1880,
    "height": 3000
  },
  {
    "category": "wallpaper",
    "src": "assets/products/oboi/wall&deco/2010/WDLL0802.jpg",
    "brand": "Wall & Deco",
    "collection": "2010",
    "width": 1880,
    "height": 3000
  },
  {
    "category": "wallpaper",
    "src": "assets/products/oboi/wall&deco/2010/WDLL0803.jpg",
    "brand": "Wall & Deco",
    "collection": "2010",
    "width": 1880,
    "height": 3920
  },

  {
    "category": "wallpaper",
    "src": "assets/products/oboi/wall&deco/2010/WDLL0701.jpg",
    "brand": "Wall & Deco",
    "collection": "2010",
    "width": 1880,
    "height": 3000
  },
  {
    "category": "wallpaper",
    "src": "assets/products/oboi/wall&deco/2010/WDLL0702.jpg",
    "brand": "Wall & Deco",
    "collection": "2010",
    "width": 1880,
    "height": 3000
  },
  {
    "category": "wallpaper",
    "src": "assets/products/oboi/wall&deco/2010/WDLL0703.jpg",
    "brand": "Wall & Deco",
    "collection": "2010",
    "width": 1880,
    "height": 3000
  },
  {
    "category": "wallpaper",
    "src": "assets/products/oboi/wall&deco/2010/WDLL0704.jpg",
    "brand": "Wall & Deco",
    "collection": "2010",
    "width": 1880,
    "height": 3000
  },
  {
    "category": "wallpaper",
    "src": "assets/products/oboi/wall&deco/2010/WDLL0705.jpg",
    "brand": "Wall & Deco",
    "collection": "2010",
    "width": 1410,
    "height": 3000
  },
  {
    "category": "wallpaper",
    "src": "assets/products/oboi/wall&deco/2010/WDLL0706.jpg",
    "brand": "Wall & Deco",
    "collection": "2010",
    "width": 1880,
    "height": 3000
  },

  {
    "category": "wallpaper",
    "src": "assets/products/oboi/wall&deco/2010/WDBL0601 A.jpg",
    "brand": "Wall & Deco",
    "collection": "2010",
    "width": 4200,
    "height": 3000
  },
  {
    "category": "wallpaper",
    "src": "assets/products/oboi/wall&deco/2010/WDBL0603 A.jpg",
    "brand": "Wall & Deco",
    "collection": "2010",
    "width": 4900,
    "height": 3000
  },
  {
    "category": "wallpaper",
    "src": "assets/products/oboi/wall&deco/2010/WDBL0701 A.jpg",
    "brand": "Wall & Deco",
    "collection": "2010",
    "width": 4200,
    "height": 3000
  },
  {
    "category": "wallpaper",
    "src": "assets/products/oboi/wall&deco/2010/WDBL0702 A.jpg",
    "brand": "Wall & Deco",
    "collection": "2010",
    "width": 4200,
    "height": 3000
  },
  {
    "category": "wallpaper",
    "src": "assets/products/oboi/wall&deco/2010/WDBL0703 A.jpg",
    "brand": "Wall & Deco",
    "collection": "2010",
    "width": 4200,
    "height": 3000
  },

  {
    "category": "wallpaper",
    "src": "assets/products/oboi/wall&deco/2010/WDJ0501.jpg",
    "brand": "Wall & Deco",
    "collection": "2010",
    "width": 4200,
    "height": 3000
  },
  {
    "category": "wallpaper",
    "src": "assets/products/oboi/wall&deco/2010/WDJ0502.jpg",
    "brand": "Wall & Deco",
    "collection": "2010",
    "width": 4200,
    "height": 3000
  },
  {
    "category": "wallpaper",
    "src": "assets/products/oboi/wall&deco/2010/WDJ0503.jpg",
    "brand": "Wall & Deco",
    "collection": "2010",
    "width": 4200,
    "height": 3000
  },
  {
    "category": "wallpaper",
    "src": "assets/products/oboi/wall&deco/2010/WDJ0504.jpg",
    "brand": "Wall & Deco",
    "collection": "2010",
    "width": 4200,
    "height": 3000
  },
  {
    "category": "wallpaper",
    "src": "assets/products/oboi/wall&deco/2010/WDJ0505.jpg",
    "brand": "Wall & Deco",
    "collection": "2010",
    "width": 4200,
    "height": 3000
  },
  {
    "category": "wallpaper",
    "src": "assets/products/oboi/wall&deco/2010/WDJ0506.jpg",
    "brand": "Wall & Deco",
    "collection": "2010",
    "width": 4200,
    "height": 3000
  },
  {
    "category": "wallpaper",
    "src": "assets/products/oboi/wall&deco/2010/WDJ0601.jpg",
    "brand": "Wall & Deco",
    "collection": "2010",
    "width": 1420,
    "height": 3000
  },
  {
    "category": "wallpaper",
    "src": "assets/products/oboi/wall&deco/2010/WDJ0602.jpg",
    "brand": "Wall & Deco",
    "collection": "2010",
    "width": 4200,
    "height": 3000
  },
  {
    "category": "wallpaper",
    "src": "assets/products/oboi/wall&deco/2010/WDJ0603.jpg",
    "brand": "Wall & Deco",
    "collection": "2010",
    "width": 4200,
    "height": 3000
  },

  {
    "category": "wallpaper",
    "src": "assets/products/oboi/wall&deco/2010/WDG0601.jpg",
    "brand": "Wall & Deco",
    "collection": "2010",
    "width": 4200,
    "height": 3000
  },
  {
    "category": "wallpaper",
    "src": "assets/products/oboi/wall&deco/2010/WDG0602.jpg",
    "brand": "Wall & Deco",
    "collection": "2010",
    "width": 4200,
    "height": 3000
  },
  {
    "category": "wallpaper",
    "src": "assets/products/oboi/wall&deco/2010/WDG0603.jpg",
    "brand": "Wall & Deco",
    "collection": "2010",
    "width": 1400,
    "height": 3000
  },
  {
    "category": "wallpaper",
    "src": "assets/products/oboi/wall&deco/2010/WDG0604.jpg",
    "brand": "Wall & Deco",
    "collection": "2010",
    "width": 1400,
    "height": 3000
  },
  {
    "category": "wallpaper",
    "src": "assets/products/oboi/wall&deco/2010/WDG0605.jpg",
    "brand": "Wall & Deco",
    "collection": "2010",
    "width": 1400,
    "height": 3000
  },
  {
    "category": "wallpaper",
    "src": "assets/products/oboi/wall&deco/2010/WDG0606.jpg",
    "brand": "Wall & Deco",
    "collection": "2010",
    "width": 4200,
    "height": 3000
  },

  {
    "category": "wallpaper",
    "src": "assets/products/oboi/wall&deco/2010/WDO0501.jpg",
    "brand": "Wall & Deco",
    "collection": "2010",
    "width": 930,
    "height": 3000
  },
  {
    "category": "wallpaper",
    "src": "assets/products/oboi/wall&deco/2010/WDO0502.jpg",
    "brand": "Wall & Deco",
    "collection": "2010",
    "width": 1410,
    "height": 3000
  },
  {
    "category": "wallpaper",
    "src": "assets/products/oboi/wall&deco/2010/WDO0503.jpg",
    "brand": "Wall & Deco",
    "collection": "2010",
    "width": 1410,
    "height": 3000
  },
  {
    "category": "wallpaper",
    "src": "assets/products/oboi/wall&deco/2010/WDO0701.jpg",
    "brand": "Wall & Deco",
    "collection": "2010",
    "width": 1880,
    "height": 3000
  },
  {
    "category": "wallpaper",
    "src": "assets/products/oboi/wall&deco/2010/WDO0702.jpg",
    "brand": "Wall & Deco",
    "collection": "2010",
    "width": 1880,
    "height": 3000
  },
  {
    "category": "wallpaper",
    "src": "assets/products/oboi/wall&deco/2010/WDO0703.jpg",
    "brand": "Wall & Deco",
    "collection": "2010",
    "width": 1410,
    "height": 3000
  },

  {
    "category": "wallpaper",
    "src": "assets/products/oboi/wall&deco/2010/WDKD0701.jpg",
    "brand": "Wall & Deco",
    "collection": "2010",
    "width": 1880,
    "height": 3000
  },
  {
    "category": "wallpaper",
    "src": "assets/products/oboi/wall&deco/2010/WDKD0702.jpg",
    "brand": "Wall & Deco",
    "collection": "2010",
    "width": 4200,
    "height": 3000
  },
  {
    "category": "wallpaper",
    "src": "assets/products/oboi/wall&deco/2010/WDKD0703.jpg",
    "brand": "Wall & Deco",
    "collection": "2010",
    "width": 1880,
    "height": 3000
  },

  {
    "category": "wallpaper",
    "src": "assets/products/oboi/wall&deco/2010/WDNB0501.jpg",
    "brand": "Wall & Deco",
    "collection": "2010",
    "width": 4200,
    "height": 3000
  },
  {
    "category": "wallpaper",
    "src": "assets/products/oboi/wall&deco/2010/WDNB0502.jpg",
    "brand": "Wall & Deco",
    "collection": "2010",
    "width": 4200,
    "height": 3000
  },
  {
    "category": "wallpaper",
    "src": "assets/products/oboi/wall&deco/2010/WDNB0603.jpg",
    "brand": "Wall & Deco",
    "collection": "2010",
    "width": 1400,
    "height": 3000
  },

  {
    "category": "wallpaper",
    "src": "assets/products/oboi/wall&deco/2010/WDTR0601.jpg",
    "brand": "Wall & Deco",
    "collection": "2010",
    "width": 4200,
    "height": 3000
  },
  {
    "category": "wallpaper",
    "src": "assets/products/oboi/wall&deco/2010/WDTR0602.jpg",
    "brand": "Wall & Deco",
    "collection": "2010",
    "width": 4200,
    "height": 3000
  },
  {
    "category": "wallpaper",
    "src": "assets/products/oboi/wall&deco/2010/WDTR0603.jpg",
    "brand": "Wall & Deco",
    "collection": "2010",
    "width": 4200,
    "height": 3000
  },

  {
    "category": "wallpaper",
    "src": "assets/products/oboi/wall&deco/2010/WDCH0601.jpg",
    "brand": "Wall & Deco",
    "collection": "2010",
    "width": 4200,
    "height": 3000
  },
  {
    "category": "wallpaper",
    "src": "assets/products/oboi/wall&deco/2010/WDCH0602.jpg",
    "brand": "Wall & Deco",
    "collection": "2010",
    "width": 4200,
    "height": 3000
  },
  {
    "category": "wallpaper",
    "src": "assets/products/oboi/wall&deco/2010/WDCH0603.jpg",
    "brand": "Wall & Deco",
    "collection": "2010",
    "width": 4200,
    "height": 3000
  },

  {
    "category": "wallpaper",
    "src": "assets/products/oboi/wall&deco/2010/WDOF0601.jpg",
    "brand": "Wall & Deco",
    "collection": "2010",
    "width": 4200,
    "height": 3000
  },
  {
    "category": "wallpaper",
    "src": "assets/products/oboi/wall&deco/2010/WDOF0602.jpg",
    "brand": "Wall & Deco",
    "collection": "2010",
    "width": 4200,
    "height": 3000
  },
  {
    "category": "wallpaper",
    "src": "assets/products/oboi/wall&deco/2010/WDOF0603.jpg",
    "brand": "Wall & Deco",
    "collection": "2010",
    "width": 4200,
    "height": 3000
  },

  {
    "category": "wallpaper",
    "src": "assets/products/oboi/wall&deco/2010/GROOVE.jpg",
    "brand": "Wall & Deco",
    "collection": "2010",
    "width": 3000,
    "height": 3000
  },

  {
    "category": "wallpaper",
    "src": "assets/products/oboi/wall&deco/2010/TATOO.jpg",
    "brand": "Wall & Deco",
    "collection": "2010",
    "width": 2000,
    "height": 3000
  },

  {
    "category": "wallpaper",
    "src": "assets/products/oboi/wall&deco/2010/MONSOON 3X3.jpg",
    "brand": "Wall & Deco",
    "collection": "2010",
    "width": 3000,
    "height": 3000
  },

  {
    "category": "wallpaper",
    "src": "assets/products/oboi/wall&deco/2010/PILLS 3X3.jpg",
    "brand": "Wall & Deco",
    "collection": "2010",
    "width": 3000,
    "height": 3000
  },

  {
    "category": "wallpaper",
    "src": "assets/products/oboi/wall&deco/2010/POPPY 3X3.jpg",
    "brand": "Wall & Deco",
    "collection": "2010",
    "width": 3000,
    "height": 3000
  },

  {
    "category": "wallpaper",
    "src": "assets/products/oboi/wall&deco/2010/CALLE 600x300.jpg",
    "brand": "Wall & Deco",
    "collection": "2010",
    "width": 6000,
    "height": 3000
  },

  {
    "category": "wallpaper",
    "src": "assets/products/oboi/wall&deco/2010/nautilus 2X3.jpg",
    "brand": "Wall & Deco",
    "collection": "2010",
    "width": 2000,
    "height": 3000
  },

  {
    "category": "wallpaper",
    "src": "assets/products/oboi/wall&deco/2010/WORLD 3X3.jpg",
    "brand": "Wall & Deco",
    "collection": "2010",
    "width": 3000,
    "height": 3000
  },

  {
    "category": "wallpaper",
    "src": "assets/products/oboi/wall&deco/2010/cherry tree 3X3.jpg",
    "brand": "Wall & Deco",
    "collection": "2010",
    "width": 3000,
    "height": 3000
  },

  {
    "category": "wallpaper",
    "src": "assets/products/oboi/wall&deco/2010/BBDT0901.jpg",
    "brand": "Wall & Deco",
    "collection": "2010",
    "width": 3290,
    "height": 3000
  },
  {
    "category": "wallpaper",
    "src": "assets/products/oboi/wall&deco/2010/BBDT0902.jpg",
    "brand": "Wall & Deco",
    "collection": "2010",
    "width": 3290,
    "height": 3000
  },

  {
    "category": "wallpaper",
    "src": "assets/products/oboi/wall&deco/2010/BBFW0901.jpg",
    "brand": "Wall & Deco",
    "collection": "2010",
    "width": 3290,
    "height": 3000
  },
  {
    "category": "wallpaper",
    "src": "assets/products/oboi/wall&deco/2010/BBFW0902.jpg",
    "brand": "Wall & Deco",
    "collection": "2010",
    "width": 3290,
    "height": 3000
  },

  {
    "category": "wallpaper",
    "src": "assets/products/oboi/wall&deco/2010/BBEF0901.jpg",
    "brand": "Wall & Deco",
    "collection": "2010",
    "width": 3290,
    "height": 3000
  },
  {
    "category": "wallpaper",
    "src": "assets/products/oboi/wall&deco/2010/BBEF0902.jpg",
    "brand": "Wall & Deco",
    "collection": "2010",
    "width": 3290,
    "height": 3000
  },

  {
    "category": "wallpaper",
    "src": "assets/products/oboi/wall&deco/2010/BBMO0901.jpg",
    "brand": "Wall & Deco",
    "collection": "2010",
    "width": 3290,
    "height": 3000
  },
  {
    "category": "wallpaper",
    "src": "assets/products/oboi/wall&deco/2010/BBMO0902.jpg",
    "brand": "Wall & Deco",
    "collection": "2010",
    "width": 3290,
    "height": 3000
  },

  {
    "category": "wallpaper",
    "src": "assets/products/oboi/wall&deco/2010/BBFP0901.jpg",
    "brand": "Wall & Deco",
    "collection": "2010",
    "width": 3290,
    "height": 3000
  },
  {
    "category": "wallpaper",
    "src": "assets/products/oboi/wall&deco/2010/BBFP0902.jpg",
    "brand": "Wall & Deco",
    "collection": "2010",
    "width": 3290,
    "height": 3000
  },

  {
    "category": "wallpaper",
    "src": "assets/products/oboi/wall&deco/2010/BBAM0901.jpg",
    "brand": "Wall & Deco",
    "collection": "2010",
    "width": 3290,
    "height": 3000
  },
  {
    "category": "wallpaper",
    "src": "assets/products/oboi/wall&deco/2010/BBAM0902.jpg",
    "brand": "Wall & Deco",
    "collection": "2010",
    "width": 3290,
    "height": 3000
  },

  {
    "category": "wallpaper",
    "src": "assets/products/oboi/wall&deco/2010/BBUA0901.jpg",
    "brand": "Wall & Deco",
    "collection": "2010",
    "width": 3290,
    "height": 3000
  },
  {
    "category": "wallpaper",
    "src": "assets/products/oboi/wall&deco/2010/BBUA0902.jpg",
    "brand": "Wall & Deco",
    "collection": "2010",
    "width": 3290,
    "height": 3000
  },

  {
    "category": "wallpaper",
    "src": "assets/products/oboi/wall&deco/2010/BBFD0901.jpg",
    "brand": "Wall & Deco",
    "collection": "2010",
    "width": 3290,
    "height": 3000
  },
  {
    "category": "wallpaper",
    "src": "assets/products/oboi/wall&deco/2010/BBFD0902.jpg",
    "brand": "Wall & Deco",
    "collection": "2010",
    "width": 3290,
    "height": 3000
  },

  {
    "category": "wallpaper",
    "src": "assets/products/oboi/wall&deco/2010/BBWG0901.jpg",
    "brand": "Wall & Deco",
    "collection": "2010",
    "width": 3290,
    "height": 3000
  },
  {
    "category": "wallpaper",
    "src": "assets/products/oboi/wall&deco/2010/BBWG0902.jpg",
    "brand": "Wall & Deco",
    "collection": "2010",
    "width": 3290,
    "height": 3000
  },

  {
    "category": "wallpaper",
    "src": "assets/products/oboi/wall&deco/2010/BBLO0802.jpg",
    "brand": "Wall & Deco",
    "collection": "2010",
    "width": 4230,
    "height": 3000
  },

  {
    "category": "wallpaper",
    "src": "assets/products/oboi/wall&deco/2010/BBLL0801.jpg",
    "brand": "Wall & Deco",
    "collection": "2010",
    "width": 4230,
    "height": 3000
  },
  {
    "category": "wallpaper",
    "src": "assets/products/oboi/wall&deco/2010/BBLL0802.jpg",
    "brand": "Wall & Deco",
    "collection": "2010",
    "width": 4230,
    "height": 3000
  },

  {
    "category": "wallpaper",
    "src": "assets/products/oboi/wall&deco/2010/BBEU0801 ABC.jpg",
    "brand": "Wall & Deco",
    "collection": "2010",
    "width": 12690,
    "height": 3000
  },
  {
    "category": "wallpaper",
    "src": "assets/products/oboi/wall&deco/2010/BBEU0802 ABC.jpg",
    "brand": "Wall & Deco",
    "collection": "2010",
    "width": 12690,
    "height": 3000
  },

  {
    "category": "wallpaper",
    "src": "assets/products/oboi/wall&deco/2010/BBDE0801.jpg",
    "brand": "Wall & Deco",
    "collection": "2010",
    "width": 4230,
    "height": 3000
  },
  {
    "category": "wallpaper",
    "src": "assets/products/oboi/wall&deco/2010/BBDE0802.jpg",
    "brand": "Wall & Deco",
    "collection": "2010",
    "width": 4230,
    "height": 3000
  },

  {
    "category": "wallpaper",
    "src": "assets/products/oboi/wall&deco/2010/HULA COCONUT 3X2.jpg",
    "brand": "Wall & Deco",
    "collection": "2010",
    "width": 2000,
    "height": 3000
  },
  {
    "category": "wallpaper",
    "src": "assets/products/oboi/wall&deco/2010/HULA COCONUT 4X3.jpg",
    "brand": "Wall & Deco",
    "collection": "2010",
    "width": 4000,
    "height": 3000
  },

  {
    "category": "wallpaper",
    "src": "assets/products/oboi/wall&deco/2010/MOONCAT 3x3.jpg",
    "brand": "Wall & Deco",
    "collection": "2010",
    "width": 3000,
    "height": 3000
  },

  {
    "category": "wallpaper",
    "src": "assets/products/oboi/wall&deco/2010/DESERT SPIRIT 2X3.jpg",
    "brand": "Wall & Deco",
    "collection": "2010",
    "width": 2000,
    "height": 3000
  },
  {
    "category": "wallpaper",
    "src": "assets/products/oboi/wall&deco/2010/DESERT SPIRIT 3X3.jpg",
    "brand": "Wall & Deco",
    "collection": "2010",
    "width": 3000,
    "height": 3000
  },

  {
    "category": "wallpaper",
    "src": "assets/products/oboi/wall&deco/2010/Spring Blossom.jpg",
    "brand": "Wall & Deco",
    "collection": "2010",
    "width": 3000,
    "height": 3000
  },

  {
    "category": "wallpaper",
    "src": "assets/products/oboi/wall&deco/2010/BAMBOO 2X3.jpg",
    "brand": "Wall & Deco",
    "collection": "2010",
    "width": 2000,
    "height": 3000
  },
  {
    "category": "wallpaper",
    "src": "assets/products/oboi/wall&deco/2010/BAMBOO 3X3.jpg",
    "brand": "Wall & Deco",
    "collection": "2010",
    "width": 3000,
    "height": 3000
  },

  {
    "category": "wallpaper",
    "src": "assets/products/oboi/wall&deco/2010/GPW1001 COL 1.jpg",
    "brand": "Wall & Deco",
    "collection": "2010",
    "width": 4700,
    "height": 3100
  },
  {
    "category": "wallpaper",
    "src": "assets/products/oboi/wall&deco/2010/GPW1001 COL 2.jpg",
    "brand": "Wall & Deco",
    "collection": "2010",
    "width": 4700,
    "height": 3100
  },
  {
    "category": "wallpaper",
    "src": "assets/products/oboi/wall&deco/2010/GPW1001 COL 3 A.jpg",
    "brand": "Wall & Deco",
    "collection": "2010",
    "width": 4700,
    "height": 3100
  },

  {
    "category": "wallpaper",
    "src": "assets/products/oboi/wall&deco/2010/GPW1002 A COL 1.jpg",
    "brand": "Wall & Deco",
    "collection": "2010",
    "width": 6110,
    "height": 3100
  },
  {
    "category": "wallpaper",
    "src": "assets/products/oboi/wall&deco/2010/GPW1002 A COL 2.jpg",
    "brand": "Wall & Deco",
    "collection": "2010",
    "width": 6110,
    "height": 3100
  },

  {
    "category": "wallpaper",
    "src": "assets/products/oboi/wall&deco/2010/GPW1003 COL 1.jpg",
    "brand": "Wall & Deco",
    "collection": "2010",
    "width": 8460,
    "height": 3100
  },
  {
    "category": "wallpaper",
    "src": "assets/products/oboi/wall&deco/2010/GPW1003 COL 2.jpg",
    "brand": "Wall & Deco",
    "collection": "2010",
    "width": 8460,
    "height": 3100
  },

  {
    "category": "wallpaper",
    "src": "assets/products/oboi/wall&deco/2010/GPW1004 COL 1.jpg",
    "brand": "Wall & Deco",
    "collection": "2010",
    "width": 5640,
    "height": 3100
  },
  {
    "category": "wallpaper",
    "src": "assets/products/oboi/wall&deco/2010/GPW1004 COL 2.jpg",
    "brand": "Wall & Deco",
    "collection": "2010",
    "width": 5640,
    "height": 3100
  },
  {
    "category": "wallpaper",
    "src": "assets/products/oboi/wall&deco/2010/GPW1004 COL 3.jpg",
    "brand": "Wall & Deco",
    "collection": "2010",
    "width": 5640,
    "height": 3100
  },
  {
    "category": "wallpaper",
    "src": "assets/products/oboi/wall&deco/2010/GPW1004 COL 4.jpg",
    "brand": "Wall & Deco",
    "collection": "2010",
    "width": 5640,
    "height": 3100
  },

  {
    "category": "wallpaper",
    "src": "assets/products/oboi/wall&deco/2010/GPW1005 COL 1.jpg",
    "brand": "Wall & Deco",
    "collection": "2010",
    "width": 3290,
    "height": 3100
  },
  {
    "category": "wallpaper",
    "src": "assets/products/oboi/wall&deco/2010/GPW1005 COL 2.jpg",
    "brand": "Wall & Deco",
    "collection": "2010",
    "width": 3290,
    "height": 3100
  },

  {
    "category": "wallpaper",
    "src": "assets/products/oboi/wall&deco/2010/GPW1006 COL 1.jpg",
    "brand": "Wall & Deco",
    "collection": "2010",
    "width": 3290,
    "height": 3100
  },
  {
    "category": "wallpaper",
    "src": "assets/products/oboi/wall&deco/2010/GPW1006 COL 2.jpg",
    "brand": "Wall & Deco",
    "collection": "2010",
    "width": 3290,
    "height": 3100
  },
  {
    "category": "wallpaper",
    "src": "assets/products/oboi/wall&deco/2010/GPW1006 COL 3.jpg",
    "brand": "Wall & Deco",
    "collection": "2010",
    "width": 3290,
    "height": 3100
  },
  {
    "category": "wallpaper",
    "src": "assets/products/oboi/wall&deco/2010/GPW1006 COL 4.jpg",
    "brand": "Wall & Deco",
    "collection": "2010",
    "width": 3290,
    "height": 3100
  },

  {
    "category": "wallpaper",
    "src": "assets/products/oboi/wall&deco/2010/TANGERINE.jpg",
    "brand": "Wall & Deco",
    "collection": "2010",
    "width": 4230,
    "height": 3000
  },

  {
    "category": "wallpaper",
    "src": "assets/products/oboi/wall&deco/2010/GPW0902 B COL 1.jpg",
    "brand": "Wall & Deco",
    "collection": "2010",
    "width": 4230,
    "height": 3000
  },
  {
    "category": "wallpaper",
    "src": "assets/products/oboi/wall&deco/2010/GPW0902 B COL 2.jpg",
    "brand": "Wall & Deco",
    "collection": "2010",
    "width": 4230,
    "height": 3000
  },
  {
    "category": "wallpaper",
    "src": "assets/products/oboi/wall&deco/2010/GPW0902 B COL 3.jpg",
    "brand": "Wall & Deco",
    "collection": "2010",
    "width": 4230,
    "height": 3000
  },

  {
    "category": "wallpaper",
    "src": "assets/products/oboi/wall&deco/2010/GPW0904 C COL 2.jpg",
    "brand": "Wall & Deco",
    "collection": "2010",
    "width": 3760,
    "height": 3000
  },
  {
    "category": "wallpaper",
    "src": "assets/products/oboi/wall&deco/2010/GPW0904 C.jpg",
    "brand": "Wall & Deco",
    "collection": "2010",
    "width": 3760,
    "height": 3000
  },

  {
    "category": "wallpaper",
    "src": "assets/products/oboi/wall&deco/2010/GPW0903 COL1.jpg",
    "brand": "Wall & Deco",
    "collection": "2010",
    "width": 4230,
    "height": 3000
  },
  {
    "category": "wallpaper",
    "src": "assets/products/oboi/wall&deco/2010/GPW0903 COL2.jpg",
    "brand": "Wall & Deco",
    "collection": "2010",
    "width": 4230,
    "height": 3000
  },

  {
    "category": "wallpaper",
    "src": "assets/products/oboi/wall&deco/2010/GPW0906 A.jpg",
    "brand": "Wall & Deco",
    "collection": "2010",
    "width": 4230,
    "height": 3000
  },
  {
    "category": "wallpaper",
    "src": "assets/products/oboi/wall&deco/2010/GPW0907 A.jpg",
    "brand": "Wall & Deco",
    "collection": "2010",
    "width": 4700,
    "height": 3000
  },
  {
    "category": "wallpaper",
    "src": "assets/products/oboi/wall&deco/2010/GPW0908 C.jpg",
    "brand": "Wall & Deco",
    "collection": "2010",
    "width": 4230,
    "height": 3000
  },

  {
    "category": "wallpaper",
    "src": "assets/products/oboi/wall&deco/2010/GPW0901 B COL 1.jpg",
    "brand": "Wall & Deco",
    "collection": "2010",
    "width": 3290,
    "height": 3000
  },
  {
    "category": "wallpaper",
    "src": "assets/products/oboi/wall&deco/2010/GPW0901 B COL 2.jpg",
    "brand": "Wall & Deco",
    "collection": "2010",
    "width": 3290,
    "height": 3000
  },
  {
    "category": "wallpaper",
    "src": "assets/products/oboi/wall&deco/2010/GPW0901 B COL 3.jpg",
    "brand": "Wall & Deco",
    "collection": "2010",
    "width": 3290,
    "height": 3000
  },
  {
    "category": "wallpaper",
    "src": "assets/products/oboi/wall&deco/2010/GPW0901 B COL 4.jpg",
    "brand": "Wall & Deco",
    "collection": "2010",
    "width": 3290,
    "height": 3000
  }
]
