[
  {
    "category": "wallpaper",
    "src": "assets/products/oboi/wall&deco/2011/WDNP1101.jpg",
    "brand": "Wall & Deco",
    "collection": "2011",
    "width": 3290,
    "height": 3000
  },
  {
    "category": "wallpaper",
    "src": "assets/products/oboi/wall&deco/2011/WDNP1102.jpg",
    "brand": "Wall & Deco",
    "collection": "2011",
    "width": 3290,
    "height": 3000
  },

  {
    "category": "wallpaper",
    "src": "assets/products/oboi/wall&deco/2011/WDPA1101.jpg",
    "brand": "Wall & Deco",
    "collection": "2011",
    "width": 3760,
    "height": 3000
  },
  {
    "category": "wallpaper",
    "src": "assets/products/oboi/wall&deco/2011/WDPA1102.jpg",
    "brand": "Wall & Deco",
    "collection": "2011",
    "width": 3760,
    "height": 3000
  },

  {
    "category": "wallpaper",
    "src": "assets/products/oboi/wall&deco/2011/WDAZ1101.jpg",
    "brand": "Wall & Deco",
    "collection": "2011",
    "width": 1410,
    "height": 3000
  },
  {
    "category": "wallpaper",
    "src": "assets/products/oboi/wall&deco/2011/WDAZ1102.jpg",
    "brand": "Wall & Deco",
    "collection": "2011",
    "width": 1410,
    "height": 3000
  },

  {
    "category": "wallpaper",
    "src": "assets/products/oboi/wall&deco/2011/WDFF1101.jpg",
    "brand": "Wall & Deco",
    "collection": "2011",
    "width": 4230,
    "height": 3000
  },
  {
    "category": "wallpaper",
    "src": "assets/products/oboi/wall&deco/2011/WDFF1102.jpg",
    "brand": "Wall & Deco",
    "collection": "2011",
    "width": 4230,
    "height": 3000
  },

  {
    "category": "wallpaper",
    "src": "assets/products/oboi/wall&deco/2011/WDCO1101.jpg",
    "brand": "Wall & Deco",
    "collection": "2011",
    "width": 3290,
    "height": 3000
  },
  {
    "category": "wallpaper",
    "src": "assets/products/oboi/wall&deco/2011/WDCO1102.jpg",
    "brand": "Wall & Deco",
    "collection": "2011",
    "width": 3290,
    "height": 3000
  },

  {
    "category": "wallpaper",
    "src": "assets/products/oboi/wall&deco/2011/WDFA1101.jpg",
    "brand": "Wall & Deco",
    "collection": "2011",
    "width": 3290,
    "height": 3000
  },
  {
    "category": "wallpaper",
    "src": "assets/products/oboi/wall&deco/2011/WDFA1102.jpg",
    "brand": "Wall & Deco",
    "collection": "2011",
    "width": 3290,
    "height": 3000
  },

  {
    "category": "wallpaper",
    "src": "assets/products/oboi/wall&deco/2011/WDRL1101.jpg",
    "brand": "Wall & Deco",
    "collection": "2011",
    "width": 2820,
    "height": 3000
  },
  {
    "category": "wallpaper",
    "src": "assets/products/oboi/wall&deco/2011/WDRL1102.jpg",
    "brand": "Wall & Deco",
    "collection": "2011",
    "width": 2820,
    "height": 3000
  },

  {
    "category": "wallpaper",
    "src": "assets/products/oboi/wall&deco/2011/WDRA1101.jpg",
    "brand": "Wall & Deco",
    "collection": "2011",
    "width": 2820,
    "height": 3000
  },
  {
    "category": "wallpaper",
    "src": "assets/products/oboi/wall&deco/2011/WDRA1102.jpg",
    "brand": "Wall & Deco",
    "collection": "2011",
    "width": 2820,
    "height": 3000
  },

  {
    "category": "wallpaper",
    "src": "assets/products/oboi/wall&deco/2011/WDFP1101.jpg",
    "brand": "Wall & Deco",
    "collection": "2011",
    "width": 5640,
    "height": 3000
  },
  {
    "category": "wallpaper",
    "src": "assets/products/oboi/wall&deco/2011/WDFP1102.jpg",
    "brand": "Wall & Deco",
    "collection": "2011",
    "width": 5640,
    "height": 3000
  },

  {
    "category": "wallpaper",
    "src": "assets/products/oboi/wall&deco/2011/WDAS1101.jpg",
    "brand": "Wall & Deco",
    "collection": "2011",
    "width": 3290,
    "height": 3000
  },
  {
    "category": "wallpaper",
    "src": "assets/products/oboi/wall&deco/2011/WDAS1102.jpg",
    "brand": "Wall & Deco",
    "collection": "2011",
    "width": 3290,
    "height": 3000
  },

  {
    "category": "wallpaper",
    "src": "assets/products/oboi/wall&deco/2011/WDSI1101.jpg",
    "brand": "Wall & Deco",
    "collection": "2011",
    "width": 3290,
    "height": 3000
  },
  {
    "category": "wallpaper",
    "src": "assets/products/oboi/wall&deco/2011/WDSI1102.jpg",
    "brand": "Wall & Deco",
    "collection": "2011",
    "width": 3290,
    "height": 3000
  },

  {
    "category": "wallpaper",
    "src": "assets/products/oboi/wall&deco/2011/WDST1101.jpg",
    "brand": "Wall & Deco",
    "collection": "2011",
    "width": 3290,
    "height": 3000
  },
  {
    "category": "wallpaper",
    "src": "assets/products/oboi/wall&deco/2011/WDST1102.jpg",
    "brand": "Wall & Deco",
    "collection": "2011",
    "width": 3290,
    "height": 3000
  },
  {
    "category": "wallpaper",
    "src": "assets/products/oboi/wall&deco/2011/WDST1103.jpg",
    "brand": "Wall & Deco",
    "collection": "2011",
    "width": 3290,
    "height": 3000
  },

  {
    "category": "wallpaper",
    "src": "assets/products/oboi/wall&deco/2011/WDHE1101.jpg",
    "brand": "Wall & Deco",
    "collection": "2011",
    "width": 4230,
    "height": 3000
  },
  {
    "category": "wallpaper",
    "src": "assets/products/oboi/wall&deco/2011/WDHE1102.jpg",
    "brand": "Wall & Deco",
    "collection": "2011",
    "width": 4230,
    "height": 3000
  },

  {
    "category": "wallpaper",
    "src": "assets/products/oboi/wall&deco/2011/WDSL1101.jpg",
    "brand": "Wall & Deco",
    "collection": "2011",
    "width": 8460,
    "height": 3000
  },
  {
    "category": "wallpaper",
    "src": "assets/products/oboi/wall&deco/2011/WDSL1102.jpg",
    "brand": "Wall & Deco",
    "collection": "2011",
    "width": 8460,
    "height": 3000
  },

  {
    "category": "wallpaper",
    "src": "assets/products/oboi/wall&deco/2011/WDWA1101.jpg",
    "brand": "Wall & Deco",
    "collection": "2011",
    "width": 2820,
    "height": 3000
  },
  {
    "category": "wallpaper",
    "src": "assets/products/oboi/wall&deco/2011/WDWA1102.jpg",
    "brand": "Wall & Deco",
    "collection": "2011",
    "width": 2820,
    "height": 3000
  },

  {
    "category": "wallpaper",
    "src": "assets/products/oboi/wall&deco/2011/WDSV1101.jpg",
    "brand": "Wall & Deco",
    "collection": "2011",
    "width": 1880,
    "height": 3000
  },
  {
    "category": "wallpaper",
    "src": "assets/products/oboi/wall&deco/2011/WDSV1102.jpg",
    "brand": "Wall & Deco",
    "collection": "2011",
    "width": 1880,
    "height": 3000
  },

  {
    "category": "wallpaper",
    "src": "assets/products/oboi/wall&deco/2011/WDAM1101.jpg",
    "brand": "Wall & Deco",
    "collection": "2011",
    "width": 1880,
    "height": 3000
  },
  {
    "category": "wallpaper",
    "src": "assets/products/oboi/wall&deco/2011/WDAM1102.jpg",
    "brand": "Wall & Deco",
    "collection": "2011",
    "width": 1880,
    "height": 3000
  },

  {
    "category": "wallpaper",
    "src": "assets/products/oboi/wall&deco/2011/WDLM1101.jpg",
    "brand": "Wall & Deco",
    "collection": "2011",
    "width": 2350,
    "height": 3000
  },
  {
    "category": "wallpaper",
    "src": "assets/products/oboi/wall&deco/2011/WDLM1102.jpg",
    "brand": "Wall & Deco",
    "collection": "2011",
    "width": 2350,
    "height": 3000
  },

  {
    "category": "wallpaper",
    "src": "assets/products/oboi/wall&deco/2011/WDSY1101.jpg",
    "brand": "Wall & Deco",
    "collection": "2011",
    "width": 2820,
    "height": 3000
  },
  {
    "category": "wallpaper",
    "src": "assets/products/oboi/wall&deco/2011/WDSY1102.jpg",
    "brand": "Wall & Deco",
    "collection": "2011",
    "width": 2820,
    "height": 3000
  },

  {
    "category": "wallpaper",
    "src": "assets/products/oboi/wall&deco/2011/WDGG1101.jpg",
    "brand": "Wall & Deco",
    "collection": "2011",
    "width": 7520,
    "height": 3000
  },
  {
    "category": "wallpaper",
    "src": "assets/products/oboi/wall&deco/2011/WDGG1102.jpg",
    "brand": "Wall & Deco",
    "collection": "2011",
    "width": 7520,
    "height": 3000
  },

  {
    "category": "wallpaper",
    "src": "assets/products/oboi/wall&deco/2011/BBAE1101.jpg",
    "brand": "Wall & Deco",
    "collection": "2011",
    "width": 4230,
    "height": 3000
  },
  {
    "category": "wallpaper",
    "src": "assets/products/oboi/wall&deco/2011/BBAE1102.jpg",
    "brand": "Wall & Deco",
    "collection": "2011",
    "width": 4230,
    "height": 3000
  },

  {
    "category": "wallpaper",
    "src": "assets/products/oboi/wall&deco/2011/BBBF1101.jpg",
    "brand": "Wall & Deco",
    "collection": "2011",
    "width": 4230,
    "height": 3000
  },
  {
    "category": "wallpaper",
    "src": "assets/products/oboi/wall&deco/2011/BBBF1102.jpg",
    "brand": "Wall & Deco",
    "collection": "2011",
    "width": 4230,
    "height": 3000
  },

  {
    "category": "wallpaper",
    "src": "assets/products/oboi/wall&deco/2011/BBDE1101.jpg",
    "brand": "Wall & Deco",
    "collection": "2011",
    "width": 3290,
    "height": 3000
  },
  {
    "category": "wallpaper",
    "src": "assets/products/oboi/wall&deco/2011/BBDE1102.jpg",
    "brand": "Wall & Deco",
    "collection": "2011",
    "width": 3290,
    "height": 3000
  },

  {
    "category": "wallpaper",
    "src": "assets/products/oboi/wall&deco/2011/BBGA1101 A.jpg",
    "brand": "Wall & Deco",
    "collection": "2011",
    "width": 3290,
    "height": 3000
  },
  {
    "category": "wallpaper",
    "src": "assets/products/oboi/wall&deco/2011/BBGA1102 A.jpg",
    "brand": "Wall & Deco",
    "collection": "2011",
    "width": 3290,
    "height": 3000
  },

  {
    "category": "wallpaper",
    "src": "assets/products/oboi/wall&deco/2011/BBRE1101.jpg",
    "brand": "Wall & Deco",
    "collection": "2011",
    "width": 4230,
    "height": 3000
  },
  {
    "category": "wallpaper",
    "src": "assets/products/oboi/wall&deco/2011/BBRE1102.jpg",
    "brand": "Wall & Deco",
    "collection": "2011",
    "width": 4230,
    "height": 3000
  },

  {
    "category": "wallpaper",
    "src": "assets/products/oboi/wall&deco/2011/BBWC1101.jpg",
    "brand": "Wall & Deco",
    "collection": "2011",
    "width": 4230,
    "height": 3000
  },
  {
    "category": "wallpaper",
    "src": "assets/products/oboi/wall&deco/2011/BBWC1102.jpg",
    "brand": "Wall & Deco",
    "collection": "2011",
    "width": 4230,
    "height": 3000
  },

  {
    "category": "wallpaper",
    "src": "assets/products/oboi/wall&deco/2011/GPW1116 A.jpg",
    "brand": "Wall & Deco",
    "collection": "2011",
    "width": 4700,
    "height": 3100
  },
  {
    "category": "wallpaper",
    "src": "assets/products/oboi/wall&deco/2011/GPW1117 A.jpg",
    "brand": "Wall & Deco",
    "collection": "2011",
    "width": 4700,
    "height": 3100
  },

  {
    "category": "wallpaper",
    "src": "assets/products/oboi/wall&deco/2011/Flake off.jpg",
    "brand": "Wall & Deco",
    "collection": "2011",
    "width": 4700,
    "height": 3100
  },

  {
    "category": "wallpaper",
    "src": "assets/products/oboi/wall&deco/2011/GPW1118 C.jpg",
    "brand": "Wall & Deco",
    "collection": "2011",
    "width": 4700,
    "height": 3100
  },

  {
    "category": "wallpaper",
    "src": "assets/products/oboi/wall&deco/2011/GPW1112.jpg",
    "brand": "Wall & Deco",
    "collection": "2011",
    "width": 4700,
    "height": 3100
  },
  {
    "category": "wallpaper",
    "src": "assets/products/oboi/wall&deco/2011/GPW1113.jpg",
    "brand": "Wall & Deco",
    "collection": "2011",
    "width": 4700,
    "height": 3100
  },
  {
    "category": "wallpaper",
    "src": "assets/products/oboi/wall&deco/2011/GPW1114.jpg",
    "brand": "Wall & Deco",
    "collection": "2011",
    "width": 4700,
    "height": 3100
  },
  {
    "category": "wallpaper",
    "src": "assets/products/oboi/wall&deco/2011/GPW1115.jpg",
    "brand": "Wall & Deco",
    "collection": "2011",
    "width": 4700,
    "height": 3100
  },

  {
    "category": "wallpaper",
    "src": "assets/products/oboi/wall&deco/2011/GPW1105.jpg",
    "brand": "Wall & Deco",
    "collection": "2011",
    "width": 4700,
    "height": 3100
  },
  {
    "category": "wallpaper",
    "src": "assets/products/oboi/wall&deco/2011/GPW1106.jpg",
    "brand": "Wall & Deco",
    "collection": "2011",
    "width": 4700,
    "height": 3100
  },

  {
    "category": "wallpaper",
    "src": "assets/products/oboi/wall&deco/2011/GPW1121.jpg",
    "brand": "Wall & Deco",
    "collection": "2011",
    "width": 4700,
    "height": 3100
  },
  {
    "category": "wallpaper",
    "src": "assets/products/oboi/wall&deco/2011/GPW1122.jpg",
    "brand": "Wall & Deco",
    "collection": "2011",
    "width": 4700,
    "height": 3100
  },

  {
    "category": "wallpaper",
    "src": "assets/products/oboi/wall&deco/2011/GPW1107.jpg",
    "brand": "Wall & Deco",
    "collection": "2011",
    "width": 4700,
    "height": 3100
  },
  {
    "category": "wallpaper",
    "src": "assets/products/oboi/wall&deco/2011/GPW1108.jpg",
    "brand": "Wall & Deco",
    "collection": "2011",
    "width": 4700,
    "height": 3100
  },

  {
    "category": "wallpaper",
    "src": "assets/products/oboi/wall&deco/2011/GPW1119 COL 1.jpg",
    "brand": "Wall & Deco",
    "collection": "2011",
    "width": 4700,
    "height": 3100
  },
  {
    "category": "wallpaper",
    "src": "assets/products/oboi/wall&deco/2011/GPW1119 COL 2.jpg",
    "brand": "Wall & Deco",
    "collection": "2011",
    "width": 4700,
    "height": 3100
  },
  {
    "category": "wallpaper",
    "src": "assets/products/oboi/wall&deco/2011/GPW1120 COL 1.jpg",
    "brand": "Wall & Deco",
    "collection": "2011",
    "width": 4700,
    "height": 3100
  },
  {
    "category": "wallpaper",
    "src": "assets/products/oboi/wall&deco/2011/GPW1120 COL 2.jpg",
    "brand": "Wall & Deco",
    "collection": "2011",
    "width": 4700,
    "height": 3100
  },

  {
    "category": "wallpaper",
    "src": "assets/products/oboi/wall&deco/2011/GPW1109 A.jpg",
    "brand": "Wall & Deco",
    "collection": "2011",
    "width": 4700,
    "height": 3100
  },
  {
    "category": "wallpaper",
    "src": "assets/products/oboi/wall&deco/2011/GPW1110 A.jpg",
    "brand": "Wall & Deco",
    "collection": "2011",
    "width": 4700,
    "height": 3100
  },
  {
    "category": "wallpaper",
    "src": "assets/products/oboi/wall&deco/2011/GPW1111 A.jpg",
    "brand": "Wall & Deco",
    "collection": "2011",
    "width": 4700,
    "height": 3100
  }


]
