
[
  {
    "category": "wallpaper",
    "src": "assets/products/oboi/wall&deco/2014/WDIP1401.jpg",
    "brand": "Wall & Deco",
    "collection": "2014",
    "width": 2820,
    "height": 3000
  },
  {
    "category": "wallpaper",
    "src": "assets/products/oboi/wall&deco/2014/WDIP1402.jpg",
    "brand": "Wall & Deco",
    "collection": "2014",
    "width": 2820,
    "height": 3000
  },

  {
    "category": "wallpaper",
    "src": "assets/products/oboi/wall&deco/2014/WDEA1401.jpg",
    "brand": "Wall & Deco",
    "collection": "2014",
    "width": 4700,
    "height": 3000
  },
  {
    "category": "wallpaper",
    "src": "assets/products/oboi/wall&deco/2014/WDEA1402.jpg",
    "brand": "Wall & Deco",
    "collection": "2014",
    "width": 4700,
    "height": 3000
  },

  {
    "category": "wallpaper",
    "src": "assets/products/oboi/wall&deco/2014/WDAV1401.jpg",
    "brand": "Wall & Deco",
    "collection": "2014",
    "width": 2820,
    "height": 3000
  },
  {
    "category": "wallpaper",
    "src": "assets/products/oboi/wall&deco/2014/WDAV1402 A.jpg",
    "brand": "Wall & Deco",
    "collection": "2014",
    "width": 2350,
    "height": 3000
  },

  {
    "category": "wallpaper",
    "src": "assets/products/oboi/wall&deco/2014/WDUL1401.jpg",
    "brand": "Wall & Deco",
    "collection": "2014",
    "width": 4230,
    "height": 3000
  },
  {
    "category": "wallpaper",
    "src": "assets/products/oboi/wall&deco/2014/WDUL1402.jpg",
    "brand": "Wall & Deco",
    "collection": "2014",
    "width": 4230,
    "height": 3000
  },

  {
    "category": "wallpaper",
    "src": "assets/products/oboi/wall&deco/2014/WDMI1401 A.jpg",
    "brand": "Wall & Deco",
    "collection": "2014",
    "width": 3290,
    "height": 3000
  },
  {
    "category": "wallpaper",
    "src": "assets/products/oboi/wall&deco/2014/WDMI1402 A.jpg",
    "brand": "Wall & Deco",
    "collection": "2014",
    "width": 3290,
    "height": 3000
  },

  {
    "category": "wallpaper",
    "src": "assets/products/oboi/wall&deco/2014/WDCA1401.jpg",
    "brand": "Wall & Deco",
    "collection": "2014",
    "width": 1880,
    "height": 3000
  },
  {
    "category": "wallpaper",
    "src": "assets/products/oboi/wall&deco/2014/WDCA1402.jpg",
    "brand": "Wall & Deco",
    "collection": "2014",
    "width": 1880,
    "height": 3000
  },

  {
    "category": "wallpaper",
    "src": "assets/products/oboi/wall&deco/2014/WDBO1401.jpg",
    "brand": "Wall & Deco",
    "collection": "2014",
    "width": 4230,
    "height": 3000
  },
  {
    "category": "wallpaper",
    "src": "assets/products/oboi/wall&deco/2014/WDBO1402.jpg",
    "brand": "Wall & Deco",
    "collection": "2014",
    "width": 4230,
    "height": 3000
  },

  {
    "category": "wallpaper",
    "src": "assets/products/oboi/wall&deco/2014/WDDU1401.jpg",
    "brand": "Wall & Deco",
    "collection": "2014",
    "width": 4230,
    "height": 3000
  },
  {
    "category": "wallpaper",
    "src": "assets/products/oboi/wall&deco/2014/WDDU1402.jpg",
    "brand": "Wall & Deco",
    "collection": "2014",
    "width": 4230,
    "height": 3000
  },

  {
    "category": "wallpaper",
    "src": "assets/products/oboi/wall&deco/2014/WDCP1401 A.jpg",
    "brand": "Wall & Deco",
    "collection": "2014",
    "width": 4230,
    "height": 3000
  },
  {
    "category": "wallpaper",
    "src": "assets/products/oboi/wall&deco/2014/WDCU1402 A.jpg",
    "brand": "Wall & Deco",
    "collection": "2014",
    "width": 4230,
    "height": 3000
  },

  {
    "category": "wallpaper",
    "src": "assets/products/oboi/wall&deco/2014/WDIM1401.jpg",
    "brand": "Wall & Deco",
    "collection": "2014",
    "width": 4700,
    "height": 3000
  },
  {
    "category": "wallpaper",
    "src": "assets/products/oboi/wall&deco/2014/WDIM1402.jpg",
    "brand": "Wall & Deco",
    "collection": "2014",
    "width": 4700,
    "height": 3000
  },

  {
    "category": "wallpaper",
    "src": "assets/products/oboi/wall&deco/2014/WDFL1401.jpg",
    "brand": "Wall & Deco",
    "collection": "2014",
    "width": 2350,
    "height": 3000
  },
  {
    "category": "wallpaper",
    "src": "assets/products/oboi/wall&deco/2014/WDFL1402.jpg",
    "brand": "Wall & Deco",
    "collection": "2014",
    "width": 2350,
    "height": 3000
  },

  {
    "category": "wallpaper",
    "src": "assets/products/oboi/wall&deco/2014/WDSC1401.jpg",
    "brand": "Wall & Deco",
    "collection": "2014",
    "width": 2820,
    "height": 3000
  },
  {
    "category": "wallpaper",
    "src": "assets/products/oboi/wall&deco/2014/WDSC1402.jpg",
    "brand": "Wall & Deco",
    "collection": "2014",
    "width": 2820,
    "height": 3000
  },

  {
    "category": "wallpaper",
    "src": "assets/products/oboi/wall&deco/2014/WDRC1401.jpg",
    "brand": "Wall & Deco",
    "collection": "2014",
    "width": 2350,
    "height": 3000
  },
  {
    "category": "wallpaper",
    "src": "assets/products/oboi/wall&deco/2014/WDRC1402.jpg",
    "brand": "Wall & Deco",
    "collection": "2014",
    "width": 2350,
    "height": 3000
  },

  {
    "category": "wallpaper",
    "src": "assets/products/oboi/wall&deco/2014/WDRE1401.jpg",
    "brand": "Wall & Deco",
    "collection": "2014",
    "width": 4230,
    "height": 3000
  },
  {
    "category": "wallpaper",
    "src": "assets/products/oboi/wall&deco/2014/WDRE1402.jpg",
    "brand": "Wall & Deco",
    "collection": "2014",
    "width": 4230,
    "height": 3000
  },
  {
    "category": "wallpaper",
    "src": "assets/products/oboi/wall&deco/2014/WDRE1403.jpg",
    "brand": "Wall & Deco",
    "collection": "2014",
    "width": 4230,
    "height": 3000
  },

  {
    "category": "wallpaper",
    "src": "assets/products/oboi/wall&deco/2014/WDDI1401.jpg",
    "brand": "Wall & Deco",
    "collection": "2014",
    "width": 4230,
    "height": 3000
  },
  {
    "category": "wallpaper",
    "src": "assets/products/oboi/wall&deco/2014/WDDI1402.jpg",
    "brand": "Wall & Deco",
    "collection": "2014",
    "width": 4230,
    "height": 3000
  },

  {
    "category": "wallpaper",
    "src": "assets/products/oboi/wall&deco/2014/WDBE1401.jpg",
    "brand": "Wall & Deco",
    "collection": "2014",
    "width": 8460,
    "height": 3000
  },
  {
    "category": "wallpaper",
    "src": "assets/products/oboi/wall&deco/2014/WDBE1402.jpg",
    "brand": "Wall & Deco",
    "collection": "2014",
    "width": 8460,
    "height": 3000
  },

  {
    "category": "wallpaper",
    "src": "assets/products/oboi/wall&deco/2014/WDCH1401 A.jpg",
    "brand": "Wall & Deco",
    "collection": "2014",
    "width": 4230,
    "height": 3000
  },
  {
    "category": "wallpaper",
    "src": "assets/products/oboi/wall&deco/2014/WDCH1402 A.jpg",
    "brand": "Wall & Deco",
    "collection": "2014",
    "width": 4230,
    "height": 3000
  },

  {
    "category": "wallpaper",
    "src": "assets/products/oboi/wall&deco/2014/WDAG1401 A.jpg",
    "brand": "Wall & Deco",
    "collection": "2014",
    "width": 4700,
    "height": 3000
  },
  {
    "category": "wallpaper",
    "src": "assets/products/oboi/wall&deco/2014/WDAG1402 A.jpg",
    "brand": "Wall & Deco",
    "collection": "2014",
    "width": 4700,
    "height": 3000
  },

  {
    "category": "wallpaper",
    "src": "assets/products/oboi/wall&deco/2014/WDTR1401.jpg",
    "brand": "Wall & Deco",
    "collection": "2014",
    "width": 3760,
    "height": 3000
  },
  {
    "category": "wallpaper",
    "src": "assets/products/oboi/wall&deco/2014/WDTR1402.jpg",
    "brand": "Wall & Deco",
    "collection": "2014",
    "width": 3760,
    "height": 3000
  },

  {
    "category": "wallpaper",
    "src": "assets/products/oboi/wall&deco/2014/WDAR1401.jpg",
    "brand": "Wall & Deco",
    "collection": "2014",
    "width": 7050,
    "height": 3000
  },
  {
    "category": "wallpaper",
    "src": "assets/products/oboi/wall&deco/2014/WDAR1402.jpg",
    "brand": "Wall & Deco",
    "collection": "2014",
    "width": 7050,
    "height": 3000
  },

  {
    "category": "wallpaper",
    "src": "assets/products/oboi/wall&deco/2014/WDGW1401.jpg",
    "brand": "Wall & Deco",
    "collection": "2014",
    "width": 3290,
    "height": 3000
  },
  {
    "category": "wallpaper",
    "src": "assets/products/oboi/wall&deco/2014/WDGW1402.jpg",
    "brand": "Wall & Deco",
    "collection": "2014",
    "width": 3290,
    "height": 3000
  },
  {
    "category": "wallpaper",
    "src": "assets/products/oboi/wall&deco/2014/WDGW1403.jpg",
    "brand": "Wall & Deco",
    "collection": "2014",
    "width": 3290,
    "height": 3000
  },

  {
    "category": "wallpaper",
    "src": "assets/products/oboi/wall&deco/2014/WDLS1401 A.jpg",
    "brand": "Wall & Deco",
    "collection": "2014",
    "width": 4230,
    "height": 3000
  },
  {
    "category": "wallpaper",
    "src": "assets/products/oboi/wall&deco/2014/WDLS1402 A.jpg",
    "brand": "Wall & Deco",
    "collection": "2014",
    "width": 4230,
    "height": 3000
  },

  {
    "category": "wallpaper",
    "src": "assets/products/oboi/wall&deco/2014/WDWN1401.jpg",
    "brand": "Wall & Deco",
    "collection": "2014",
    "width": 5640,
    "height": 3000
  },
  {
    "category": "wallpaper",
    "src": "assets/products/oboi/wall&deco/2014/WDWN1402.jpg",
    "brand": "Wall & Deco",
    "collection": "2014",
    "width": 5640,
    "height": 3000
  },

  {
    "category": "wallpaper",
    "src": "assets/products/oboi/wall&deco/2014/WDYE1401 A.jpg",
    "brand": "Wall & Deco",
    "collection": "2014",
    "width": 2350,
    "height": 3000
  },
  {
    "category": "wallpaper",
    "src": "assets/products/oboi/wall&deco/2014/WDYE1402 A.jpg",
    "brand": "Wall & Deco",
    "collection": "2014",
    "width": 2350,
    "height": 3000
  },
  {
    "category": "wallpaper",
    "src": "assets/products/oboi/wall&deco/2014/WDYE1403 A.jpg",
    "brand": "Wall & Deco",
    "collection": "2014",
    "width": 2350,
    "height": 3000
  },

  {
    "category": "wallpaper",
    "src": "assets/products/oboi/wall&deco/2014/WDMV1401 A.jpg",
    "brand": "Wall & Deco",
    "collection": "2014",
    "width": 3290,
    "height": 3000
  },
  {
    "category": "wallpaper",
    "src": "assets/products/oboi/wall&deco/2014/WDMV1402.jpg",
    "brand": "Wall & Deco",
    "collection": "2014",
    "width": 3290,
    "height": 3000
  },

  {
    "category": "wallpaper",
    "src": "assets/products/oboi/wall&deco/2014/WDAN1401.jpg",
    "brand": "Wall & Deco",
    "collection": "2014",
    "width": 4230,
    "height": 3000
  },
  {
    "category": "wallpaper",
    "src": "assets/products/oboi/wall&deco/2014/WDAN1402.jpg",
    "brand": "Wall & Deco",
    "collection": "2014",
    "width": 4230,
    "height": 3000
  },

  {
    "category": "wallpaper",
    "src": "assets/products/oboi/wall&deco/2014/WDJU1401 A.jpg",
    "brand": "Wall & Deco",
    "collection": "2014",
    "width": 3290,
    "height": 3000
  },
  {
    "category": "wallpaper",
    "src": "assets/products/oboi/wall&deco/2014/WDJU1402 A.jpg",
    "brand": "Wall & Deco",
    "collection": "2014",
    "width": 3290,
    "height": 3000
  },

  {
    "category": "wallpaper",
    "src": "assets/products/oboi/wall&deco/2014/WDBS1401.jpg",
    "brand": "Wall & Deco",
    "collection": "2014",
    "width": 4230,
    "height": 3000
  },
  {
    "category": "wallpaper",
    "src": "assets/products/oboi/wall&deco/2014/WDBS1402.jpg",
    "brand": "Wall & Deco",
    "collection": "2014",
    "width": 4230,
    "height": 3000
  },

  {
    "category": "wallpaper",
    "src": "assets/products/oboi/wall&deco/2014/WD241401 A.jpg",
    "brand": "Wall & Deco",
    "collection": "2014",
    "width": 4230,
    "height": 3000
  },
  {
    "category": "wallpaper",
    "src": "assets/products/oboi/wall&deco/2014/WD241402 A.jpg",
    "brand": "Wall & Deco",
    "collection": "2014",
    "width": 4230,
    "height": 3000
  },

  {
    "category": "wallpaper",
    "src": "assets/products/oboi/wall&deco/2014/WDKB1401.jpg",
    "brand": "Wall & Deco",
    "collection": "2014",
    "width": 6580,
    "height": 3000
  },
  {
    "category": "wallpaper",
    "src": "assets/products/oboi/wall&deco/2014/WDKB1402 A.jpg",
    "brand": "Wall & Deco",
    "collection": "2014",
    "width": 6580,
    "height": 3000
  },

  {
    "category": "wallpaper",
    "src": "assets/products/oboi/wall&deco/2014/WDCO1401.jpg",
    "brand": "Wall & Deco",
    "collection": "2014",
    "width": 5640,
    "height": 3000
  },
  {
    "category": "wallpaper",
    "src": "assets/products/oboi/wall&deco/2014/WDCO1402.jpg",
    "brand": "Wall & Deco",
    "collection": "2014",
    "width": 5640,
    "height": 3000
  },

  {
    "category": "wallpaper",
    "src": "assets/products/oboi/wall&deco/2014/WDMM1401 A.jpg",
    "brand": "Wall & Deco",
    "collection": "2014",
    "width": 4230,
    "height": 3000
  },
  {
    "category": "wallpaper",
    "src": "assets/products/oboi/wall&deco/2014/WDMM1402 A.jpg",
    "brand": "Wall & Deco",
    "collection": "2014",
    "width": 4230,
    "height": 3000
  },

  {
    "category": "wallpaper",
    "src": "assets/products/oboi/wall&deco/2014/WDDC1401.jpg",
    "brand": "Wall & Deco",
    "collection": "2014",
    "width": 3290,
    "height": 3000
  },
  {
    "category": "wallpaper",
    "src": "assets/products/oboi/wall&deco/2014/WDDC1402.jpg",
    "brand": "Wall & Deco",
    "collection": "2014",
    "width": 3290,
    "height": 3000
  },

  {
    "category": "wallpaper",
    "src": "assets/products/oboi/wall&deco/2014/WDSB1401 A.jpg",
    "brand": "Wall & Deco",
    "collection": "2014",
    "width": 4700,
    "height": 3000
  },
  {
    "category": "wallpaper",
    "src": "assets/products/oboi/wall&deco/2014/WDSB1402 A.jpg",
    "brand": "Wall & Deco",
    "collection": "2014",
    "width": 4700,
    "height": 3000
  },
  {
    "category": "wallpaper",
    "src": "assets/products/oboi/wall&deco/2014/WDSB1403 A_1.jpg",
    "brand": "Wall & Deco",
    "collection": "2014",
    "width": 4700,
    "height": 3000
  },

  {
    "category": "wallpaper",
    "src": "assets/products/oboi/wall&deco/2014/WDGO1401.jpg",
    "brand": "Wall & Deco",
    "collection": "2014",
    "width": 3760,
    "height": 3000
  },
  {
    "category": "wallpaper",
    "src": "assets/products/oboi/wall&deco/2014/WDGO1402_1.jpg",
    "brand": "Wall & Deco",
    "collection": "2014",
    "width": 3760,
    "height": 3000
  },

  {
    "category": "wallpaper",
    "src": "assets/products/oboi/wall&deco/2014/WDSI1401.jpg",
    "brand": "Wall & Deco",
    "collection": "2014",
    "width": 3760,
    "height": 3000
  },
  {
    "category": "wallpaper",
    "src": "assets/products/oboi/wall&deco/2014/WDSI1402.jpg",
    "brand": "Wall & Deco",
    "collection": "2014",
    "width": 3760,
    "height": 3000
  },

  {
    "category": "wallpaper",
    "src": "assets/products/oboi/wall&deco/2014/WDCR1401.jpg",
    "brand": "Wall & Deco",
    "collection": "2014",
    "width": 3290,
    "height": 3000
  },
  {
    "category": "wallpaper",
    "src": "assets/products/oboi/wall&deco/2014/WDCR1402.jpg",
    "brand": "Wall & Deco",
    "collection": "2014",
    "width": 3290,
    "height": 3000
  },

  {
    "category": "wallpaper",
    "src": "assets/products/oboi/wall&deco/2014/WDSE1401.jpg",
    "brand": "Wall & Deco",
    "collection": "2014",
    "width": 4230,
    "height": 3000
  },
  {
    "category": "wallpaper",
    "src": "assets/products/oboi/wall&deco/2014/WDSE1402.jpg",
    "brand": "Wall & Deco",
    "collection": "2014",
    "width": 4230,
    "height": 3000
  },

  {
    "category": "wallpaper",
    "src": "assets/products/oboi/wall&deco/2014/WDFW1401.jpg",
    "brand": "Wall & Deco",
    "collection": "2014",
    "width": 1880,
    "height": 3000
  },
  {
    "category": "wallpaper",
    "src": "assets/products/oboi/wall&deco/2014/WDFW1402.jpg",
    "brand": "Wall & Deco",
    "collection": "2014",
    "width": 1880,
    "height": 3000
  },

  {
    "category": "wallpaper",
    "src": "assets/products/oboi/wall&deco/2014/WDPR1401 A.jpg",
    "brand": "Wall & Deco",
    "collection": "2014",
    "width": 4230,
    "height": 3000
  },
  {
    "category": "wallpaper",
    "src": "assets/products/oboi/wall&deco/2014/WDPR1402 A.jpg",
    "brand": "Wall & Deco",
    "collection": "2014",
    "width": 2820,
    "height": 3000
  },

  {
    "category": "wallpaper",
    "src": "assets/products/oboi/wall&deco/2014/WDCM1401.jpg",
    "brand": "Wall & Deco",
    "collection": "2014",
    "width": 2820,
    "height": 3000
  },
  {
    "category": "wallpaper",
    "src": "assets/products/oboi/wall&deco/2014/WDCM1402.jpg",
    "brand": "Wall & Deco",
    "collection": "2014",
    "width": 2820,
    "height": 3000
  },

  {
    "category": "wallpaper",
    "src": "assets/products/oboi/wall&deco/2014/WDCN1401.jpg",
    "brand": "Wall & Deco",
    "collection": "2014",
    "width": 2820,
    "height": 3000
  },
  {
    "category": "wallpaper",
    "src": "assets/products/oboi/wall&deco/2014/WDCN1402.jpg",
    "brand": "Wall & Deco",
    "collection": "2014",
    "width": 2820,
    "height": 3000
  },

  {
    "category": "wallpaper",
    "src": "assets/products/oboi/wall&deco/2014/WDUU1401.jpg",
    "brand": "Wall & Deco",
    "collection": "2014",
    "width": 3760,
    "height": 3000
  },
  {
    "category": "wallpaper",
    "src": "assets/products/oboi/wall&deco/2014/WDUU1402.jpg",
    "brand": "Wall & Deco",
    "collection": "2014",
    "width": 3760,
    "height": 3000
  },
  {
    "category": "wallpaper",
    "src": "assets/products/oboi/wall&deco/2014/WDUU1403.jpg",
    "brand": "Wall & Deco",
    "collection": "2014",
    "width": 3760,
    "height": 3000
  },

  {
    "category": "wallpaper",
    "src": "assets/products/oboi/wall&deco/2014/WDCJ1401 A.jpg",
    "brand": "Wall & Deco",
    "collection": "2014",
    "width": 3290,
    "height": 3000
  },
  {
    "category": "wallpaper",
    "src": "assets/products/oboi/wall&deco/2014/WDCJ1402.jpg",
    "brand": "Wall & Deco",
    "collection": "2014",
    "width": 3290,
    "height": 3000
  },

  {
    "category": "wallpaper",
    "src": "assets/products/oboi/wall&deco/2014/WDFI1401 A.jpg",
    "brand": "Wall & Deco",
    "collection": "2014",
    "width": 4230,
    "height": 3000
  },
  {
    "category": "wallpaper",
    "src": "assets/products/oboi/wall&deco/2014/WDFI1402.jpg",
    "brand": "Wall & Deco",
    "collection": "2014",
    "width": 4230,
    "height": 3000
  },

  {
    "category": "wallpaper",
    "src": "assets/products/oboi/wall&deco/2014/WDMO1401 A.jpg",
    "brand": "Wall & Deco",
    "collection": "2014",
    "width": 4230,
    "height": 3000
  },
  {
    "category": "wallpaper",
    "src": "assets/products/oboi/wall&deco/2014/WDMO1402.jpg",
    "brand": "Wall & Deco",
    "collection": "2014",
    "width": 4230,
    "height": 3000
  },

  {
    "category": "wallpaper",
    "src": "assets/products/oboi/wall&deco/2014/WDJV1401 A.jpg",
    "brand": "Wall & Deco",
    "collection": "2014",
    "width": 1880,
    "height": 3000
  },
  {
    "category": "wallpaper",
    "src": "assets/products/oboi/wall&deco/2014/WDJV1402 A.jpg",
    "brand": "Wall & Deco",
    "collection": "2014",
    "width": 1880,
    "height": 3000
  },

  {
    "category": "wallpaper",
    "src": "assets/products/oboi/wall&deco/2014/WDBR1401 B.jpg",
    "brand": "Wall & Deco",
    "collection": "2014",
    "width": 4230,
    "height": 3000
  },
  {
    "category": "wallpaper",
    "src": "assets/products/oboi/wall&deco/2014/WDBR1402 A.jpg",
    "brand": "Wall & Deco",
    "collection": "2014",
    "width": 4230,
    "height": 3000
  },

  {
    "category": "wallpaper",
    "src": "assets/products/oboi/wall&deco/2014/WDSU1401.jpg",
    "brand": "Wall & Deco",
    "collection": "2014",
    "width": 2820,
    "height": 3000
  },
  {
    "category": "wallpaper",
    "src": "assets/products/oboi/wall&deco/2014/WDSU1402.jpg",
    "brand": "Wall & Deco",
    "collection": "2014",
    "width": 2820,
    "height": 3000
  },

  {
    "category": "wallpaper",
    "src": "assets/products/oboi/wall&deco/2014/WDSO1401.jpg",
    "brand": "Wall & Deco",
    "collection": "2014",
    "width": 3290,
    "height": 3000
  },
  {
    "category": "wallpaper",
    "src": "assets/products/oboi/wall&deco/2014/WDSO1402.jpg",
    "brand": "Wall & Deco",
    "collection": "2014",
    "width": 3290,
    "height": 3000
  },

  {
    "category": "wallpaper",
    "src": "assets/products/oboi/wall&deco/2014/WDUP1401.jpg",
    "brand": "Wall & Deco",
    "collection": "2014",
    "width": 1410,
    "height": 3000
  },
  {
    "category": "wallpaper",
    "src": "assets/products/oboi/wall&deco/2014/WDUP1402.jpg",
    "brand": "Wall & Deco",
    "collection": "2014",
    "width": 1410,
    "height": 3000
  },

  {
    "category": "wallpaper",
    "src": "assets/products/oboi/wall&deco/2014/WDEN1401.jpg",
    "brand": "Wall & Deco",
    "collection": "2014",
    "width": 3290,
    "height": 3000
  },
  {
    "category": "wallpaper",
    "src": "assets/products/oboi/wall&deco/2014/WDEN1402.jpg",
    "brand": "Wall & Deco",
    "collection": "2014",
    "width": 3290,
    "height": 3000
  },

  {
    "category": "wallpaper",
    "src": "assets/products/oboi/wall&deco/2014/WDMA1401 A.jpg",
    "brand": "Wall & Deco",
    "collection": "2014",
    "width": 4230,
    "height": 3000
  },
  {
    "category": "wallpaper",
    "src": "assets/products/oboi/wall&deco/2014/WDMA1402 A.jpg",
    "brand": "Wall & Deco",
    "collection": "2014",
    "width": 4230,
    "height": 3000
  },

  {
    "category": "wallpaper",
    "src": "assets/products/oboi/wall&deco/2014/WDSL1401 A.jpg",
    "brand": "Wall & Deco",
    "collection": "2014",
    "width": 4230,
    "height": 3000
  },
  {
    "category": "wallpaper",
    "src": "assets/products/oboi/wall&deco/2014/WDSL1402 A.jpg",
    "brand": "Wall & Deco",
    "collection": "2014",
    "width": 4230,
    "height": 3000
  },

  {
    "category": "wallpaper",
    "src": "assets/products/oboi/wall&deco/2014/WDBW1401.jpg",
    "brand": "Wall & Deco",
    "collection": "2014",
    "width": 2820,
    "height": 3000
  },
  {
    "category": "wallpaper",
    "src": "assets/products/oboi/wall&deco/2014/WDBW1402.jpg",
    "brand": "Wall & Deco",
    "collection": "2014",
    "width": 2820,
    "height": 3000
  },

  {
    "category": "wallpaper",
    "src": "assets/products/oboi/wall&deco/2014/GPW1403.jpg",
    "brand": "Wall & Deco",
    "collection": "2014",
    "width": 4700,
    "height": 3000
  },
  {
    "category": "wallpaper",
    "src": "assets/products/oboi/wall&deco/2014/GPW1404.jpg",
    "brand": "Wall & Deco",
    "collection": "2014",
    "width": 4700,
    "height": 3000
  },

  {
    "category": "wallpaper",
    "src": "assets/products/oboi/wall&deco/2014/GPW1405.jpg",
    "brand": "Wall & Deco",
    "collection": "2014",
    "width": 4700,
    "height": 3000
  },
  {
    "category": "wallpaper",
    "src": "assets/products/oboi/wall&deco/2014/GPW1406.jpg",
    "brand": "Wall & Deco",
    "collection": "2014",
    "width": 4700,
    "height": 3000
  },

  {
    "category": "wallpaper",
    "src": "assets/products/oboi/wall&deco/2014/GPW1407.jpg",
    "brand": "Wall & Deco",
    "collection": "2014",
    "width": 4700,
    "height": 3000
  },
  {
    "category": "wallpaper",
    "src": "assets/products/oboi/wall&deco/2014/GPW1408.jpg",
    "brand": "Wall & Deco",
    "collection": "2014",
    "width": 4700,
    "height": 3000
  },
  {
    "category": "wallpaper",
    "src": "assets/products/oboi/wall&deco/2014/GPW1409.jpg",
    "brand": "Wall & Deco",
    "collection": "2014",
    "width": 4700,
    "height": 3000
  },

  {
    "category": "wallpaper",
    "src": "assets/products/oboi/wall&deco/2014/GPW1433.jpg",
    "brand": "Wall & Deco",
    "collection": "2014",
    "width": 4700,
    "height": 3000
  },
  {
    "category": "wallpaper",
    "src": "assets/products/oboi/wall&deco/2014/GPW1434.jpg",
    "brand": "Wall & Deco",
    "collection": "2014",
    "width": 4700,
    "height": 3000
  },

  {
    "category": "wallpaper",
    "src": "assets/products/oboi/wall&deco/2014/GPW1440.jpg",
    "brand": "Wall & Deco",
    "collection": "2014",
    "width": 4700,
    "height": 3000
  },

  {
    "category": "wallpaper",
    "src": "assets/products/oboi/wall&deco/2014/GPW1435.jpg",
    "brand": "Wall & Deco",
    "collection": "2014",
    "width": 4700,
    "height": 3000
  },
  {
    "category": "wallpaper",
    "src": "assets/products/oboi/wall&deco/2014/GPW1436.jpg",
    "brand": "Wall & Deco",
    "collection": "2014",
    "width": 4700,
    "height": 3000
  },

  {
    "category": "wallpaper",
    "src": "assets/products/oboi/wall&deco/2014/GPW1416.jpg",
    "brand": "Wall & Deco",
    "collection": "2014",
    "width": 4700,
    "height": 3000
  },
  {
    "category": "wallpaper",
    "src": "assets/products/oboi/wall&deco/2014/GPW1417.jpg",
    "brand": "Wall & Deco",
    "collection": "2014",
    "width": 4700,
    "height": 3000
  },
  {
    "category": "wallpaper",
    "src": "assets/products/oboi/wall&deco/2014/GPW1418.jpg",
    "brand": "Wall & Deco",
    "collection": "2014",
    "width": 4700,
    "height": 3000
  },

  {
    "category": "wallpaper",
    "src": "assets/products/oboi/wall&deco/2014/GPW1411.jpg",
    "brand": "Wall & Deco",
    "collection": "2014",
    "width": 4700,
    "height": 3000
  },
  {
    "category": "wallpaper",
    "src": "assets/products/oboi/wall&deco/2014/GPW1412.jpg",
    "brand": "Wall & Deco",
    "collection": "2014",
    "width": 4700,
    "height": 3000
  },

  {
    "category": "wallpaper",
    "src": "assets/products/oboi/wall&deco/2014/GPW1439.jpg",
    "brand": "Wall & Deco",
    "collection": "2014",
    "width": 4700,
    "height": 3000
  },

  {
    "category": "wallpaper",
    "src": "assets/products/oboi/wall&deco/2014/GPW1420.jpg",
    "brand": "Wall & Deco",
    "collection": "2014",
    "width": 4700,
    "height": 3000
  },
  {
    "category": "wallpaper",
    "src": "assets/products/oboi/wall&deco/2014/GPW1421.jpg",
    "brand": "Wall & Deco",
    "collection": "2014",
    "width": 4700,
    "height": 3000
  },
  {
    "category": "wallpaper",
    "src": "assets/products/oboi/wall&deco/2014/GPW1422.jpg",
    "brand": "Wall & Deco",
    "collection": "2014",
    "width": 4700,
    "height": 3000
  },
  {
    "category": "wallpaper",
    "src": "assets/products/oboi/wall&deco/2014/GPW1423.jpg",
    "brand": "Wall & Deco",
    "collection": "2014",
    "width": 4700,
    "height": 3000
  },
  {
    "category": "wallpaper",
    "src": "assets/products/oboi/wall&deco/2014/GPW1424.jpg",
    "brand": "Wall & Deco",
    "collection": "2014",
    "width": 4700,
    "height": 3000
  },
  {
    "category": "wallpaper",
    "src": "assets/products/oboi/wall&deco/2014/GPW1425.jpg",
    "brand": "Wall & Deco",
    "collection": "2014",
    "width": 4700,
    "height": 3000
  },

  {
    "category": "wallpaper",
    "src": "assets/products/oboi/wall&deco/2014/GPW1419.jpg",
    "brand": "Wall & Deco",
    "collection": "2014",
    "width": 4700,
    "height": 3000
  },

  {
    "category": "wallpaper",
    "src": "assets/products/oboi/wall&deco/2014/GPW1437.jpg",
    "brand": "Wall & Deco",
    "collection": "2014",
    "width": 4700,
    "height": 3000
  },
  {
    "category": "wallpaper",
    "src": "assets/products/oboi/wall&deco/2014/GPW1438.jpg",
    "brand": "Wall & Deco",
    "collection": "2014",
    "width": 4700,
    "height": 3000
  },

  {
    "category": "wallpaper",
    "src": "assets/products/oboi/wall&deco/2014/GPW1413.jpg",
    "brand": "Wall & Deco",
    "collection": "2014",
    "width": 4700,
    "height": 3000
  },
  {
    "category": "wallpaper",
    "src": "assets/products/oboi/wall&deco/2014/GPW1414.jpg",
    "brand": "Wall & Deco",
    "collection": "2014",
    "width": 4700,
    "height": 3000
  },

  {
    "category": "wallpaper",
    "src": "assets/products/oboi/wall&deco/2014/TTSH1401.jpg",
    "brand": "Wall & Deco",
    "collection": "2014",
    "width": 1880,
    "height": 3000
  },

  {
    "category": "wallpaper",
    "src": "assets/products/oboi/wall&deco/2014/TTFA1401.jpg",
    "brand": "Wall & Deco",
    "collection": "2014",
    "width": 1880,
    "height": 3000
  },
  {
    "category": "wallpaper",
    "src": "assets/products/oboi/wall&deco/2014/TTFA1402.jpg",
    "brand": "Wall & Deco",
    "collection": "2014",
    "width": 1880,
    "height": 3000
  },

  {
    "category": "wallpaper",
    "src": "assets/products/oboi/wall&deco/2014/TTBA1401.jpg",
    "brand": "Wall & Deco",
    "collection": "2014",
    "width": 1880,
    "height": 3000
  },
  {
    "category": "wallpaper",
    "src": "assets/products/oboi/wall&deco/2014/TTBA1402.jpg",
    "brand": "Wall & Deco",
    "collection": "2014",
    "width": 1880,
    "height": 3000
  },

  {
    "category": "wallpaper",
    "src": "assets/products/oboi/wall&deco/2014/TTAL1401 A.jpg",
    "brand": "Wall & Deco",
    "collection": "2014",
    "width": 1880,
    "height": 3000
  },
  {
    "category": "wallpaper",
    "src": "assets/products/oboi/wall&deco/2014/TTAL1402 A.jpg",
    "brand": "Wall & Deco",
    "collection": "2014",
    "width": 1880,
    "height": 3000
  },

  {
    "category": "wallpaper",
    "src": "assets/products/oboi/wall&deco/2014/TTQP1401.jpg",
    "brand": "Wall & Deco",
    "collection": "2014",
    "width": 1880,
    "height": 3000
  },
  {
    "category": "wallpaper",
    "src": "assets/products/oboi/wall&deco/2014/TTQP1402.jpg",
    "brand": "Wall & Deco",
    "collection": "2014",
    "width": 1880,
    "height": 3000
  },

  {
    "category": "wallpaper",
    "src": "assets/products/oboi/wall&deco/2014/BBXP1401.jpg",
    "brand": "Wall & Deco",
    "collection": "2014",
    "width": 3290,
    "height": 3000
  },
  {
    "category": "wallpaper",
    "src": "assets/products/oboi/wall&deco/2014/BBXP1402.jpg",
    "brand": "Wall & Deco",
    "collection": "2014",
    "width": 3290,
    "height": 3000
  },

  {
    "category": "wallpaper",
    "src": "assets/products/oboi/wall&deco/2014/BBNO1401 A.jpg",
    "brand": "Wall & Deco",
    "collection": "2014",
    "width": 3290,
    "height": 3000
  },
  {
    "category": "wallpaper",
    "src": "assets/products/oboi/wall&deco/2014/BBNO1402 A.jpg",
    "brand": "Wall & Deco",
    "collection": "2014",
    "width": 3290,
    "height": 3000
  },

  {
    "category": "wallpaper",
    "src": "assets/products/oboi/wall&deco/2014/BBCH1401 A.jpg",
    "brand": "Wall & Deco",
    "collection": "2014",
    "width": 3290,
    "height": 3000
  },
  {
    "category": "wallpaper",
    "src": "assets/products/oboi/wall&deco/2014/BBCH1402 A.jpg",
    "brand": "Wall & Deco",
    "collection": "2014",
    "width": 3290,
    "height": 3000
  },

  {
    "category": "wallpaper",
    "src": "assets/products/oboi/wall&deco/2014/BBGR1401.jpg",
    "brand": "Wall & Deco",
    "collection": "2014",
    "width": 3290,
    "height": 3000
  },
  {
    "category": "wallpaper",
    "src": "assets/products/oboi/wall&deco/2014/BBGR1402.jpg",
    "brand": "Wall & Deco",
    "collection": "2014",
    "width": 3290,
    "height": 3000
  },
  {
    "category": "wallpaper",
    "src": "assets/products/oboi/wall&deco/2014/BBGR1403.jpg",
    "brand": "Wall & Deco",
    "collection": "2014",
    "width": 3290,
    "height": 3000
  },

  {
    "category": "wallpaper",
    "src": "assets/products/oboi/wall&deco/2014/BBLM1401.jpg",
    "brand": "Wall & Deco",
    "collection": "2014",
    "width": 3290,
    "height": 3000
  },
  {
    "category": "wallpaper",
    "src": "assets/products/oboi/wall&deco/2014/BBLM1402.jpg",
    "brand": "Wall & Deco",
    "collection": "2014",
    "width": 3290,
    "height": 3000
  }


]
