
[
  {
    "category": "wallpaper",
    "src": "assets/products/oboi/wall&deco/Anniversary/Arabesque reloaded.jpg",
    "brand": "Wall & Deco",
    "collection": "Anniversary",
    "width": 4100,
    "height": 3000
  },

  {
    "category": "wallpaper",
    "src": "assets/products/oboi/wall&deco/Anniversary/Cherry tree reloaded.jpg",
    "brand": "Wall & Deco",
    "collection": "Anniversary",
    "width": 4230,
    "height": 3000
  },

  {
    "category": "wallpaper",
    "src": "assets/products/oboi/wall&deco/Anniversary/Japan Wind reloaded.jpg",
    "brand": "Wall & Deco",
    "collection": "Anniversary",
    "width": 4230,
    "height": 3000
  },

  {
    "category": "wallpaper",
    "src": "assets/products/oboi/wall&deco/Anniversary/Jungle reloaded.jpg",
    "brand": "Wall & Deco",
    "collection": "Anniversary",
    "width": 4230,
    "height": 3000
  },

  {
    "category": "wallpaper",
    "src": "assets/products/oboi/wall&deco/Anniversary/Lotus reloaded.jpg",
    "brand": "Wall & Deco",
    "collection": "Anniversary",
    "width": 4200,
    "height": 3000
  },

  {
    "category": "wallpaper",
    "src": "assets/products/oboi/wall&deco/Anniversary/Musharabia reloaded.jpg",
    "brand": "Wall & Deco",
    "collection": "Anniversary",
    "width": 3290,
    "height": 3000
  },

  {
    "category": "wallpaper",
    "src": "assets/products/oboi/wall&deco/Anniversary/Optical reloaded.jpg",
    "brand": "Wall & Deco",
    "collection": "Anniversary",
    "width": 1820,
    "height": 3000
  },

  {
    "category": "wallpaper",
    "src": "assets/products/oboi/wall&deco/Anniversary/Tangerine reloaded.jpg",
    "brand": "Wall & Deco",
    "collection": "Anniversary",
    "width": 3170,
    "height": 3000
  },

  {
    "category": "wallpaper",
    "src": "assets/products/oboi/wall&deco/Anniversary/Tropicalia reloaded.jpg",
    "brand": "Wall & Deco",
    "collection": "Anniversary",
    "width": 6140,
    "height": 3000
  },

  {
    "category": "wallpaper",
    "src": "assets/products/oboi/wall&deco/Anniversary/Tropics reloaded.jpg",
    "brand": "Wall & Deco",
    "collection": "Anniversary",
    "width": 4080,
    "height": 3000
  }


]
