# 3ds Max Wavefront OBJ Exporter v0.97b - (c)2007 guruware
# File Created: 02.12.2015 12:37:35

mtllib _FRONT.mtl

#
# object _FRONT
#

v  2124.568359 0.000000 -2220.287842
v  2124.568359 2100.000000 -2220.287842
v  1064.568481 2100.000000 -2220.287842
v  1064.568359 0.000000 -2220.287842
v  -1065.431641 0.000000 -2220.287842
v  -1065.431519 2100.000000 -2220.287842
v  -2125.431641 2100.000000 -2220.287842
v  -2125.431641 0.000000 -2220.287842
v  2124.568359 2700.000000 -2220.287842
v  1064.568359 2700.000000 -2220.287842
v  -1065.431641 2700.000000 -2220.287842
v  -2125.431641 2700.000000 -2220.287842
v  1064.568359 2100.000000 -2520.287842
v  1064.568359 0.000000 -2520.287842
v  -1065.431641 0.000000 -2520.287842
v  -1065.431641 2100.000000 -2520.287842
# 16 vertices

vn 0.000000 0.000000 1.000000
vn -1.000000 0.000000 0.000000
vn -1.000000 0.000000 -0.000000
vn 1.000000 -0.000000 -0.000000
vn 1.000000 0.000000 -0.000000
vn 0.000000 -1.000000 -0.000000
# 6 vertex normals

vt 0.769899 0.751280 0.000000
vt 0.769899 0.936951 0.000000
vt 0.676180 0.936951 0.000000
vt 0.676180 0.751280 0.000000
vt 0.487856 0.751280 0.000000
vt 0.487856 0.936951 0.000000
vt 0.394136 0.936951 0.000000
vt 0.394136 0.751280 0.000000
vt 0.769899 0.990000 0.000000
vt 0.676180 0.990000 0.000000
vt 0.487856 0.990000 0.000000
vt 0.394136 0.990000 0.000000
vt 0.649655 0.936951 0.000000
vt 0.649655 0.751280 0.000000
vt 0.514380 0.751280 0.000000
vt 0.514380 0.936951 0.000000
vt 0.974170 0.936783 0.000000
vt 0.785846 0.936783 0.000000
vt 0.785846 0.910259 0.000000
vt 0.974170 0.910259 0.000000
# 20 texture coords

g _FRONT
usemtl _WALLS_Shadows_2
s 32
f 1/1/1 2/2/1 3/3/1 
f 3/3/1 4/4/1 1/1/1 
f 5/5/1 6/6/1 7/7/1 
f 7/7/1 8/8/1 5/5/1 
f 2/2/1 9/9/1 10/10/1 
f 10/10/1 3/3/1 2/2/1 
f 3/3/1 10/10/1 11/11/1 
f 11/11/1 6/6/1 3/3/1 
f 6/6/1 11/11/1 12/12/1 
f 12/12/1 7/7/1 6/6/1 
s off
f 4/4/2 3/3/2 13/13/2 
f 13/13/3 14/14/3 4/4/3 
f 6/6/4 5/5/4 15/15/4 
f 15/15/5 16/16/5 6/6/5 
f 3/17/6 6/18/6 16/19/6 
f 16/19/6 13/20/6 3/17/6 
# 16 faces

