[

  {
    "category": "wallpaper",
    "src": "assets/products/oboi/ecowallpaper/Crayon/3901-r1.jpg",
    "brand": "Eco Wallpaper",
    "collection": "Crayon",
    "width": 530,
    "height": 530
  },
  {
    "category": "wallpaper",
    "src": "assets/products/oboi/ecowallpaper/Crayon/3902-r1.jpg",
    "brand": "Eco Wallpaper",
    "collection": "Crayon",
    "width": 530,
    "height": 530
  },
  {
    "category": "wallpaper",
    "src": "assets/products/oboi/ecowallpaper/Crayon/3903-r1.jpg",
    "brand": "Eco Wallpaper",
    "collection": "Crayon",
    "width": 530,
    "height": 530
  },
  {
    "category": "wallpaper",
    "src": "assets/products/oboi/ecowallpaper/Crayon/3904-r1.jpg",
    "brand": "Eco Wallpaper",
    "collection": "Crayon",
    "width": 530,
    "height": 530
  },
  {
    "category": "wallpaper",
    "src": "assets/products/oboi/ecowallpaper/Crayon/3905-r1.jpg",
    "brand": "Eco Wallpaper",
    "collection": "Crayon",
    "width": 530,
    "height": 530
  },
  {
    "category": "wallpaper",
    "src": "assets/products/oboi/ecowallpaper/Crayon/3906-r1.jpg",
    "brand": "Eco Wallpaper",
    "collection": "Crayon",
    "width": 530,
    "height": 530
  },
  {
    "category": "wallpaper",
    "src": "assets/products/oboi/ecowallpaper/Crayon/3907-r1.jpg",
    "brand": "Eco Wallpaper",
    "collection": "Crayon",
    "width": 530,
    "height": 530
  },
  {
    "category": "wallpaper",
    "src": "assets/products/oboi/ecowallpaper/Crayon/3908-r1.jpg",
    "brand": "Eco Wallpaper",
    "collection": "Crayon",
    "width": 530,
    "height": 530
  },
  {
    "category": "wallpaper",
    "src": "assets/products/oboi/ecowallpaper/Crayon/3909-r1.jpg",
    "brand": "Eco Wallpaper",
    "collection": "Crayon",
    "width": 530,
    "height": 530
  },
  {
    "category": "wallpaper",
    "src": "assets/products/oboi/ecowallpaper/Crayon/3910-r1.jpg",
    "brand": "Eco Wallpaper",
    "collection": "Crayon",
    "width": 530,
    "height": 530
  },
  {
    "category": "wallpaper",
    "src": "assets/products/oboi/ecowallpaper/Crayon/3911-r1.jpg",
    "brand": "Eco Wallpaper",
    "collection": "Crayon",
    "width": 530,
    "height": 530
  },
  {
    "category": "wallpaper",
    "src": "assets/products/oboi/ecowallpaper/Crayon/3912-r1.jpg",
    "brand": "Eco Wallpaper",
    "collection": "Crayon",
    "width": 530,
    "height": 530
  },
  {
    "category": "wallpaper",
    "src": "assets/products/oboi/ecowallpaper/Crayon/3913-r1.jpg",
    "brand": "Eco Wallpaper",
    "collection": "Crayon",
    "width": 530,
    "height": 530
  },
  {
    "category": "wallpaper",
    "src": "assets/products/oboi/ecowallpaper/Crayon/3914-r1.jpg",
    "brand": "Eco Wallpaper",
    "collection": "Crayon",
    "width": 530,
    "height": 530
  },
  {
    "category": "wallpaper",
    "src": "assets/products/oboi/ecowallpaper/Crayon/3915-r1.jpg",
    "brand": "Eco Wallpaper",
    "collection": "Crayon",
    "width": 530,
    "height": 530
  },
  {
    "category": "wallpaper",
    "src": "assets/products/oboi/ecowallpaper/Crayon/3916-r1.jpg",
    "brand": "Eco Wallpaper",
    "collection": "Crayon",
    "width": 530,
    "height": 530
  },
  {
    "category": "wallpaper",
    "src": "assets/products/oboi/ecowallpaper/Crayon/3917-r1.jpg",
    "brand": "Eco Wallpaper",
    "collection": "Crayon",
    "width": 530,
    "height": 530
  },
  {
    "category": "wallpaper",
    "src": "assets/products/oboi/ecowallpaper/Crayon/3918-r1.jpg",
    "brand": "Eco Wallpaper",
    "collection": "Crayon",
    "width": 530,
    "height": 530
  },
  {
    "category": "wallpaper",
    "src": "assets/products/oboi/ecowallpaper/Crayon/3919-r1.jpg",
    "brand": "Eco Wallpaper",
    "collection": "Crayon",
    "width": 530,
    "height": 530
  },
  {
    "category": "wallpaper",
    "src": "assets/products/oboi/ecowallpaper/Crayon/3920-r1.jpg",
    "brand": "Eco Wallpaper",
    "collection": "Crayon",
    "width": 530,
    "height": 530
  },
  {
    "category": "wallpaper",
    "src": "assets/products/oboi/ecowallpaper/Crayon/3921-r1.jpg",
    "brand": "Eco Wallpaper",
    "collection": "Crayon",
    "width": 530,
    "height": 530
  },
  {
    "category": "wallpaper",
    "src": "assets/products/oboi/ecowallpaper/Crayon/3922-r1.jpg",
    "brand": "Eco Wallpaper",
    "collection": "Crayon",
    "width": 530,
    "height": 530
  },
  {
    "category": "wallpaper",
    "src": "assets/products/oboi/ecowallpaper/Crayon/3923-r1.jpg",
    "brand": "Eco Wallpaper",
    "collection": "Crayon",
    "width": 530,
    "height": 530
  },
  {
    "category": "wallpaper",
    "src": "assets/products/oboi/ecowallpaper/Crayon/3924-r1.jpg",
    "brand": "Eco Wallpaper",
    "collection": "Crayon",
    "width": 530,
    "height": 530
  },
  {
    "category": "wallpaper",
    "src": "assets/products/oboi/ecowallpaper/Crayon/3925-r1.jpg",
    "brand": "Eco Wallpaper",
    "collection": "Crayon",
    "width": 530,
    "height": 530
  },
  {
    "category": "wallpaper",
    "src": "assets/products/oboi/ecowallpaper/Crayon/3926-r1.jpg",
    "brand": "Eco Wallpaper",
    "collection": "Crayon",
    "width": 530,
    "height": 530
  },
  {
    "category": "wallpaper",
    "src": "assets/products/oboi/ecowallpaper/Crayon/3927-r1.jpg",
    "brand": "Eco Wallpaper",
    "collection": "Crayon",
    "width": 530,
    "height": 530
  },
  {
    "category": "wallpaper",
    "src": "assets/products/oboi/ecowallpaper/Crayon/3928-r1.jpg",
    "brand": "Eco Wallpaper",
    "collection": "Crayon",
    "width": 530,
    "height": 530
  },
  {
    "category": "wallpaper",
    "src": "assets/products/oboi/ecowallpaper/Crayon/3929-r1.jpg",
    "brand": "Eco Wallpaper",
    "collection": "Crayon",
    "width": 530,
    "height": 530
  },
  {
    "category": "wallpaper",
    "src": "assets/products/oboi/ecowallpaper/Crayon/3930-r1.jpg",
    "brand": "Eco Wallpaper",
    "collection": "Crayon",
    "width": 530,
    "height": 530
  },
  {
    "category": "wallpaper",
    "src": "assets/products/oboi/ecowallpaper/Crayon/3931-r1.jpg",
    "brand": "Eco Wallpaper",
    "collection": "Crayon",
    "width": 530,
    "height": 530
  },
  {
    "category": "wallpaper",
    "src": "assets/products/oboi/ecowallpaper/Crayon/3932-r1.jpg",
    "brand": "Eco Wallpaper",
    "collection": "Crayon",
    "width": 530,
    "height": 530
  },
  {
    "category": "wallpaper",
    "src": "assets/products/oboi/ecowallpaper/Crayon/3933-r1.jpg",
    "brand": "Eco Wallpaper",
    "collection": "Crayon",
    "width": 530,
    "height": 530
  },
  {
    "category": "wallpaper",
    "src": "assets/products/oboi/ecowallpaper/Crayon/3934-r1.jpg",
    "brand": "Eco Wallpaper",
    "collection": "Crayon",
    "width": 530,
    "height": 530
  },
  {
    "category": "wallpaper",
    "src": "assets/products/oboi/ecowallpaper/Crayon/3935-r1.jpg",
    "brand": "Eco Wallpaper",
    "collection": "Crayon",
    "width": 530,
    "height": 530
  },
  {
    "category": "wallpaper",
    "src": "assets/products/oboi/ecowallpaper/Crayon/3936-r1.jpg",
    "brand": "Eco Wallpaper",
    "collection": "Crayon",
    "width": 530,
    "height": 530
  },
  {
    "category": "wallpaper",
    "src": "assets/products/oboi/ecowallpaper/Crayon/3937-r1.jpg",
    "brand": "Eco Wallpaper",
    "collection": "Crayon",
    "width": 530,
    "height": 530
  }



]
