[

  {
    "category": "wallpaper",
    "src": "assets/products/oboi/ecowallpaper/Decorama/4101.jpg",
    "brand": "Eco Wallpaper",
    "collection": "Decorama",
    "width": 530,
    "height": 530
  },
  {
    "category": "wallpaper",
    "src": "assets/products/oboi/ecowallpaper/Decorama/4102.jpg",
    "brand": "Eco Wallpaper",
    "collection": "Decorama",
    "width": 530,
    "height": 530
  },
  {
    "category": "wallpaper",
    "src": "assets/products/oboi/ecowallpaper/Decorama/4103.jpg",
    "brand": "Eco Wallpaper",
    "collection": "Decorama",
    "width": 530,
    "height": 530
  },
  {
    "category": "wallpaper",
    "src": "assets/products/oboi/ecowallpaper/Decorama/4104.jpg",
    "brand": "Eco Wallpaper",
    "collection": "Decorama",
    "width": 530,
    "height": 530
  },
  {
    "category": "wallpaper",
    "src": "assets/products/oboi/ecowallpaper/Decorama/4105.jpg",
    "brand": "Eco Wallpaper",
    "collection": "Decorama",
    "width": 530,
    "height": 530
  },
  {
    "category": "wallpaper",
    "src": "assets/products/oboi/ecowallpaper/Decorama/4106.jpg",
    "brand": "Eco Wallpaper",
    "collection": "Decorama",
    "width": 530,
    "height": 530
  },
  {
    "category": "wallpaper",
    "src": "assets/products/oboi/ecowallpaper/Decorama/4107.jpg",
    "brand": "Eco Wallpaper",
    "collection": "Decorama",
    "width": 530,
    "height": 530
  },
  {
    "category": "wallpaper",
    "src": "assets/products/oboi/ecowallpaper/Decorama/4108.jpg",
    "brand": "Eco Wallpaper",
    "collection": "Decorama",
    "width": 530,
    "height": 530
  },
  {
    "category": "wallpaper",
    "src": "assets/products/oboi/ecowallpaper/Decorama/4109.jpg",
    "brand": "Eco Wallpaper",
    "collection": "Decorama",
    "width": 530,
    "height": 530
  },
  {
    "category": "wallpaper",
    "src": "assets/products/oboi/ecowallpaper/Decorama/4110.jpg",
    "brand": "Eco Wallpaper",
    "collection": "Decorama",
    "width": 530,
    "height": 530
  },
  {
    "category": "wallpaper",
    "src": "assets/products/oboi/ecowallpaper/Decorama/4111.jpg",
    "brand": "Eco Wallpaper",
    "collection": "Decorama",
    "width": 530,
    "height": 530
  },
  {
    "category": "wallpaper",
    "src": "assets/products/oboi/ecowallpaper/Decorama/4112.jpg",
    "brand": "Eco Wallpaper",
    "collection": "Decorama",
    "width": 530,
    "height": 530
  },
  {
    "category": "wallpaper",
    "src": "assets/products/oboi/ecowallpaper/Decorama/4113.jpg",
    "brand": "Eco Wallpaper",
    "collection": "Decorama",
    "width": 530,
    "height": 530
  },
  {
    "category": "wallpaper",
    "src": "assets/products/oboi/ecowallpaper/Decorama/4114.jpg",
    "brand": "Eco Wallpaper",
    "collection": "Decorama",
    "width": 530,
    "height": 530
  },
  {
    "category": "wallpaper",
    "src": "assets/products/oboi/ecowallpaper/Decorama/4115.jpg",
    "brand": "Eco Wallpaper",
    "collection": "Decorama",
    "width": 530,
    "height": 530
  },
  {
    "category": "wallpaper",
    "src": "assets/products/oboi/ecowallpaper/Decorama/4116.jpg",
    "brand": "Eco Wallpaper",
    "collection": "Decorama",
    "width": 530,
    "height": 530
  },
  {
    "category": "wallpaper",
    "src": "assets/products/oboi/ecowallpaper/Decorama/4117.jpg",
    "brand": "Eco Wallpaper",
    "collection": "Decorama",
    "width": 530,
    "height": 530
  },
  {
    "category": "wallpaper",
    "src": "assets/products/oboi/ecowallpaper/Decorama/4118.jpg",
    "brand": "Eco Wallpaper",
    "collection": "Decorama",
    "width": 530,
    "height": 530
  },
  {
    "category": "wallpaper",
    "src": "assets/products/oboi/ecowallpaper/Decorama/4119.jpg",
    "brand": "Eco Wallpaper",
    "collection": "Decorama",
    "width": 530,
    "height": 530
  },
  {
    "category": "wallpaper",
    "src": "assets/products/oboi/ecowallpaper/Decorama/4120.jpg",
    "brand": "Eco Wallpaper",
    "collection": "Decorama",
    "width": 530,
    "height": 530
  },
  {
    "category": "wallpaper",
    "src": "assets/products/oboi/ecowallpaper/Decorama/4121.jpg",
    "brand": "Eco Wallpaper",
    "collection": "Decorama",
    "width": 530,
    "height": 530
  },
  {
    "category": "wallpaper",
    "src": "assets/products/oboi/ecowallpaper/Decorama/4122.jpg",
    "brand": "Eco Wallpaper",
    "collection": "Decorama",
    "width": 530,
    "height": 530
  },
  {
    "category": "wallpaper",
    "src": "assets/products/oboi/ecowallpaper/Decorama/4123.jpg",
    "brand": "Eco Wallpaper",
    "collection": "Decorama",
    "width": 530,
    "height": 530
  },
  {
    "category": "wallpaper",
    "src": "assets/products/oboi/ecowallpaper/Decorama/4124.jpg",
    "brand": "Eco Wallpaper",
    "collection": "Decorama",
    "width": 530,
    "height": 530
  },
  {
    "category": "wallpaper",
    "src": "assets/products/oboi/ecowallpaper/Decorama/4125.jpg",
    "brand": "Eco Wallpaper",
    "collection": "Decorama",
    "width": 530,
    "height": 530
  },
  {
    "category": "wallpaper",
    "src": "assets/products/oboi/ecowallpaper/Decorama/4126.jpg",
    "brand": "Eco Wallpaper",
    "collection": "Decorama",
    "width": 530,
    "height": 530
  },
  {
    "category": "wallpaper",
    "src": "assets/products/oboi/ecowallpaper/Decorama/4127.jpg",
    "brand": "Eco Wallpaper",
    "collection": "Decorama",
    "width": 530,
    "height": 530
  },
  {
    "category": "wallpaper",
    "src": "assets/products/oboi/ecowallpaper/Decorama/4128.jpg",
    "brand": "Eco Wallpaper",
    "collection": "Decorama",
    "width": 530,
    "height": 530
  },
  {
    "category": "wallpaper",
    "src": "assets/products/oboi/ecowallpaper/Decorama/4129.jpg",
    "brand": "Eco Wallpaper",
    "collection": "Decorama",
    "width": 530,
    "height": 530
  },
  {
    "category": "wallpaper",
    "src": "assets/products/oboi/ecowallpaper/Decorama/4130.jpg",
    "brand": "Eco Wallpaper",
    "collection": "Decorama",
    "width": 530,
    "height": 530
  },
  {
    "category": "wallpaper",
    "src": "assets/products/oboi/ecowallpaper/Decorama/4131.jpg",
    "brand": "Eco Wallpaper",
    "collection": "Decorama",
    "width": 530,
    "height": 530
  },
  {
    "category": "wallpaper",
    "src": "assets/products/oboi/ecowallpaper/Decorama/4132.jpg",
    "brand": "Eco Wallpaper",
    "collection": "Decorama",
    "width": 530,
    "height": 530
  },
  {
    "category": "wallpaper",
    "src": "assets/products/oboi/ecowallpaper/Decorama/4133.jpg",
    "brand": "Eco Wallpaper",
    "collection": "Decorama",
    "width": 530,
    "height": 530
  },
  {
    "category": "wallpaper",
    "src": "assets/products/oboi/ecowallpaper/Decorama/4134.jpg",
    "brand": "Eco Wallpaper",
    "collection": "Decorama",
    "width": 530,
    "height": 530
  },
  {
    "category": "wallpaper",
    "src": "assets/products/oboi/ecowallpaper/Decorama/4135.jpg",
    "brand": "Eco Wallpaper",
    "collection": "Decorama",
    "width": 530,
    "height": 530
  },
  {
    "category": "wallpaper",
    "src": "assets/products/oboi/ecowallpaper/Decorama/4136.jpg",
    "brand": "Eco Wallpaper",
    "collection": "Decorama",
    "width": 530,
    "height": 530
  },
  {
    "category": "wallpaper",
    "src": "assets/products/oboi/ecowallpaper/Decorama/4137.jpg",
    "brand": "Eco Wallpaper",
    "collection": "Decorama",
    "width": 530,
    "height": 530
  },
  {
    "category": "wallpaper",
    "src": "assets/products/oboi/ecowallpaper/Decorama/4138.jpg",
    "brand": "Eco Wallpaper",
    "collection": "Decorama",
    "width": 530,
    "height": 530
  },
  {
    "category": "wallpaper",
    "src": "assets/products/oboi/ecowallpaper/Decorama/4139.jpg",
    "brand": "Eco Wallpaper",
    "collection": "Decorama",
    "width": 530,
    "height": 530
  },
  {
    "category": "wallpaper",
    "src": "assets/products/oboi/ecowallpaper/Decorama/4140.jpg",
    "brand": "Eco Wallpaper",
    "collection": "Decorama",
    "width": 530,
    "height": 530
  },
  {
    "category": "wallpaper",
    "src": "assets/products/oboi/ecowallpaper/Decorama/4141.jpg",
    "brand": "Eco Wallpaper",
    "collection": "Decorama",
    "width": 530,
    "height": 530
  },
  {
    "category": "wallpaper",
    "src": "assets/products/oboi/ecowallpaper/Decorama/4142.jpg",
    "brand": "Eco Wallpaper",
    "collection": "Decorama",
    "width": 530,
    "height": 530
  },
  {
    "category": "wallpaper",
    "src": "assets/products/oboi/ecowallpaper/Decorama/4143.jpg",
    "brand": "Eco Wallpaper",
    "collection": "Decorama",
    "width": 530,
    "height": 530
  },
  {
    "category": "wallpaper",
    "src": "assets/products/oboi/ecowallpaper/Decorama/4144.jpg",
    "brand": "Eco Wallpaper",
    "collection": "Decorama",
    "width": 530,
    "height": 530
  },
  {
    "category": "wallpaper",
    "src": "assets/products/oboi/ecowallpaper/Decorama/4145.jpg",
    "brand": "Eco Wallpaper",
    "collection": "Decorama",
    "width": 530,
    "height": 530
  },
  {
    "category": "wallpaper",
    "src": "assets/products/oboi/ecowallpaper/Decorama/4146.jpg",
    "brand": "Eco Wallpaper",
    "collection": "Decorama",
    "width": 530,
    "height": 530
  },
  {
    "category": "wallpaper",
    "src": "assets/products/oboi/ecowallpaper/Decorama/4147.jpg",
    "brand": "Eco Wallpaper",
    "collection": "Decorama",
    "width": 530,
    "height": 530
  },
  {
    "category": "wallpaper",
    "src": "assets/products/oboi/ecowallpaper/Decorama/4148.jpg",
    "brand": "Eco Wallpaper",
    "collection": "Decorama",
    "width": 530,
    "height": 530
  },
  {
    "category": "wallpaper",
    "src": "assets/products/oboi/ecowallpaper/Decorama/4149.jpg",
    "brand": "Eco Wallpaper",
    "collection": "Decorama",
    "width": 530,
    "height": 530
  },
  {
    "category": "wallpaper",
    "src": "assets/products/oboi/ecowallpaper/Decorama/4150.jpg",
    "brand": "Eco Wallpaper",
    "collection": "Decorama",
    "width": 530,
    "height": 530
  },
  {
    "category": "wallpaper",
    "src": "assets/products/oboi/ecowallpaper/Decorama/4151.jpg",
    "brand": "Eco Wallpaper",
    "collection": "Decorama",
    "width": 530,
    "height": 530
  },
  {
    "category": "wallpaper",
    "src": "assets/products/oboi/ecowallpaper/Decorama/4152.jpg",
    "brand": "Eco Wallpaper",
    "collection": "Decorama",
    "width": 530,
    "height": 530
  },
  {
    "category": "wallpaper",
    "src": "assets/products/oboi/ecowallpaper/Decorama/4153.jpg",
    "brand": "Eco Wallpaper",
    "collection": "Decorama",
    "width": 530,
    "height": 530
  },
  {
    "category": "wallpaper",
    "src": "assets/products/oboi/ecowallpaper/Decorama/4154.jpg",
    "brand": "Eco Wallpaper",
    "collection": "Decorama",
    "width": 530,
    "height": 530
  },
  {
    "category": "wallpaper",
    "src": "assets/products/oboi/ecowallpaper/Decorama/4155.jpg",
    "brand": "Eco Wallpaper",
    "collection": "Decorama",
    "width": 530,
    "height": 530
  },
  {
    "category": "wallpaper",
    "src": "assets/products/oboi/ecowallpaper/Decorama/4156.jpg",
    "brand": "Eco Wallpaper",
    "collection": "Decorama",
    "width": 530,
    "height": 530
  },
  {
    "category": "wallpaper",
    "src": "assets/products/oboi/ecowallpaper/Decorama/4157.jpg",
    "brand": "Eco Wallpaper",
    "collection": "Decorama",
    "width": 530,
    "height": 530
  },
  {
    "category": "wallpaper",
    "src": "assets/products/oboi/ecowallpaper/Decorama/4158.jpg",
    "brand": "Eco Wallpaper",
    "collection": "Decorama",
    "width": 530,
    "height": 530
  },
  {
    "category": "wallpaper",
    "src": "assets/products/oboi/ecowallpaper/Decorama/4159.jpg",
    "brand": "Eco Wallpaper",
    "collection": "Decorama",
    "width": 530,
    "height": 530
  },
  {
    "category": "wallpaper",
    "src": "assets/products/oboi/ecowallpaper/Decorama/4160.jpg",
    "brand": "Eco Wallpaper",
    "collection": "Decorama",
    "width": 530,
    "height": 530
  }



]
