[

  {
    "category": "wallpaper",
    "src": "assets/products/oboi/ecowallpaper/Happy/3850.jpg",
    "brand": "Eco Wallpaper",
    "collection": "Happy",
    "width": 1060,
    "height": 530
  },
  {
    "category": "wallpaper",
    "src": "assets/products/oboi/ecowallpaper/Happy/3851.jpg",
    "brand": "Eco Wallpaper",
    "collection": "Happy",
    "width": 1060,
    "height": 530
  },
  {
    "category": "wallpaper",
    "src": "assets/products/oboi/ecowallpaper/Happy/3852.jpg",
    "brand": "Eco Wallpaper",
    "collection": "Happy",
    "width": 1060,
    "height": 530
  }



,
  {
    "category": "wallpaper",
    "src": "assets/products/oboi/ecowallpaper/Happy/3853.jpg",
    "brand": "Eco Wallpaper",
    "collection": "Happy",
    "width": 530,
    "height": 530
  },
  {
    "category": "wallpaper",
    "src": "assets/products/oboi/ecowallpaper/Happy/3854.jpg",
    "brand": "Eco Wallpaper",
    "collection": "Happy",
    "width": 530,
    "height": 530
  },
  {
    "category": "wallpaper",
    "src": "assets/products/oboi/ecowallpaper/Happy/3855.jpg",
    "brand": "Eco Wallpaper",
    "collection": "Happy",
    "width": 530,
    "height": 530
  },
  {
    "category": "wallpaper",
    "src": "assets/products/oboi/ecowallpaper/Happy/3856.jpg",
    "brand": "Eco Wallpaper",
    "collection": "Happy",
    "width": 530,
    "height": 530
  },
  {
    "category": "wallpaper",
    "src": "assets/products/oboi/ecowallpaper/Happy/3857.jpg",
    "brand": "Eco Wallpaper",
    "collection": "Happy",
    "width": 530,
    "height": 530
  },
  {
    "category": "wallpaper",
    "src": "assets/products/oboi/ecowallpaper/Happy/3858.jpg",
    "brand": "Eco Wallpaper",
    "collection": "Happy",
    "width": 530,
    "height": 530
  },
  {
    "category": "wallpaper",
    "src": "assets/products/oboi/ecowallpaper/Happy/3859.jpg",
    "brand": "Eco Wallpaper",
    "collection": "Happy",
    "width": 530,
    "height": 530
  },
  {
    "category": "wallpaper",
    "src": "assets/products/oboi/ecowallpaper/Happy/3860.jpg",
    "brand": "Eco Wallpaper",
    "collection": "Happy",
    "width": 530,
    "height": 530
  },
  {
    "category": "wallpaper",
    "src": "assets/products/oboi/ecowallpaper/Happy/3861.jpg",
    "brand": "Eco Wallpaper",
    "collection": "Happy",
    "width": 530,
    "height": 530
  },
  {
    "category": "wallpaper",
    "src": "assets/products/oboi/ecowallpaper/Happy/3862.jpg",
    "brand": "Eco Wallpaper",
    "collection": "Happy",
    "width": 530,
    "height": 530
  },
  {
    "category": "wallpaper",
    "src": "assets/products/oboi/ecowallpaper/Happy/3863.jpg",
    "brand": "Eco Wallpaper",
    "collection": "Happy",
    "width": 530,
    "height": 530
  },
  {
    "category": "wallpaper",
    "src": "assets/products/oboi/ecowallpaper/Happy/3864.jpg",
    "brand": "Eco Wallpaper",
    "collection": "Happy",
    "width": 530,
    "height": 530
  },
  {
    "category": "wallpaper",
    "src": "assets/products/oboi/ecowallpaper/Happy/3865.jpg",
    "brand": "Eco Wallpaper",
    "collection": "Happy",
    "width": 530,
    "height": 530
  },
  {
    "category": "wallpaper",
    "src": "assets/products/oboi/ecowallpaper/Happy/3866.jpg",
    "brand": "Eco Wallpaper",
    "collection": "Happy",
    "width": 530,
    "height": 530
  },
  {
    "category": "wallpaper",
    "src": "assets/products/oboi/ecowallpaper/Happy/3867.jpg",
    "brand": "Eco Wallpaper",
    "collection": "Happy",
    "width": 530,
    "height": 530
  },
  {
    "category": "wallpaper",
    "src": "assets/products/oboi/ecowallpaper/Happy/3868.jpg",
    "brand": "Eco Wallpaper",
    "collection": "Happy",
    "width": 530,
    "height": 530
  },
  {
    "category": "wallpaper",
    "src": "assets/products/oboi/ecowallpaper/Happy/3869.jpg",
    "brand": "Eco Wallpaper",
    "collection": "Happy",
    "width": 530,
    "height": 530
  },
  {
    "category": "wallpaper",
    "src": "assets/products/oboi/ecowallpaper/Happy/3870.jpg",
    "brand": "Eco Wallpaper",
    "collection": "Happy",
    "width": 530,
    "height": 530
  },
  {
    "category": "wallpaper",
    "src": "assets/products/oboi/ecowallpaper/Happy/3871.jpg",
    "brand": "Eco Wallpaper",
    "collection": "Happy",
    "width": 530,
    "height": 530
  },
  {
    "category": "wallpaper",
    "src": "assets/products/oboi/ecowallpaper/Happy/3872.jpg",
    "brand": "Eco Wallpaper",
    "collection": "Happy",
    "width": 530,
    "height": 530
  },
  {
    "category": "wallpaper",
    "src": "assets/products/oboi/ecowallpaper/Happy/3873.jpg",
    "brand": "Eco Wallpaper",
    "collection": "Happy",
    "width": 530,
    "height": 530
  },
  {
    "category": "wallpaper",
    "src": "assets/products/oboi/ecowallpaper/Happy/3874.jpg",
    "brand": "Eco Wallpaper",
    "collection": "Happy",
    "width": 530,
    "height": 530
  },
  {
    "category": "wallpaper",
    "src": "assets/products/oboi/ecowallpaper/Happy/3875.jpg",
    "brand": "Eco Wallpaper",
    "collection": "Happy",
    "width": 530,
    "height": 530
  },
  {
    "category": "wallpaper",
    "src": "assets/products/oboi/ecowallpaper/Happy/3876.jpg",
    "brand": "Eco Wallpaper",
    "collection": "Happy",
    "width": 530,
    "height": 530
  },
  {
    "category": "wallpaper",
    "src": "assets/products/oboi/ecowallpaper/Happy/3877.jpg",
    "brand": "Eco Wallpaper",
    "collection": "Happy",
    "width": 530,
    "height": 530
  }




,
  {
    "category": "wallpaper",
    "src": "assets/products/oboi/ecowallpaper/Happy/3878.jpg",
    "brand": "Eco Wallpaper",
    "collection": "Happy",
    "width": 1060,
    "height": 530
  },
  {
    "category": "wallpaper",
    "src": "assets/products/oboi/ecowallpaper/Happy/3879.jpg",
    "brand": "Eco Wallpaper",
    "collection": "Happy",
    "width": 1060,
    "height": 530
  }



,
  {
    "category": "wallpaper",
    "src": "assets/products/oboi/ecowallpaper/Happy/3880.jpg",
    "brand": "Eco Wallpaper",
    "collection": "Happy",
    "width": 900,
    "height": 2650
  },
  {
    "category": "wallpaper",
    "src": "assets/products/oboi/ecowallpaper/Happy/3881.jpg",
    "brand": "Eco Wallpaper",
    "collection": "Happy",
    "width": 900,
    "height": 2650
  }



,
  {
    "category": "wallpaper",
    "src": "assets/products/oboi/ecowallpaper/Happy/3882.jpg",
    "brand": "Eco Wallpaper",
    "collection": "Happy",
    "width": 3600,
    "height": 2650
  },
  {
    "category": "wallpaper",
    "src": "assets/products/oboi/ecowallpaper/Happy/3883.jpg",
    "brand": "Eco Wallpaper",
    "collection": "Happy",
    "width": 3600,
    "height": 2650
  }



,
  {
    "category": "wallpaper",
    "src": "assets/products/oboi/ecowallpaper/Happy/3884.jpg",
    "brand": "Eco Wallpaper",
    "collection": "Happy",
    "width": 1800,
    "height": 2650
  },
  {
    "category": "wallpaper",
    "src": "assets/products/oboi/ecowallpaper/Happy/3885.jpg",
    "brand": "Eco Wallpaper",
    "collection": "Happy",
    "width": 1800,
    "height": 2650
  }



]
