[

  {
    "category": "wallpaper",
    "src": "assets/products/oboi/cole&son/Contemporary Restyled/95-1001.jpg",
    "brand": "Cole & Son",
    "collection": "Contemporary Restyled",
    "width": 1040,
    "height": 640
  },
  {
    "category": "wallpaper",
    "src": "assets/products/oboi/cole&son/Contemporary Restyled/95-1002.jpg",
    "brand": "Cole & Son",
    "collection": "Contemporary Restyled",
    "width": 1040,
    "height": 640
  },
  {
    "category": "wallpaper",
    "src": "assets/products/oboi/cole&son/Contemporary Restyled/95-1003.jpg",
    "brand": "Cole & Son",
    "collection": "Contemporary Restyled",
    "width": 1040,
    "height": 640
  },
  {
    "category": "wallpaper",
    "src": "assets/products/oboi/cole&son/Contemporary Restyled/95-1004.jpg",
    "brand": "Cole & Son",
    "collection": "Contemporary Restyled",
    "width": 1040,
    "height": 640
  },
  {
    "category": "wallpaper",
    "src": "assets/products/oboi/cole&son/Contemporary Restyled/95-1005.jpg",
    "brand": "Cole & Son",
    "collection": "Contemporary Restyled",
    "width": 1040,
    "height": 640
  },
  {
    "category": "wallpaper",
    "src": "assets/products/oboi/cole&son/Contemporary Restyled/95-1006.jpg",
    "brand": "Cole & Son",
    "collection": "Contemporary Restyled",
    "width": 1040,
    "height": 640
  },
  {
    "category": "wallpaper",
    "src": "assets/products/oboi/cole&son/Contemporary Restyled/95-1007.jpg",
    "brand": "Cole & Son",
    "collection": "Contemporary Restyled",
    "width": 1040,
    "height": 640
  },
  {
    "category": "wallpaper",
    "src": "assets/products/oboi/cole&son/Contemporary Restyled/95-1008.jpg",
    "brand": "Cole & Son",
    "collection": "Contemporary Restyled",
    "width": 1040,
    "height": 640
  },
  {
    "category": "wallpaper",
    "src": "assets/products/oboi/cole&son/Contemporary Restyled/95-1009.jpg",
    "brand": "Cole & Son",
    "collection": "Contemporary Restyled",
    "width": 1040,
    "height": 640
  }



,
  {
    "category": "wallpaper",
    "src": "assets/products/oboi/cole&son/Contemporary Restyled/95-2010.jpg",
    "brand": "Cole & Son",
    "collection": "Contemporary Restyled",
    "width": 1060,
    "height": 760
  },
  {
    "category": "wallpaper",
    "src": "assets/products/oboi/cole&son/Contemporary Restyled/95-2011.jpg",
    "brand": "Cole & Son",
    "collection": "Contemporary Restyled",
    "width": 1060,
    "height": 760
  },
  {
    "category": "wallpaper",
    "src": "assets/products/oboi/cole&son/Contemporary Restyled/95-2012.jpg",
    "brand": "Cole & Son",
    "collection": "Contemporary Restyled",
    "width": 1060,
    "height": 760
  },
  {
    "category": "wallpaper",
    "src": "assets/products/oboi/cole&son/Contemporary Restyled/95-2013.jpg",
    "brand": "Cole & Son",
    "collection": "Contemporary Restyled",
    "width": 1060,
    "height": 760
  },
  {
    "category": "wallpaper",
    "src": "assets/products/oboi/cole&son/Contemporary Restyled/95-2014.jpg",
    "brand": "Cole & Son",
    "collection": "Contemporary Restyled",
    "width": 1060,
    "height": 760
  },
  {
    "category": "wallpaper",
    "src": "assets/products/oboi/cole&son/Contemporary Restyled/95-2063.jpg",
    "brand": "Cole & Son",
    "collection": "Contemporary Restyled",
    "width": 1060,
    "height": 760
  }




,
  {
    "category": "wallpaper",
    "src": "assets/products/oboi/cole&son/Contemporary Restyled/95-3015.jpg",
    "brand": "Cole & Son",
    "collection": "Contemporary Restyled",
    "width": 520,
    "height": 608
  },
  {
    "category": "wallpaper",
    "src": "assets/products/oboi/cole&son/Contemporary Restyled/95-3016.jpg",
    "brand": "Cole & Son",
    "collection": "Contemporary Restyled",
    "width": 520,
    "height": 608
  },
  {
    "category": "wallpaper",
    "src": "assets/products/oboi/cole&son/Contemporary Restyled/95-3017.jpg",
    "brand": "Cole & Son",
    "collection": "Contemporary Restyled",
    "width": 520,
    "height": 608
  },
  {
    "category": "wallpaper",
    "src": "assets/products/oboi/cole&son/Contemporary Restyled/95-3018.jpg",
    "brand": "Cole & Son",
    "collection": "Contemporary Restyled",
    "width": 520,
    "height": 608
  }





,
  {
    "category": "wallpaper",
    "src": "assets/products/oboi/cole&son/Contemporary Restyled/95-4019.jpg",
    "brand": "Cole & Son",
    "collection": "Contemporary Restyled",
    "width": 520,
    "height": 760
  },
  {
    "category": "wallpaper",
    "src": "assets/products/oboi/cole&son/Contemporary Restyled/95-4020.jpg",
    "brand": "Cole & Son",
    "collection": "Contemporary Restyled",
    "width": 520,
    "height": 760
  },
  {
    "category": "wallpaper",
    "src": "assets/products/oboi/cole&son/Contemporary Restyled/95-4021.jpg",
    "brand": "Cole & Son",
    "collection": "Contemporary Restyled",
    "width": 520,
    "height": 760
  }





,
  {
    "category": "wallpaper",
    "src": "assets/products/oboi/cole&son/Contemporary Restyled/95-4022.jpg",
    "brand": "Cole & Son",
    "collection": "Contemporary Restyled",
    "width": 685,
    "height": 1020
  },
  {
    "category": "wallpaper",
    "src": "assets/products/oboi/cole&son/Contemporary Restyled/95-4023.jpg",
    "brand": "Cole & Son",
    "collection": "Contemporary Restyled",
    "width": 685,
    "height": 1020
  },
  {
    "category": "wallpaper",
    "src": "assets/products/oboi/cole&son/Contemporary Restyled/95-4024.jpg",
    "brand": "Cole & Son",
    "collection": "Contemporary Restyled",
    "width": 685,
    "height": 1020
  },
  {
    "category": "wallpaper",
    "src": "assets/products/oboi/cole&son/Contemporary Restyled/95-4025.jpg",
    "brand": "Cole & Son",
    "collection": "Contemporary Restyled",
    "width": 685,
    "height": 1020
  },
  {
    "category": "wallpaper",
    "src": "assets/products/oboi/cole&son/Contemporary Restyled/95-4026.jpg",
    "brand": "Cole & Son",
    "collection": "Contemporary Restyled",
    "width": 685,
    "height": 1020
  }




,
  {
    "category": "wallpaper",
    "src": "assets/products/oboi/cole&son/Contemporary Restyled/95-5027.jpg",
    "brand": "Cole & Son",
    "collection": "Contemporary Restyled",
    "width": 1060,
    "height": 700
  },
  {
    "category": "wallpaper",
    "src": "assets/products/oboi/cole&son/Contemporary Restyled/95-5028.jpg",
    "brand": "Cole & Son",
    "collection": "Contemporary Restyled",
    "width": 1060,
    "height": 700
  },
  {
    "category": "wallpaper",
    "src": "assets/products/oboi/cole&son/Contemporary Restyled/95-5029.jpg",
    "brand": "Cole & Son",
    "collection": "Contemporary Restyled",
    "width": 1060,
    "height": 700
  },
  {
    "category": "wallpaper",
    "src": "assets/products/oboi/cole&son/Contemporary Restyled/95-5030.jpg",
    "brand": "Cole & Son",
    "collection": "Contemporary Restyled",
    "width": 1060,
    "height": 700
  },
  {
    "category": "wallpaper",
    "src": "assets/products/oboi/cole&son/Contemporary Restyled/95-5031.jpg",
    "brand": "Cole & Son",
    "collection": "Contemporary Restyled",
    "width": 1060,
    "height": 700
  },
  {
    "category": "wallpaper",
    "src": "assets/products/oboi/cole&son/Contemporary Restyled/95-5032.jpg",
    "brand": "Cole & Son",
    "collection": "Contemporary Restyled",
    "width": 1060,
    "height": 700
  }



,
  {
    "category": "wallpaper",
    "src": "assets/products/oboi/cole&son/Contemporary Restyled/95-6033.jpg",
    "brand": "Cole & Son",
    "collection": "Contemporary Restyled",
    "width": 530,
    "height": 760
  },
  {
    "category": "wallpaper",
    "src": "assets/products/oboi/cole&son/Contemporary Restyled/95-6034.jpg",
    "brand": "Cole & Son",
    "collection": "Contemporary Restyled",
    "width": 530,
    "height": 760
  },
  {
    "category": "wallpaper",
    "src": "assets/products/oboi/cole&son/Contemporary Restyled/95-6035.jpg",
    "brand": "Cole & Son",
    "collection": "Contemporary Restyled",
    "width": 530,
    "height": 760
  },
  {
    "category": "wallpaper",
    "src": "assets/products/oboi/cole&son/Contemporary Restyled/95-6036.jpg",
    "brand": "Cole & Son",
    "collection": "Contemporary Restyled",
    "width": 530,
    "height": 760
  },
  {
    "category": "wallpaper",
    "src": "assets/products/oboi/cole&son/Contemporary Restyled/95-6037.jpg",
    "brand": "Cole & Son",
    "collection": "Contemporary Restyled",
    "width": 530,
    "height": 760
  },
  {
    "category": "wallpaper",
    "src": "assets/products/oboi/cole&son/Contemporary Restyled/95-6038.jpg",
    "brand": "Cole & Son",
    "collection": "Contemporary Restyled",
    "width": 530,
    "height": 760
  }




,
  {
    "category": "wallpaper",
    "src": "assets/products/oboi/cole&son/Contemporary Restyled/95-7039.jpg",
    "brand": "Cole & Son",
    "collection": "Contemporary Restyled",
    "width": 1060,
    "height": 760
  },
  {
    "category": "wallpaper",
    "src": "assets/products/oboi/cole&son/Contemporary Restyled/95-7040.jpg",
    "brand": "Cole & Son",
    "collection": "Contemporary Restyled",
    "width": 1060,
    "height": 760
  },
  {
    "category": "wallpaper",
    "src": "assets/products/oboi/cole&son/Contemporary Restyled/95-7041.jpg",
    "brand": "Cole & Son",
    "collection": "Contemporary Restyled",
    "width": 1060,
    "height": 760
  },
  {
    "category": "wallpaper",
    "src": "assets/products/oboi/cole&son/Contemporary Restyled/95-7042.jpg",
    "brand": "Cole & Son",
    "collection": "Contemporary Restyled",
    "width": 1060,
    "height": 760
  },
  {
    "category": "wallpaper",
    "src": "assets/products/oboi/cole&son/Contemporary Restyled/95-7043.jpg",
    "brand": "Cole & Son",
    "collection": "Contemporary Restyled",
    "width": 1060,
    "height": 760
  },
  {
    "category": "wallpaper",
    "src": "assets/products/oboi/cole&son/Contemporary Restyled/95-7044.jpg",
    "brand": "Cole & Son",
    "collection": "Contemporary Restyled",
    "width": 1060,
    "height": 760
  }




,
  {
    "category": "wallpaper",
    "src": "assets/products/oboi/cole&son/Contemporary Restyled/95-8045.jpg",
    "brand": "Cole & Son",
    "collection": "Contemporary Restyled",
    "width": 1060,
    "height": 700
  },
  {
    "category": "wallpaper",
    "src": "assets/products/oboi/cole&son/Contemporary Restyled/95-8046.jpg",
    "brand": "Cole & Son",
    "collection": "Contemporary Restyled",
    "width": 1060,
    "height": 700
  },
  {
    "category": "wallpaper",
    "src": "assets/products/oboi/cole&son/Contemporary Restyled/95-8047.jpg",
    "brand": "Cole & Son",
    "collection": "Contemporary Restyled",
    "width": 1060,
    "height": 700
  },
  {
    "category": "wallpaper",
    "src": "assets/products/oboi/cole&son/Contemporary Restyled/95-8048.jpg",
    "brand": "Cole & Son",
    "collection": "Contemporary Restyled",
    "width": 1060,
    "height": 700
  }




,
  {
    "category": "wallpaper",
    "src": "assets/products/oboi/cole&son/Contemporary Restyled/95-9049.jpg",
    "brand": "Cole & Son",
    "collection": "Contemporary Restyled",
    "width": 1060,
    "height": 760
  },
  {
    "category": "wallpaper",
    "src": "assets/products/oboi/cole&son/Contemporary Restyled/95-9050.jpg",
    "brand": "Cole & Son",
    "collection": "Contemporary Restyled",
    "width": 1060,
    "height": 760
  },
  {
    "category": "wallpaper",
    "src": "assets/products/oboi/cole&son/Contemporary Restyled/95-9051.jpg",
    "brand": "Cole & Son",
    "collection": "Contemporary Restyled",
    "width": 1060,
    "height": 760
  },
  {
    "category": "wallpaper",
    "src": "assets/products/oboi/cole&son/Contemporary Restyled/95-9052.jpg",
    "brand": "Cole & Son",
    "collection": "Contemporary Restyled",
    "width": 1060,
    "height": 760
  },
  {
    "category": "wallpaper",
    "src": "assets/products/oboi/cole&son/Contemporary Restyled/95-9053.jpg",
    "brand": "Cole & Son",
    "collection": "Contemporary Restyled",
    "width": 1060,
    "height": 760
  }




,
  {
    "category": "wallpaper",
    "src": "assets/products/oboi/cole&son/Contemporary Restyled/95-10054.jpg",
    "brand": "Cole & Son",
    "collection": "Contemporary Restyled",
    "width": 1060,
    "height": 760
  },
  {
    "category": "wallpaper",
    "src": "assets/products/oboi/cole&son/Contemporary Restyled/95-10055.jpg",
    "brand": "Cole & Son",
    "collection": "Contemporary Restyled",
    "width": 1060,
    "height": 760
  },
  {
    "category": "wallpaper",
    "src": "assets/products/oboi/cole&son/Contemporary Restyled/95-10056.jpg",
    "brand": "Cole & Son",
    "collection": "Contemporary Restyled",
    "width": 1060,
    "height": 760
  },
  {
    "category": "wallpaper",
    "src": "assets/products/oboi/cole&son/Contemporary Restyled/95-10057.jpg",
    "brand": "Cole & Son",
    "collection": "Contemporary Restyled",
    "width": 1060,
    "height": 760
  },
  {
    "category": "wallpaper",
    "src": "assets/products/oboi/cole&son/Contemporary Restyled/95-10058.jpg",
    "brand": "Cole & Son",
    "collection": "Contemporary Restyled",
    "width": 1060,
    "height": 760
  }




,
  {
    "category": "wallpaper",
    "src": "assets/products/oboi/cole&son/Contemporary Restyled/95-11059.jpg",
    "brand": "Cole & Son",
    "collection": "Contemporary Restyled",
    "width": 530,
    "height": 530
  },
  {
    "category": "wallpaper",
    "src": "assets/products/oboi/cole&son/Contemporary Restyled/95-11060.jpg",
    "brand": "Cole & Son",
    "collection": "Contemporary Restyled",
    "width": 530,
    "height": 530
  },
  {
    "category": "wallpaper",
    "src": "assets/products/oboi/cole&son/Contemporary Restyled/95-11061.jpg",
    "brand": "Cole & Son",
    "collection": "Contemporary Restyled",
    "width": 530,
    "height": 530
  },
  {
    "category": "wallpaper",
    "src": "assets/products/oboi/cole&son/Contemporary Restyled/95-11062.jpg",
    "brand": "Cole & Son",
    "collection": "Contemporary Restyled",
    "width": 530,
    "height": 530
  }



]
