[

  {
    "category": "wallpaper",
    "src": "assets/products/oboi/cole&son/Folie/99-1001.jpg",
    "brand": "Cole & Son",
    "collection": "Folie",
    "width": 1373,
    "height": 680
  },
  {
    "category": "wallpaper",
    "src": "assets/products/oboi/cole&son/Folie/99-1002.jpg",
    "brand": "Cole & Son",
    "collection": "Folie",
    "width": 1373,
    "height": 680
  },
  {
    "category": "wallpaper",
    "src": "assets/products/oboi/cole&son/Folie/99-1003.jpg",
    "brand": "Cole & Son",
    "collection": "Folie",
    "width": 1373,
    "height": 680
  },
  {
    "category": "wallpaper",
    "src": "assets/products/oboi/cole&son/Folie/99-1004.jpg",
    "brand": "Cole & Son",
    "collection": "Folie",
    "width": 1373,
    "height": 680
  }




,
  {
    "category": "wallpaper",
    "src": "assets/products/oboi/cole&son/Folie/99-2005.jpg",
    "brand": "Cole & Son",
    "collection": "Folie",
    "width": 530,
    "height": 760
  },
  {
    "category": "wallpaper",
    "src": "assets/products/oboi/cole&son/Folie/99-2006.jpg",
    "brand": "Cole & Son",
    "collection": "Folie",
    "width": 530,
    "height": 760
  },
  {
    "category": "wallpaper",
    "src": "assets/products/oboi/cole&son/Folie/99-2007.jpg",
    "brand": "Cole & Son",
    "collection": "Folie",
    "width": 530,
    "height": 760
  },
  {
    "category": "wallpaper",
    "src": "assets/products/oboi/cole&son/Folie/99-2008.jpg",
    "brand": "Cole & Son",
    "collection": "Folie",
    "width": 530,
    "height": 760
  },
  {
    "category": "wallpaper",
    "src": "assets/products/oboi/cole&son/Folie/99-2009.jpg",
    "brand": "Cole & Son",
    "collection": "Folie",
    "width": 530,
    "height": 760
  },
  {
    "category": "wallpaper",
    "src": "assets/products/oboi/cole&son/Folie/99-2010.jpg",
    "brand": "Cole & Son",
    "collection": "Folie",
    "width": 530,
    "height": 760
  },
  {
    "category": "wallpaper",
    "src": "assets/products/oboi/cole&son/Folie/99-2011.jpg",
    "brand": "Cole & Son",
    "collection": "Folie",
    "width": 530,
    "height": 760
  }




,
  {
    "category": "wallpaper",
    "src": "assets/products/oboi/cole&son/Folie/99-3012.jpg",
    "brand": "Cole & Son",
    "collection": "Folie",
    "width": 640,
    "height": 400
  },
  {
    "category": "wallpaper",
    "src": "assets/products/oboi/cole&son/Folie/99-3013.jpg",
    "brand": "Cole & Son",
    "collection": "Folie",
    "width": 640,
    "height": 400
  },
  {
    "category": "wallpaper",
    "src": "assets/products/oboi/cole&son/Folie/99-3014.jpg",
    "brand": "Cole & Son",
    "collection": "Folie",
    "width": 640,
    "height": 400
  },
  {
    "category": "wallpaper",
    "src": "assets/products/oboi/cole&son/Folie/99-3015.jpg",
    "brand": "Cole & Son",
    "collection": "Folie",
    "width": 640,
    "height": 400
  },
  {
    "category": "wallpaper",
    "src": "assets/products/oboi/cole&son/Folie/99-3016.jpg",
    "brand": "Cole & Son",
    "collection": "Folie",
    "width": 640,
    "height": 400
  },
  {
    "category": "wallpaper",
    "src": "assets/products/oboi/cole&son/Folie/99-3017.jpg",
    "brand": "Cole & Son",
    "collection": "Folie",
    "width": 640,
    "height": 400
  },
  {
    "category": "wallpaper",
    "src": "assets/products/oboi/cole&son/Folie/99-3018.jpg",
    "brand": "Cole & Son",
    "collection": "Folie",
    "width": 640,
    "height": 400
  }





,
  {
    "category": "wallpaper",
    "src": "assets/products/oboi/cole&son/Folie/99-4019.jpg",
    "brand": "Cole & Son",
    "collection": "Folie",
    "width": 520,
    "height": 520
  },
  {
    "category": "wallpaper",
    "src": "assets/products/oboi/cole&son/Folie/99-4020.jpg",
    "brand": "Cole & Son",
    "collection": "Folie",
    "width": 520,
    "height": 520
  },
  {
    "category": "wallpaper",
    "src": "assets/products/oboi/cole&son/Folie/99-4021.jpg",
    "brand": "Cole & Son",
    "collection": "Folie",
    "width": 520,
    "height": 520
  },
  {
    "category": "wallpaper",
    "src": "assets/products/oboi/cole&son/Folie/99-4022.jpg",
    "brand": "Cole & Son",
    "collection": "Folie",
    "width": 520,
    "height": 520
  }




,
  {
    "category": "wallpaper",
    "src": "assets/products/oboi/cole&son/Folie/99-5023.jpg",
    "brand": "Cole & Son",
    "collection": "Folie",
    "width": 530,
    "height": 700
  },
  {
    "category": "wallpaper",
    "src": "assets/products/oboi/cole&son/Folie/99-5024.jpg",
    "brand": "Cole & Son",
    "collection": "Folie",
    "width": 530,
    "height": 700
  },
  {
    "category": "wallpaper",
    "src": "assets/products/oboi/cole&son/Folie/99-5025.jpg",
    "brand": "Cole & Son",
    "collection": "Folie",
    "width": 530,
    "height": 700
  },
  {
    "category": "wallpaper",
    "src": "assets/products/oboi/cole&son/Folie/99-5026.jpg",
    "brand": "Cole & Son",
    "collection": "Folie",
    "width": 530,
    "height": 700
  },
  {
    "category": "wallpaper",
    "src": "assets/products/oboi/cole&son/Folie/99-5027.jpg",
    "brand": "Cole & Son",
    "collection": "Folie",
    "width": 530,
    "height": 700
  }





,
  {
    "category": "wallpaper",
    "src": "assets/products/oboi/cole&son/Folie/99-7029.jpg",
    "brand": "Cole & Son",
    "collection": "Folie",
    "width": 1060,
    "height": 700
  },
  {
    "category": "wallpaper",
    "src": "assets/products/oboi/cole&son/Folie/99-7030.jpg",
    "brand": "Cole & Son",
    "collection": "Folie",
    "width": 1060,
    "height": 700
  },
  {
    "category": "wallpaper",
    "src": "assets/products/oboi/cole&son/Folie/99-7031.jpg",
    "brand": "Cole & Son",
    "collection": "Folie",
    "width": 1060,
    "height": 700
  },
  {
    "category": "wallpaper",
    "src": "assets/products/oboi/cole&son/Folie/99-7032.jpg",
    "brand": "Cole & Son",
    "collection": "Folie",
    "width": 1060,
    "height": 700
  },
  {
    "category": "wallpaper",
    "src": "assets/products/oboi/cole&son/Folie/99-7033.jpg",
    "brand": "Cole & Son",
    "collection": "Folie",
    "width": 1060,
    "height": 700
  }





,
  {
    "category": "wallpaper",
    "src": "assets/products/oboi/cole&son/Folie/99-8034.jpg",
    "brand": "Cole & Son",
    "collection": "Folie",
    "width": 520,
    "height": 760
  },
  {
    "category": "wallpaper",
    "src": "assets/products/oboi/cole&son/Folie/99-8035.jpg",
    "brand": "Cole & Son",
    "collection": "Folie",
    "width": 520,
    "height": 760
  },
  {
    "category": "wallpaper",
    "src": "assets/products/oboi/cole&son/Folie/99-8036.jpg",
    "brand": "Cole & Son",
    "collection": "Folie",
    "width": 520,
    "height": 760
  }



,
  {
    "category": "wallpaper",
    "src": "assets/products/oboi/cole&son/Folie/99-9037.jpg",
    "brand": "Cole & Son",
    "collection": "Folie",
    "width": 680,
    "height": 640
  },
  {
    "category": "wallpaper",
    "src": "assets/products/oboi/cole&son/Folie/99-9038.jpg",
    "brand": "Cole & Son",
    "collection": "Folie",
    "width": 680,
    "height": 640
  },
  {
    "category": "wallpaper",
    "src": "assets/products/oboi/cole&son/Folie/99-9039.jpg",
    "brand": "Cole & Son",
    "collection": "Folie",
    "width": 680,
    "height": 640
  },
  {
    "category": "wallpaper",
    "src": "assets/products/oboi/cole&son/Folie/99-9040.jpg",
    "brand": "Cole & Son",
    "collection": "Folie",
    "width": 680,
    "height": 640
  },
  {
    "category": "wallpaper",
    "src": "assets/products/oboi/cole&son/Folie/99-9041.jpg",
    "brand": "Cole & Son",
    "collection": "Folie",
    "width": 680,
    "height": 640
  }




,
  {
    "category": "wallpaper",
    "src": "assets/products/oboi/cole&son/Folie/99-10042.jpg",
    "brand": "Cole & Son",
    "collection": "Folie",
    "width": 760,
    "height": 520
  },
  {
    "category": "wallpaper",
    "src": "assets/products/oboi/cole&son/Folie/99-10043.jpg",
    "brand": "Cole & Son",
    "collection": "Folie",
    "width": 760,
    "height": 520
  },
  {
    "category": "wallpaper",
    "src": "assets/products/oboi/cole&son/Folie/99-10044.jpg",
    "brand": "Cole & Son",
    "collection": "Folie",
    "width": 760,
    "height": 520
  },
  {
    "category": "wallpaper",
    "src": "assets/products/oboi/cole&son/Folie/99-10045.jpg",
    "brand": "Cole & Son",
    "collection": "Folie",
    "width": 760,
    "height": 520
  },
  {
    "category": "wallpaper",
    "src": "assets/products/oboi/cole&son/Folie/99-10046.jpg",
    "brand": "Cole & Son",
    "collection": "Folie",
    "width": 760,
    "height": 520
  }




,
  {
    "category": "wallpaper",
    "src": "assets/products/oboi/cole&son/Folie/99-11047.jpg",
    "brand": "Cole & Son",
    "collection": "Folie",
    "width": 520,
    "height": 760
  },
  {
    "category": "wallpaper",
    "src": "assets/products/oboi/cole&son/Folie/99-11048.jpg",
    "brand": "Cole & Son",
    "collection": "Folie",
    "width": 520,
    "height": 760
  }




,
  {
    "category": "wallpaper",
    "src": "assets/products/oboi/cole&son/Folie/99-12050.jpg",
    "brand": "Cole & Son",
    "collection": "Folie",
    "width": 1260,
    "height": 1140
  },
  {
    "category": "wallpaper",
    "src": "assets/products/oboi/cole&son/Folie/99-12051.jpg",
    "brand": "Cole & Son",
    "collection": "Folie",
    "width": 1260,
    "height": 1140
  }




,
  {
    "category": "wallpaper",
    "src": "assets/products/oboi/cole&son/Folie/99-13052.jpg",
    "brand": "Cole & Son",
    "collection": "Folie",
    "width": 520,
    "height": 760
  },
  {
    "category": "wallpaper",
    "src": "assets/products/oboi/cole&son/Folie/99-13053.jpg",
    "brand": "Cole & Son",
    "collection": "Folie",
    "width": 520,
    "height": 760
  },
  {
    "category": "wallpaper",
    "src": "assets/products/oboi/cole&son/Folie/99-13054.jpg",
    "brand": "Cole & Son",
    "collection": "Folie",
    "width": 520,
    "height": 760
  },
  {
    "category": "wallpaper",
    "src": "assets/products/oboi/cole&son/Folie/99-13055.jpg",
    "brand": "Cole & Son",
    "collection": "Folie",
    "width": 520,
    "height": 760
  }



,
  {
    "category": "wallpaper",
    "src": "assets/products/oboi/cole&son/Folie/99-14056.jpg",
    "brand": "Cole & Son",
    "collection": "Folie",
    "width": 692,
    "height": 40
  },
  {
    "category": "wallpaper",
    "src": "assets/products/oboi/cole&son/Folie/99-14057.jpg",
    "brand": "Cole & Son",
    "collection": "Folie",
    "width": 692,
    "height": 40
  },
  {
    "category": "wallpaper",
    "src": "assets/products/oboi/cole&son/Folie/99-14058.jpg",
    "brand": "Cole & Son",
    "collection": "Folie",
    "width": 692,
    "height": 40
  },
  {
    "category": "wallpaper",
    "src": "assets/products/oboi/cole&son/Folie/99-14059.jpg",
    "brand": "Cole & Son",
    "collection": "Folie",
    "width": 692,
    "height": 40
  }





,
  {
    "category": "wallpaper",
    "src": "assets/products/oboi/cole&son/Folie/99-15060.jpg",
    "brand": "Cole & Son",
    "collection": "Folie",
    "width": 1360,
    "height": 914
  },
  {
    "category": "wallpaper",
    "src": "assets/products/oboi/cole&son/Folie/99-15061.jpg",
    "brand": "Cole & Son",
    "collection": "Folie",
    "width": 1360,
    "height": 914
  },
  {
    "category": "wallpaper",
    "src": "assets/products/oboi/cole&son/Folie/99-15063.jpg",
    "brand": "Cole & Son",
    "collection": "Folie",
    "width": 1360,
    "height": 914
  }




,
  {
    "category": "wallpaper",
    "src": "assets/products/oboi/cole&son/Folie/99-16065.jpg",
    "brand": "Cole & Son",
    "collection": "Folie",
    "width": 2740,
    "height": 1825
  }



]
