# 3ds Max Wavefront OBJ Exporter v0.97b - (c)2007 guruware
# File Created: 30.01.2016 12:43:01

mtllib _LEFT.mtl

#
# object _LEFT_
#

v  -1625.000000 2405.000000 -2130.000000
v  -1625.000000 2405.000000 0.000000
v  -1625.000000 -5.000000 0.000000
v  -1625.000000 -5.000000 -2130.000000
v  -1625.000000 2405.000000 2130.000000
v  -1625.000000 -5.000000 2130.000000
# 6 vertices

vn 1.000000 -0.000000 -0.000000
# 1 vertex normals

vt 3.997886 2.411205 0.000500
vt 1.868016 2.411205 0.000500
vt 1.868016 0.001205 0.000500
vt 3.997886 0.001205 0.000500
vt -0.261853 2.411205 0.000500
vt -0.261853 0.001205 0.000500
# 6 texture coords

g _LEFT_
usemtl wire_166229229
s 64
f 1/1/1 2/2/1 3/3/1 
f 3/3/1 4/4/1 1/1/1 
f 5/5/1 6/6/1 3/3/1 
f 3/3/1 2/2/1 5/5/1 
# 4 faces

