<?xml version="1.0" encoding="UTF-8"?>
<!DOCTYPE svg PUBLIC "-//W3C//DTD SVG 1.1//EN" "http://www.w3.org/Graphics/SVG/1.1/DTD/svg11.dtd">
<!-- Creator: CorelDRAW -->
<svg xmlns="http://www.w3.org/2000/svg" xml:space="preserve" width="9.9906mm" height="2.54mm" style="shape-rendering:geometricPrecision; text-rendering:geometricPrecision; image-rendering:optimizeQuality; fill-rule:evenodd; clip-rule:evenodd"
viewBox="0 0 9.9906 2.54"
 xmlns:xlink="http://www.w3.org/1999/xlink">
 <defs>
  <style type="text/css">
   <![CDATA[
    .fil0 {fill:#898989}
   ]]>
  </style>
 </defs>
 <g id="Layer_x0020_1">
  <metadata id="CorelCorpID_0Corel-Layer"/>
  <circle class="fil0" transform="matrix(-0.00587498 1.16984 -1.16981 0.00587498 8.70922 1.25135)" r="0.7937"/>
  <circle class="fil0" transform="matrix(-0.00587498 1.16984 -1.16981 0.00587498 4.99531 1.27)" r="0.7937"/>
  <circle class="fil0" transform="matrix(-0.00587498 1.16984 -1.16981 0.00587498 1.2814 1.28865)" r="0.7937"/>
 </g>
</svg>
